{
  "name": "PurchaseBudgetPurchaseAmount_Variance%_RY_PB",
  "description": "Budgeted Cost Amount vs Invoiced Amount Variance / Purchase Amount",
  "expression": [
    "VAR RY0 =",
    "    FILTER (",
    "        ALL ( 'Date' ),",
    "        'Date'[DateID] <= MAX ( 'Date'[DateID] )",
    "            && 'Date'[Date] > MAX ( 'Date'[TDatePY] )",
    "    )",
    "RETURN",
    "    CALCULATE ( [PurchaseBudgetPurchaseAmount_Variance%_PB], RY0 )"
  ],
  "formatString": "#,##0.0 %",
  "displayFolder": "Σ RY",
  "annotations": [
    {
      "name": "TabularEditor_TranslatedNames",
      "value": "{\"de-DE\":\"Einkaufsbudget Einkaufsmenge Varianz % RY\",\"en-US\":\"Budgeted Cost Amount vs Invoiced Amount Variance % RY\",\"nl-NL\":\"Budget kosten tov gefactureerd bedrag verschil % RY\"}"
    },
    {
      "name": "TabularEditor_TranslatedDescriptions",
      "value": "{\"de-DE\":\"Abteilungen/Einkauf/Berichte und Analysen/Einkaufsbudgets/Budget bearbeiten\",\"en-US\":\"Budgeted Cost Amount vs Invoiced Amount Variance / Purchase Amount\",\"nl-NL\":\"Budget kosten tov Gefactureerd bedrag Verschil / Inkoopbedrag\"}"
    },
    {
      "name": "TabularEditor_TranslatedDisplayFolders",
      "value": "{\"de-DE\":\"Σ RY\",\"en-US\":\"Σ RY\",\"nl-NL\":\"Σ RY\"}"
    }
  ]
}