{
  "name": "PurchaseBudgetQuantity_MTD_PB",
  "description": "Budgeted Quantity Purchase. NAV: Purchase > Analysis & Reporting > Purchase Budget > Edit Budget > Budgeted Quantity",
  "expression": [
    "VAR MTD0 =",
    "    FILTER (",
    "        ALL ( 'Date' ),",
    "        'Date'[DateID] <= MAX ( 'Date'[DateID] )",
    "            && 'Date'[CYearMonthNo] = MAX ( 'Date'[CYearMonthNo] )",
    "    )",
    "RETURN",
    "    CALCULATE ( [PurchaseBudgetQuantity_PB], MTD0 )"
  ],
  "formatString": "#,##0",
  "displayFolder": "Σ MTD",
  "annotations": [
    {
      "name": "TabularEditor_TranslatedNames",
      "value": "{\"de-DE\":\"Einkaufsbudget Menge MTD\",\"en-US\":\"Budgeted Quantity MTD\",\"nl-NL\":\"Budget aantal MTD\"}"
    },
    {
      "name": "TabularEditor_TranslatedDescriptions",
      "value": "{\"de-DE\":\"Abteilungen/Einkauf/Berichte und Analysen/Einkaufsbudgets/Budget bearbeiten\",\"en-US\":\"Budgeted Quantity Purchase. NAV: Purchase > Analysis & Reporting > Purchase Budget > Edit Budget > Budgeted Quantity\",\"nl-NL\":\"Gebudgetteerde aantallen inkoop. NAV: Inkoop > Analyse en rapportage > Inkoopbudget > Budget Bewerken > Aantal (budget)\"}"
    },
    {
      "name": "TabularEditor_TranslatedDisplayFolders",
      "value": "{\"de-DE\":\"Σ MTD\",\"en-US\":\"Σ MTD\",\"nl-NL\":\"Σ MTD\"}"
    }
  ]
}