{
  "name": "PurchaseBudgetPurchaseQuantity_Variance_MTD_PB",
  "description": "Budgeted Quantity - Received Quantity",
  "expression": [
    "VAR MTD0 =",
    "    FILTER (",
    "        ALL ( 'Date' ),",
    "        'Date'[DateID] <= MAX ( 'Date'[DateID] )",
    "            && 'Date'[CYearMonthNo] = MAX ( 'Date'[CYearMonthNo] )",
    "    )",
    "RETURN",
    "    CALCULATE ( [PurchaseBudgetPurchaseQuantity_Variance_PB], MTD0 )"
  ],
  "formatString": "#,##0",
  "displayFolder": "Σ MTD",
  "annotations": [
    {
      "name": "TabularEditor_TranslatedNames",
      "value": "{\"de-DE\":\"Einkaufsbudget Einkaufsmenge Varianz MTD\",\"en-US\":\"Budgeted Quantity vs Invoiced Quantity Variance MTD\",\"nl-NL\":\"Budget aantal tov gefactureerd aantal verschil MTD\"}"
    },
    {
      "name": "TabularEditor_TranslatedDescriptions",
      "value": "{\"de-DE\":\"Abteilungen/Einkauf/Berichte und Analysen/Einkaufsbudgets/Budget bearbeiten\",\"en-US\":\"Budgeted Quantity - Received Quantity\",\"nl-NL\":\"Gebudgetteerde aantallen - gefactureerde ontvangen aantallen\"}"
    },
    {
      "name": "TabularEditor_TranslatedDisplayFolders",
      "value": "{\"de-DE\":\"Σ MTD\",\"en-US\":\"Σ MTD\",\"nl-NL\":\"Σ MTD\"}"
    }
  ]
}