{
  "name": "PurchaseBudgetQuantity_LYMTD_PB",
  "description": "Budgeted Quantity Purchase. NAV: Purchase > Analysis & Reporting > Purchase Budget > Edit Budget > Budgeted Quantity",
  "expression": [
    "VAR LYMTD =",
    "    FILTER (",
    "        ALL ( 'Date' ),",
    "        'Date'[Date] <= MAX ( 'Date'[TDatePY] )",
    "            && 'Date'[CMonthNo] = MAX ( 'Date'[CMonthNo] )",
    "            && 'Date'[CYearNo]",
    "                = MAX ( 'Date'[CYearNo] ) - 1",
    "    )",
    "RETURN",
    "    CALCULATE ( [PurchaseBudgetQuantity_PB], LYMTD )"
  ],
  "formatString": "#,##0",
  "displayFolder": "Σ LYMTD",
  "annotations": [
    {
      "name": "TabularEditor_TranslatedNames",
      "value": "{\"de-DE\":\"Einkaufsbudget Menge LYMTD\",\"en-US\":\"Budgeted Quantity LYMTD\",\"nl-NL\":\"Budget aantal LYMTD\"}"
    },
    {
      "name": "TabularEditor_TranslatedDescriptions",
      "value": "{\"de-DE\":\"Abteilungen/Einkauf/Berichte und Analysen/Einkaufsbudgets/Budget bearbeiten\",\"en-US\":\"Budgeted Quantity Purchase. NAV: Purchase > Analysis & Reporting > Purchase Budget > Edit Budget > Budgeted Quantity\",\"nl-NL\":\"Gebudgetteerde aantallen inkoop. NAV: Inkoop > Analyse en rapportage > Inkoopbudget > Budget Bewerken > Aantal (budget)\"}"
    },
    {
      "name": "TabularEditor_TranslatedDisplayFolders",
      "value": "{\"de-DE\":\"Σ LYMTD\",\"en-US\":\"Σ LYMTD\",\"nl-NL\":\"Σ LYMTD\"}"
    }
  ]
}