{
  "name": "PurchaseBudgetPurchaseQuantity_Variance_PB",
  "description": "Budgeted Quantity - Received Quantity",
  "expression": "[PurchaseBudgetQuantity_PB] - [ReceivedQuantity_PILE]",
  "formatString": "#,##0",
  "annotations": [
    {
      "name": "TabularEditor_TranslatedNames",
      "value": "{\"de-DE\":\"Einkaufsbudget Einkaufsmenge Varianz\",\"en-US\":\"Budgeted Quantity vs Invoiced Quantity Variance\",\"nl-NL\":\"Budget aantal tov gefactureerd aantal verschil\"}"
    },
    {
      "name": "TabularEditor_TranslatedDescriptions",
      "value": "{\"de-DE\":\"Abteilungen/Einkauf/Berichte und Analysen/Einkaufsbudgets/Budget bearbeiten\",\"en-US\":\"Budgeted Quantity - Received Quantity\",\"nl-NL\":\"Gebudgetteerde aantallen - gefactureerde ontvangen aantallen\"}"
    }
  ]
}