{
  "name": "Reason",
  "columns": [
    {
      "name": "ReasonID",
      "dataType": "int64",
      "description": "Unique key for dimension Reason Code",
      "isHidden": true,
      "sourceColumn": "ReasonID",
      "sourceProviderType": "Integer",
      "annotations": [
        {
          "name": "TabularEditor_TranslatedNames",
          "value": "{\"de-DE\":\"ReasonID\",\"en-US\":\"ReasonID\",\"nl-NL\":\"ReasonID\"}"
        },
        {
          "name": "TabularEditor_TranslatedDescriptions",
          "value": "{\"de-DE\":\"Kennung für Reason\",\"en-US\":\"Unique key for dimension Reason Code\",\"nl-NL\":\"Unieke sleutel voor de dimensie Redencode\"}"
        }
      ]
    },
    {
      "name": "ReasonCode",
      "dataType": "string",
      "description": "Functional Management > Finance > General > Trail Codes > Reason Codes > Code",
      "isHidden": true,
      "sourceColumn": "ReasonCode",
      "sourceProviderType": "WChar",
      "annotations": [
        {
          "name": "TabularEditor_TranslatedNames",
          "value": "{\"de-DE\":\"Ursachencode\",\"en-US\":\"Reason Code\",\"nl-NL\":\"Redencode\"}"
        },
        {
          "name": "TabularEditor_TranslatedDescriptions",
          "value": "{\"de-DE\":\"Abteilungen/Finanzmanagement/Einrichtung/Verwaltung/Verfolgungscodes/Ursachencodes\",\"en-US\":\"Functional Management > Finance > General > Trail Codes > Reason Codes > Code\",\"nl-NL\":\"Afdelingen/Functioneel beheer/Financieel/Algemeen/Volgcodes/Redencodes\"}"
        }
      ]
    },
    {
      "name": "ReasonDescription",
      "dataType": "string",
      "description": "Functional Management > Finance > General > Trail Codes > Reason Codes > Description",
      "isHidden": true,
      "sourceColumn": "ReasonDescription",
      "sourceProviderType": "WChar",
      "annotations": [
        {
          "name": "TabularEditor_TranslatedNames",
          "value": "{\"de-DE\":\"Ursachenbeschreibung\",\"en-US\":\"Reason Desc\",\"nl-NL\":\"Redenomschrijving\"}"
        },
        {
          "name": "TabularEditor_TranslatedDescriptions",
          "value": "{\"de-DE\":\"Abteilungen/Finanzmanagement/Einrichtung/Verwaltung/Verfolgungscodes/Ursachencodes\",\"en-US\":\"Functional Management > Finance > General > Trail Codes > Reason Codes > Description\",\"nl-NL\":\"Afdelingen/Functioneel beheer/Financieel/Algemeen/Volgcodes/Redencodes\"}"
        }
      ]
    },
    {
      "name": "ReasonCodeDescription",
      "dataType": "string",
      "description": "Functional Management > Finance > General > Trail Codes > Reason Codes > Code and Description",
      "sourceColumn": "ReasonCodeDescription",
      "sourceProviderType": "WChar",
      "annotations": [
        {
          "name": "TabularEditor_TranslatedNames",
          "value": "{\"de-DE\":\"Ursachencode Beschreibung\",\"en-US\":\"Reason\",\"nl-NL\":\"Reden\"}"
        },
        {
          "name": "TabularEditor_TranslatedDescriptions",
          "value": "{\"de-DE\":\"Abteilungen/Finanzmanagement/Einrichtung/Verwaltung/Verfolgungscodes/Ursachencodes\",\"en-US\":\"Functional Management > Finance > General > Trail Codes > Reason Codes > Code and Description\",\"nl-NL\":\"Afdelingen/Functioneel beheer/Financieel/Algemeen/Volgcodes/Redencodes\"}"
        }
      ]
    }
  ],
  "partitions": [
    {
      "name": "Reason",
      "dataView": "full",
      "source": {
        "type": "query",
        "query": "SELECT * FROM tabular.Reason",
        "dataSource": "Birds"
      }
    }
  ],
  "annotations": [
    {
      "name": "_TM_ExtProp_QueryDefinition",
      "value": " SELECT [dim].[Reason].* FROM [dim].[Reason] "
    },
    {
      "name": "_TM_ExtProp_DbTableName",
      "value": "Reason"
    },
    {
      "name": "_TM_ExtProp_DbSchemaName",
      "value": "dim"
    },
    {
      "name": "ContentPacks",
      "value": "Standard"
    },
    {
      "name": "TabularEditor_TranslatedNames",
      "value": "{\"de-DE\":\"Ursachen\",\"en-US\":\"Reason\",\"nl-NL\":\"Reden\"}"
    },
    {
      "name": "TabularEditor_Relationships",
      "value": "[]"
    }
  ]
}