{
  "name": "PrepackInvoicedQuantity_LYTD_PS",
  "description": "Purchase > Order Processing > Purchase Orders > Prepack Quantity Invoiced ",
  "expression": [
    "VAR LYTD =",
    "    FILTER (",
    "        ALL ( 'Date' ),",
    "        'Date'[CYearNo]",
    "            = MAX ( 'Date'[CYearNo] ) - 1",
    "            && 'Date'[Date] <= MAX ( 'Date'[TDatePY] )",
    "    )",
    "RETURN",
    "    CALCULATE ( [PrepackInvoicedQuantity_PS], LYTD )"
  ],
  "formatString": "#,##0",
  "displayFolder": "Σ LYTD",
  "annotations": [
    {
      "name": "TabularEditor_TranslatedNames",
      "value": "{\"en-US\":\"Prepack Invoiced Quantity LYTD\",\"nl-NL\":\"Prepack Gefactureerde Hoeveelheid LYTD\"}"
    },
    {
      "name": "TabularEditor_TranslatedDescriptions",
      "value": "{\"en-US\":\"Purchase > Order Processing > Purchase Orders > Prepack Quantity Invoiced \",\"nl-NL\":\"Inkoop > Orderverwerking > Inkooporders > Prepack aantal gefactureerd\"}"
    },
    {
      "name": "TabularEditor_TranslatedDisplayFolders",
      "value": "{\"en-US\":\"Σ LYTD\",\"nl-NL\":\"Σ LYTD\"}"
    }
  ]
}