{
  "name": "PrepackInvoicedQuantity_YTD_PS",
  "description": "Purchase > Order Processing > Purchase Orders > Prepack Quantity Invoiced ",
  "expression": [
    "VAR YTD0 =",
    "    FILTER (",
    "        ALL ( 'Date' ),",
    "        'Date'[CYearNo] = MAX ( 'Date'[CYearNo] )",
    "            && 'Date'[DateID] <= MAX ( 'Date'[DateID] )",
    "    )",
    "RETURN",
    "    CALCULATE ( [PrepackInvoicedQuantity_PS], YTD0 )"
  ],
  "formatString": "#,##0",
  "displayFolder": "Σ YTD",
  "annotations": [
    {
      "name": "TabularEditor_TranslatedNames",
      "value": "{\"en-US\":\"Prepack Invoiced Quantity YTD\",\"nl-NL\":\"Prepack Gefactureerde Hoeveelheid YTD\"}"
    },
    {
      "name": "TabularEditor_TranslatedDescriptions",
      "value": "{\"en-US\":\"Purchase > Order Processing > Purchase Orders > Prepack Quantity Invoiced \",\"nl-NL\":\"Inkoop > Orderverwerking > Inkooporders > Prepack aantal gefactureerd\"}"
    },
    {
      "name": "TabularEditor_TranslatedDisplayFolders",
      "value": "{\"en-US\":\"Σ YTD\",\"nl-NL\":\"Σ YTD\"}"
    }
  ]
}