{
  "name": "ShippedQuantity_PS",
  "description": "Purchase > Order Processing > Purchase Orders > Quantity received",
  "expression": "SUM ( 'factPurchaseShipment'[ShippedQuantity] )",
  "formatString": "#,##0",
  "annotations": [
    {
      "name": "TabularEditor_TranslatedNames",
      "value": "{\"de-DE\":\"Menge geliefert\",\"en-US\":\"Quantity received\",\"nl-NL\":\"Ontvangen aantal\"}"
    },
    {
      "name": "TabularEditor_TranslatedDescriptions",
      "value": "{\"de-DE\":\"Abteilungen/Einkauf/Bestellungsabwicklung/Bestellungen\",\"en-US\":\"Purchase > Order Processing > Purchase Orders > Quantity received\",\"nl-NL\":\"Inkoop > Orderverwerking > Inkooporders > Ontvangen aantal \"}"
    }
  ]
}