{
  "name": "ShippedQuantity_SPLY_Variance_PS",
  "description": "Purchase > Order Processing > Purchase Orders > Quantity received",
  "expression": "[ShippedQuantity_PS] - [ShippedQuantity_SPLY_PS]",
  "formatString": "#,##0.00",
  "displayFolder": "Σ SPLY Variance",
  "annotations": [
    {
      "name": "TabularEditor_TranslatedNames",
      "value": "{\"de-DE\":\"Menge geliefert SPLY Varianz\",\"en-US\":\"Quantity received SPLY Variance\",\"nl-NL\":\"Ontvangen aantal SPLY verschil\"}"
    },
    {
      "name": "TabularEditor_TranslatedDescriptions",
      "value": "{\"de-DE\":\"Abteilungen/Einkauf/Bestellungsabwicklung/Bestellungen\",\"en-US\":\"Purchase > Order Processing > Purchase Orders > Quantity received\",\"nl-NL\":\"Inkoop > Orderverwerking > Inkooporders > Ontvangen aantal \"}"
    },
    {
      "name": "TabularEditor_TranslatedDisplayFolders",
      "value": "{\"de-DE\":\"Σ SPLY Varianz\",\"en-US\":\"Σ SPLY Variance\"}"
    }
  ]
}