{
  "name": "InvoicedQuantity_SPLY_Index_SS",
  "description": "Quantity Invoiced. NAV: Sales > Order Processing > Sales Order Shipping > Lines > Quantity Invoiced",
  "expression": "DIVIDE ( [InvoicedQuantity_SS], [InvoicedQuantity_SPLY_SS] ) * 100",
  "formatString": "#,##0.00",
  "displayFolder": "Σ SPLY Variance",
  "annotations": [
    {
      "name": "TabularEditor_TranslatedNames",
      "value": "{\"de-DE\":\"Menge fakturiert SPLY Index\",\"en-US\":\"Quantity Invoiced SPLY Index\",\"nl-NL\":\"Gefactureerd aantal SPLY Index\"}"
    },
    {
      "name": "TabularEditor_TranslatedDescriptions",
      "value": "{\"de-DE\":\"Abteilungen/Verkauf & Marketing/Auftragsabwicklung/Aufträge/Zeilen\",\"en-US\":\"Quantity Invoiced. NAV: Sales > Order Processing > Sales Order Shipping > Lines > Quantity Invoiced\",\"nl-NL\":\"Gefactureerd aantal. NAV: Verkoop > Orderverwerking > Leveringen > Regels > Gefactureerd Aantal\"}"
    },
    {
      "name": "TabularEditor_TranslatedDisplayFolders",
      "value": "{\"de-DE\":\"Σ SPLY Varianz\",\"en-US\":\"Σ SPLY Variance\"}"
    }
  ]
}