{
  "name": "PrepackShippedNotInvoicedQuantity_SPLY_SS",
  "description": "Sales > Order Processing > Sales Order Shipping > Lines > The Prepack quantity shipped not invoiced",
  "expression": [
    "VAR SPLY0 =",
    "    FILTER (",
    "        ALL ( 'Date' ),",
    "        'Date'[Date] <= MAX ( 'Date'[TDatePY] )",
    "            && 'Date'[Date] >= MIN ( 'Date'[TDatePY] )",
    "    )",
    "RETURN",
    "    CALCULATE ( [PrepackShippedNotInvoicedQuantity_SS], SPLY0 )"
  ],
  "formatString": "#,##0",
  "displayFolder": "Σ SPLY",
  "annotations": [
    {
      "name": "TabularEditor_TranslatedNames",
      "value": "{\"en-US\":\"Prepack Shipped Not Invoiced Quantity SPLY\",\"nl-NL\":\"Prepack Verzonden Niet Gefactureerde Hoeveelheid SPLY\"}"
    },
    {
      "name": "TabularEditor_TranslatedDescriptions",
      "value": "{\"en-US\":\"Sales > Order Processing > Sales Order Shipping > Lines > The Prepack quantity shipped not invoiced\",\"nl-NL\":\"erkoop > Orderverwerking > Leveringen > Regels > Prepack verzonden niet gefactureerde hoeveelheid\"}"
    },
    {
      "name": "TabularEditor_TranslatedDisplayFolders",
      "value": "{\"en-US\":\"Σ SPLY\",\"nl-NL\":\"Σ SPLY\"}"
    }
  ]
}