{
  "name": "PrepackShippedNotInvoicedQuantity_LYTD_SS",
  "description": "Sales > Order Processing > Sales Order Shipping > Lines > The Prepack quantity shipped not invoiced",
  "expression": [
    "VAR LYTD =",
    "    FILTER (",
    "        ALL ( 'Date' ),",
    "        'Date'[CYearNo]",
    "            = MAX ( 'Date'[CYearNo] ) - 1",
    "            && 'Date'[Date] <= MAX ( 'Date'[TDatePY] )",
    "    )",
    "RETURN",
    "    CALCULATE ( [PrepackShippedNotInvoicedQuantity_SS], LYTD )"
  ],
  "formatString": "#,##0",
  "displayFolder": "Σ LYTD",
  "annotations": [
    {
      "name": "TabularEditor_TranslatedNames",
      "value": "{\"en-US\":\"Prepack Shipped Not Invoiced Quantity LYTD\",\"nl-NL\":\"Prepack Verzonden Niet Gefactureerde Hoeveelheid LYTD\"}"
    },
    {
      "name": "TabularEditor_TranslatedDescriptions",
      "value": "{\"en-US\":\"Sales > Order Processing > Sales Order Shipping > Lines > The Prepack quantity shipped not invoiced\",\"nl-NL\":\"erkoop > Orderverwerking > Leveringen > Regels > Prepack verzonden niet gefactureerde hoeveelheid\"}"
    },
    {
      "name": "TabularEditor_TranslatedDisplayFolders",
      "value": "{\"en-US\":\"Σ LYTD\",\"nl-NL\":\"Σ LYTD\"}"
    }
  ]
}