{
  "name": "ShippedGrossWeight_SPLY_SS",
  "description": "Shipped Gross Weight. Quantity Shipped * Gross Weight of the Item",
  "expression": [
    "VAR SPLY0 =",
    "    FILTER (",
    "        ALL ( 'Date' ),",
    "        'Date'[Date] <= MAX ( 'Date'[TDatePY] )",
    "            && 'Date'[Date] >= MIN ( 'Date'[TDatePY] )",
    "    )",
    "RETURN",
    "    CALCULATE ( [ShippedGrossWeight_SS], SPLY0 )"
  ],
  "formatString": "#,##0.00",
  "displayFolder": "Σ SPLY",
  "annotations": [
    {
      "name": "TabularEditor_TranslatedNames",
      "value": "{\"de-DE\":\"Bruttogewicht SPLY\",\"en-US\":\"Shipped Gross Weight SPLY\",\"nl-NL\":\"Verzonden bruto gewicht SPLY\"}"
    },
    {
      "name": "TabularEditor_TranslatedDescriptions",
      "value": "{\"de-DE\":\"Abteilungen/Verkauf & Marketing/Auftragsabwicklung/Aufträge/Zeilen\",\"en-US\":\"Shipped Gross Weight. Quantity Shipped * Gross Weight of the Item\",\"nl-NL\":\"Verzonden Bruto Gewicht. Verzonden Aantal * Bruto Gewicht van het artikel\"}"
    },
    {
      "name": "TabularEditor_TranslatedDisplayFolders",
      "value": "{\"de-DE\":\"Σ SPLY\",\"en-US\":\"Σ SPLY\",\"nl-NL\":\"Σ SPLY\"}"
    }
  ]
}