{
  "name": "CostAmount_YTD_Variance_SVE",
  "description": "Departments/Item Management/General Data/Items > Items > Entries > Value Entries > item ledger entry type = sales > Cost Amount Actual + Cost Amount Expected",
  "expression": "[CostAmount_YTD_SVE] - [CostAmount_LYTD_SVE]",
  "formatString": "#,##0.00",
  "displayFolder": "Σ LYTD Variance",
  "annotations": [
    {
      "name": "TabularEditor_TranslatedNames",
      "value": "{\"de-DE\":\"Einstandsbetrag YTD Varianz\",\"en-US\":\"Cost Amount YTD Variance\",\"nl-NL\":\"Kosten YTD verschil\"}"
    },
    {
      "name": "TabularEditor_TranslatedDescriptions",
      "value": "{\"de-DE\":\"Startseite/Artikel/Posten/Posten/Zeilen\",\"en-US\":\"Departments/Item Management/General Data/Items > Items > Entries > Value Entries > item ledger entry type = sales > Cost Amount Actual + Cost Amount Expected\",\"nl-NL\":\"Afdelingen/Artikelbeheer/Stamgegevens/Artikelen > Posten > Waardeposten > Totaal werkelijke kosten + Verwachte Kosten\"}"
    },
    {
      "name": "TabularEditor_TranslatedDisplayFolders",
      "value": "{\"de-DE\":\"Σ LYTD Varianz\",\"en-US\":\"Σ LYTD Variance\"}"
    }
  ]
}