{
  "name": "GrossAmount_YTD_SVE",
  "description": "Sales Amount + Discount Amount",
  "expression": [
    "VAR YTD0 =",
    "    FILTER (",
    "        ALL ( 'Date' ),",
    "        'Date'[CYearNo] = MAX ( 'Date'[CYearNo] )",
    "            && 'Date'[DateID] <= MAX ( 'Date'[DateID] )",
    "    )",
    "RETURN",
    "    CALCULATE ( [GrossAmount_SVE], YTD0 )"
  ],
  "formatString": "#,##0.00",
  "displayFolder": "Σ YTD",
  "annotations": [
    {
      "name": "TabularEditor_TranslatedNames",
      "value": "{\"de-DE\":\"Brutto Umsatz YTD\",\"en-US\":\"Gross Amount YTD\",\"nl-NL\":\"Bruto omzet YTD\"}"
    },
    {
      "name": "TabularEditor_TranslatedDescriptions",
      "value": "{\"de-DE\":\"Umsatz + Rabatt\",\"en-US\":\"Sales Amount + Discount Amount\",\"nl-NL\":\"Omzet + Korting\"}"
    },
    {
      "name": "TabularEditor_TranslatedDisplayFolders",
      "value": "{\"de-DE\":\"Σ YTD\",\"en-US\":\"Σ YTD\",\"nl-NL\":\"Σ YTD\"}"
    }
  ]
}