{
  "name": "Margin_SPLY_SVE",
  "description": "Sales Amount - Cost Amount",
  "expression": [
    "VAR SPLY0 =",
    "    FILTER (",
    "        ALL ( 'Date' ),",
    "        'Date'[Date] <= MAX ( 'Date'[TDatePY] )",
    "            && 'Date'[Date] >= MIN ( 'Date'[TDatePY] )",
    "    )",
    "RETURN",
    "    CALCULATE ( [Margin_SVE], SPLY0 )"
  ],
  "formatString": "#,##0.00",
  "displayFolder": "Σ SPLY",
  "annotations": [
    {
      "name": "TabularEditor_TranslatedNames",
      "value": "{\"de-DE\":\"Spanne SPLY\",\"en-US\":\"Margin SPLY\",\"nl-NL\":\"Marge SPLY\"}"
    },
    {
      "name": "TabularEditor_TranslatedDescriptions",
      "value": "{\"de-DE\":\"Umsatz - Kosten\",\"en-US\":\"Sales Amount - Cost Amount\",\"nl-NL\":\"Omzet - Kosten\"}"
    },
    {
      "name": "TabularEditor_TranslatedDisplayFolders",
      "value": "{\"de-DE\":\"Σ SPLY\",\"en-US\":\"Σ SPLY\",\"nl-NL\":\"Σ SPLY\"}"
    }
  ]
}