{
  "name": "SalesAmountExpected_LCY_SVE",
  "description": "Sales Amount Actual + Sales Amount Expected",
  "expression": "SUM ( 'factSalesValueEntry'[SalesAmountExpected_LCY] )",
  "formatString": "#,##0.00",
  "displayFolder": "Σ Local Currency",
  "annotations": [
    {
      "name": "TabularEditor_TranslatedNames",
      "value": "{\"de-DE\":\"Verkaufsbetrag (erwartet) lv\",\"en-US\":\"Sales Amount Expected\",\"nl-NL\":\"Verwachte omzet lv\"}"
    },
    {
      "name": "TabularEditor_TranslatedDescriptions",
      "value": "{\"de-DE\":\"Startseite/Artikel/Posten/Posten/Zeilen\",\"en-US\":\"Sales Amount Actual + Sales Amount Expected\",\"nl-NL\":\"Afdelingen/Artikelbeheer/Stamgegevens/Artikelen > Posten > Waardeposten > Totaal werkelijke omzet + Totaal verwachte omzet\"}"
    },
    {
      "name": "TabularEditor_TranslatedDisplayFolders",
      "value": "{\"de-DE\":\"Σ Local Währung\",\"en-US\":\"Σ Local Currency\",\"nl-NL\":\"Σ Lokale Valuta\"}"
    }
  ]
}