{
  "name": "SalesAmount_LYTD_SVE",
  "description": "Departments/Item Management/General Data/Items > Items > Entries > Value Entries > item ledger entry type = sales amount actual",
  "expression": [
    "VAR LYTD =",
    "    FILTER (",
    "        ALL ( 'Date' ),",
    "        'Date'[CYearNo]",
    "            = MAX ( 'Date'[CYearNo] ) - 1",
    "            && 'Date'[Date] <= MAX ( 'Date'[TDatePY] )",
    "    )",
    "RETURN",
    "    CALCULATE ( [SalesAmount_SVE], LYTD )"
  ],
  "formatString": "#,##0.00",
  "displayFolder": "Σ LYTD",
  "annotations": [
    {
      "name": "TabularEditor_TranslatedNames",
      "value": "{\"de-DE\":\"Verkaufsbetrag (tatsächl.) LYTD\",\"en-US\":\"Sales Amount LYTD\",\"nl-NL\":\"Netto omzet LYTD\"}"
    },
    {
      "name": "TabularEditor_TranslatedDescriptions",
      "value": "{\"de-DE\":\"Startseite/Artikel/Posten/Posten/Zeilen\",\"en-US\":\"Departments/Item Management/General Data/Items > Items > Entries > Value Entries > item ledger entry type = sales amount actual\",\"nl-NL\":\"Afdelingen/Artikelbeheer/Stamgegevens/Artikelen > Posten > Waardeposten > Totaal werkelijke omzet\"}"
    },
    {
      "name": "TabularEditor_TranslatedDisplayFolders",
      "value": "{\"de-DE\":\"Σ LYTD\",\"en-US\":\"Σ LYTD\",\"nl-NL\":\"Σ LYTD\"}"
    }
  ]
}