{
  "base_name": "Bin",
  "category": "dim",
  "database_object": {
    "table_identifier": "dim.Bin",
    "columns": [
      {
        "column_name": "BinID",
        "data_type": "int",
        "character_maximum_length": null,
        "numeric_precision": 10,
        "numeric_scale": 0,
        "nullable": false,
        "business_key": false
      },
      {
        "column_name": "ExecutionTimestamp",
        "data_type": "timestamp",
        "character_maximum_length": null,
        "numeric_precision": null,
        "numeric_scale": null,
        "nullable": false,
        "business_key": false
      },
      {
        "column_name": "ComponentExecutionID",
        "data_type": "int",
        "character_maximum_length": null,
        "numeric_precision": 10,
        "numeric_scale": 0,
        "nullable": false,
        "business_key": false
      },
      {
        "column_name": "BinCode",
        "data_type": "nvarchar",
        "character_maximum_length": 20,
        "numeric_precision": null,
        "numeric_scale": null,
        "nullable": false,
        "business_key": false
      },
      {
        "column_name": "LocationCode",
        "data_type": "nvarchar",
        "character_maximum_length": 10,
        "numeric_precision": null,
        "numeric_scale": null,
        "nullable": false,
        "business_key": false
      },
      {
        "column_name": "CompanyID",
        "data_type": "int",
        "character_maximum_length": null,
        "numeric_precision": 10,
        "numeric_scale": 0,
        "nullable": false,
        "business_key": false
      },
      {
        "column_name": "DataConnectionID",
        "data_type": "int",
        "character_maximum_length": null,
        "numeric_precision": 10,
        "numeric_scale": 0,
        "nullable": false,
        "business_key": false
      },
      {
        "column_name": "StageID",
        "data_type": "int",
        "character_maximum_length": null,
        "numeric_precision": 10,
        "numeric_scale": 0,
        "nullable": false,
        "business_key": false
      },
      {
        "column_name": "ZoneCode",
        "data_type": "nvarchar",
        "character_maximum_length": 10,
        "numeric_precision": null,
        "numeric_scale": null,
        "nullable": false,
        "business_key": false
      },
      {
        "column_name": "BinDescription",
        "data_type": "nvarchar",
        "character_maximum_length": 50,
        "numeric_precision": null,
        "numeric_scale": null,
        "nullable": false,
        "business_key": false
      },
      {
        "column_name": "BinCodeDescription",
        "data_type": "nvarchar",
        "character_maximum_length": 73,
        "numeric_precision": null,
        "numeric_scale": null,
        "nullable": false,
        "business_key": false
      },
      {
        "column_name": "ZoneDescription",
        "data_type": "nvarchar",
        "character_maximum_length": 50,
        "numeric_precision": null,
        "numeric_scale": null,
        "nullable": false,
        "business_key": false
      },
      {
        "column_name": "ZoneCodeDescription",
        "data_type": "nvarchar",
        "character_maximum_length": 63,
        "numeric_precision": null,
        "numeric_scale": null,
        "nullable": false,
        "business_key": false
      },
      {
        "column_name": "LocationDescription",
        "data_type": "nvarchar",
        "character_maximum_length": 50,
        "numeric_precision": null,
        "numeric_scale": null,
        "nullable": false,
        "business_key": false
      },
      {
        "column_name": "LocationCodeDescription",
        "data_type": "nvarchar",
        "character_maximum_length": 63,
        "numeric_precision": null,
        "numeric_scale": null,
        "nullable": false,
        "business_key": false
      }
    ],
    "indexes": []
  },
  "load_procedures": [],
  "views": null,
  "queries": [
    {
      "name": "default",
      "select_file_path": "default.sql",
      "sequence": 200,
      "aliases": []
    }
  ],
  "query_columns": [
    {
      "column_sequence": 1,
      "column_name": "StageID",
      "data_type_full": "int",
      "type": "attribute"
    },
    {
      "column_sequence": 2,
      "column_name": "CompanyID",
      "data_type_full": "int",
      "type": "system_key"
    },
    {
      "column_sequence": 3,
      "column_name": "DataConnectionID",
      "data_type_full": "int",
      "type": "system_key"
    },
    {
      "column_sequence": 4,
      "column_name": "BinCode",
      "data_type_full": "nvarchar(20)",
      "type": "business_key"
    },
    {
      "column_sequence": 5,
      "column_name": "LocationCode",
      "data_type_full": "nvarchar(10)",
      "type": "business_key"
    },
    {
      "column_sequence": 6,
      "column_name": "ZoneCode",
      "data_type_full": "nvarchar(10)",
      "type": "attribute"
    },
    {
      "column_sequence": 7,
      "column_name": "BinDescription",
      "data_type_full": "nvarchar(50)",
      "type": "attribute"
    },
    {
      "column_sequence": 8,
      "column_name": "BinCodeDescription",
      "data_type_full": "nvarchar(73)",
      "type": "attribute"
    },
    {
      "column_sequence": 9,
      "column_name": "ZoneDescription",
      "data_type_full": "nvarchar(50)",
      "type": "attribute"
    },
    {
      "column_sequence": 10,
      "column_name": "ZoneCodeDescription",
      "data_type_full": "nvarchar(63)",
      "type": "attribute"
    },
    {
      "column_sequence": 11,
      "column_name": "LocationDescription",
      "data_type_full": "nvarchar(50)",
      "type": "attribute"
    },
    {
      "column_sequence": 12,
      "column_name": "LocationCodeDescription",
      "data_type_full": "nvarchar(63)",
      "type": "attribute"
    }
  ],
  "dimensions": [],
  "load_type": 1,
  "manual_mode": false,
  "is_customized": false
}