{
  "name": "#TransferOrderLines_TO",
  "expression": "COUNTROWS ( 'factTransferOrder' )",
  "formatString": "#,##0.00",
  "annotations": [
    {
      "name": "TabularEditor_TranslatedNames",
      "value": "{\"de-DE\":\"# Umlagerungsaufträge Zeilen\",\"en-US\":\"# Transfer Order Lines\",\"nl-NL\":\"# Transferorderregels\"}"
    },
    {
      "name": "TabularEditor_TranslatedDescriptions",
      "value": "{\"de-DE\":\"Abteilungen/Lager/Aufträge & Kontakte/Umlagerungsaufträge/Zeilen\",\"en-US\":\"Departments/Inventory and Warehouse/Order Processing/General/Transfer Orders\",\"nl-NL\":\"Afdelingen/Voorraad en magazijn/Orderverwerking/Algemeen/Transferorders\"}"
    }
  ]
}