{
  "name": "TransferOrderQuantityShippedBase_YTD_Index_TO",
  "description": " YTD Index",
  "expression": "DIVIDE ( [TransferOrderQuantityShippedBase_YTD_TO], [TransferOrderQuantityShippedBase_LYTD_TO] ) * 100",
  "formatString": "#,##0.0",
  "displayFolder": "Σ YTD Variance",
  "annotations": [
    {
      "name": "TabularEditor_TranslatedNames",
      "value": "{\"de-DE\":\"Umlagerungsaufträge Menge geliefert (Basis) YTD Index\",\"en-US\":\"Quantity Shipped (Base) YTD Index\",\"nl-NL\":\"Verzonden aantal (basis) YTD Index\"}"
    },
    {
      "name": "TabularEditor_TranslatedDescriptions",
      "value": "{\"de-DE\":\"Abteilungen/Lager/Aufträge & Kontakte/Umlagerungsaufträge/Zeilen\",\"en-US\":\"Departments/Inventory and Warehouse/Order Processing/General/Transfer Orders/Quantity Shipped (Base) YTD Index\",\"nl-NL\":\"Afdelingen/Voorraad en magazijn/Orderverwerking/Algemeen/Transferorders/Verzonden aantal (basis) YTD Index\"}"
    },
    {
      "name": "TabularEditor_TranslatedDisplayFolders",
      "value": "{\"de-DE\":\"Σ YTD Varianz\",\"en-US\":\"Σ YTD Variance\",\"nl-NL\":\"Σ YTD Variance\"}"
    }
  ]
}