{
  "name": "TransferOrderQuantityToReceiveBase_TO",
  "expression": "SUM ( 'factTransferOrder'[TransferOrderQuantityToReceiveBase] )",
  "formatString": "#,##0.00",
  "annotations": [
    {
      "name": "TabularEditor_TranslatedNames",
      "value": "{\"de-DE\":\"Umlagerungsaufträge Menge akt. Lieferung (Basis)\",\"en-US\":\"Quantity To Receive (Base)\",\"nl-NL\":\"Te ontvangen aantal (basis)\"}"
    },
    {
      "name": "TabularEditor_TranslatedDescriptions",
      "value": "{\"de-DE\":\"Abteilungen/Lager/Aufträge & Kontakte/Umlagerungsaufträge/Zeilen\",\"en-US\":\"Departments/Inventory and Warehouse/Order Processing/General/Transfer Orders/Quantity To Receive (Base)\",\"nl-NL\":\"Afdelingen/Voorraad en magazijn/Orderverwerking/Algemeen/Transferorders/Te ontvangen aantal (basis)\"}"
    }
  ]
}