{
  "name": "TransferOrderQuantityShipped_YTD_Variance%_TO",
  "description": " YTD Variance %",
  "expression": "DIVIDE ( [TransferOrderQuantityShipped_YTD_TO] - [TransferOrderQuantityShipped_LYTD_TO], [TransferOrderQuantityShipped_LYTD_TO] )",
  "formatString": "#,##0.0 %",
  "displayFolder": "Σ YTD Variance",
  "annotations": [
    {
      "name": "TabularEditor_TranslatedNames",
      "value": "{\"de-DE\":\"Umlagerungsaufträge Menge geliefert YTD Varianz %\",\"en-US\":\"Quantity Shipped YTD Variance %\",\"nl-NL\":\"Verzonden aantal YTD Variance %\"}"
    },
    {
      "name": "TabularEditor_TranslatedDescriptions",
      "value": "{\"de-DE\":\"Abteilungen/Lager/Aufträge & Kontakte/Umlagerungsaufträge/Zeilen\",\"en-US\":\"Departments/Inventory and Warehouse/Order Processing/General/Transfer Orders/Quantity Shipped YTD Variance %\",\"nl-NL\":\"Afdelingen/Voorraad en magazijn/Orderverwerking/Algemeen/Transferorders/Verzonden aantal YTD Variance %\"}"
    },
    {
      "name": "TabularEditor_TranslatedDisplayFolders",
      "value": "{\"de-DE\":\"Σ YTD Varianz\",\"en-US\":\"Σ YTD Variance\",\"nl-NL\":\"Σ YTD Variance\"}"
    }
  ]
}