{
  "name": "TransferOrderQuantityInTransit_YTD_Variance%_TO",
  "description": " YTD Variance %",
  "expression": "DIVIDE ( [TransferOrderQuantityInTransit_YTD_TO] - [TransferOrderQuantityInTransit_LYTD_TO], [TransferOrderQuantityInTransit_LYTD_TO] )",
  "formatString": "#,##0.0 %",
  "displayFolder": "Σ YTD Variance",
  "annotations": [
    {
      "name": "TabularEditor_TranslatedNames",
      "value": "{\"de-DE\":\"Umlagerungsaufträge Menge in Transit YTD Varianz %\",\"en-US\":\"Quantity In Transit YTD Variance %\",\"nl-NL\":\"Aantal in transit YTD Variance %\"}"
    },
    {
      "name": "TabularEditor_TranslatedDescriptions",
      "value": "{\"de-DE\":\"Abteilungen/Lager/Aufträge & Kontakte/Umlagerungsaufträge/Zeilen\",\"en-US\":\"Departments/Inventory and Warehouse/Order Processing/General/Transfer Orders/Quantity In Transit YTD Variance %\",\"nl-NL\":\"Afdelingen/Voorraad en magazijn/Orderverwerking/Algemeen/Transferorders/Aantal in transit YTD Variance %\"}"
    },
    {
      "name": "TabularEditor_TranslatedDisplayFolders",
      "value": "{\"de-DE\":\"Σ YTD Varianz\",\"en-US\":\"Σ YTD Variance\",\"nl-NL\":\"Σ YTD Variance\"}"
    }
  ]
}