{
  "name": "TransferOrderQuantityToShipBase_YTD_Index_TO",
  "description": " YTD Index",
  "expression": "DIVIDE ( [TransferOrderQuantityToShipBase_YTD_TO], [TransferOrderQuantityToShipBase_LYTD_TO] ) * 100",
  "formatString": "#,##0.0",
  "displayFolder": "Σ YTD Variance",
  "annotations": [
    {
      "name": "TabularEditor_TranslatedNames",
      "value": "{\"de-DE\":\"Umlagerungsaufträge Zu liefern (Basis) YTD Index\",\"en-US\":\"Quantity To Ship (Base) YTD Index\",\"nl-NL\":\"Te verzenden aantal (basis) YTD Index\"}"
    },
    {
      "name": "TabularEditor_TranslatedDescriptions",
      "value": "{\"de-DE\":\"Abteilungen/Lager/Aufträge & Kontakte/Umlagerungsaufträge/Zeilen\",\"en-US\":\"Departments/Inventory and Warehouse/Order Processing/General/Transfer Orders/Quantity To Ship (Base) YTD Index\",\"nl-NL\":\"Afdelingen/Voorraad en magazijn/Orderverwerking/Algemeen/Transferorders/Te verzenden aantal (basis) YTD Index\"}"
    },
    {
      "name": "TabularEditor_TranslatedDisplayFolders",
      "value": "{\"de-DE\":\"Σ YTD Varianz\",\"en-US\":\"Σ YTD Variance\",\"nl-NL\":\"Σ YTD Variance\"}"
    }
  ]
}