{
  "name": "TransferOrderQuantityInTransitBase_SPLY_Variance_TO",
  "description": " SPLY Variance",
  "expression": "[TransferOrderQuantityInTransitBase_TO] - [TransferOrderQuantityInTransitBase_SPLY_TO]",
  "formatString": "#,##0.00",
  "displayFolder": "Σ SPLY Variance",
  "annotations": [
    {
      "name": "TabularEditor_TranslatedNames",
      "value": "{\"de-DE\":\"Umlagerungsaufträge Menge in Transit (Basis) SPLY Varianz\",\"en-US\":\"Quantity In Transit (Base) SPLY Variance\",\"nl-NL\":\"Aantal in transit (basis) SPLY Variance\"}"
    },
    {
      "name": "TabularEditor_TranslatedDescriptions",
      "value": "{\"de-DE\":\"Abteilungen/Lager/Aufträge & Kontakte/Umlagerungsaufträge/Zeilen\",\"en-US\":\"Departments/Inventory and Warehouse/Order Processing/General/Transfer Orders/Quantity In Transit (Base) SPLY Variance\",\"nl-NL\":\"Afdelingen/Voorraad en magazijn/Orderverwerking/Algemeen/Transferorders/Aantal in transit (basis) SPLY Variance\"}"
    },
    {
      "name": "TabularEditor_TranslatedDisplayFolders",
      "value": "{\"de-DE\":\"Σ SPLY Varianz\",\"en-US\":\"Σ SPLY Variance\",\"nl-NL\":\"Σ SPLY Variance\"}"
    }
  ]
}