{
  "name": "TransferOrderQuantityBase_YTD_Variance_TO",
  "description": " YTD Variance",
  "expression": "[TransferOrderQuantityBase_YTD_TO] - [TransferOrderQuantityBase_LYTD_TO]",
  "formatString": "#,##0.00",
  "displayFolder": "Σ YTD Variance",
  "annotations": [
    {
      "name": "TabularEditor_TranslatedNames",
      "value": "{\"de-DE\":\"Umlagerungsaufträge Menge (Basis) YTD Varianz\",\"en-US\":\"Quantity (Base) YTD Variance\",\"nl-NL\":\"Aantal (basis) YTD Variance\"}"
    },
    {
      "name": "TabularEditor_TranslatedDescriptions",
      "value": "{\"de-DE\":\"Abteilungen/Lager/Aufträge & Kontakte/Umlagerungsaufträge/Zeilen\",\"en-US\":\"Departments/Inventory and Warehouse/Order Processing/General/Transfer Orders/Quantity (Base) YTD Variance\",\"nl-NL\":\"Afdelingen/Voorraad en magazijn/Orderverwerking/Algemeen/Transferorders/Aantal (basis) YTD Variance\"}"
    },
    {
      "name": "TabularEditor_TranslatedDisplayFolders",
      "value": "{\"de-DE\":\"Σ YTD Varianz\",\"en-US\":\"Σ YTD Variance\",\"nl-NL\":\"Σ YTD Variance\"}"
    }
  ]
}