{
  "name": "TransferOrderOutstandingQuantityBase_YTD_Variance%_TO",
  "description": " YTD Variance %",
  "expression": "DIVIDE ( [TransferOrderOutstandingQuantityBase_YTD_TO] - [TransferOrderOutstandingQuantityBase_LYTD_TO], [TransferOrderOutstandingQuantityBase_LYTD_TO] )",
  "formatString": "#,##0.0 %",
  "displayFolder": "Σ YTD Variance",
  "annotations": [
    {
      "name": "TabularEditor_TranslatedNames",
      "value": "{\"de-DE\":\"Umlagerungsaufträge Restauftragsmenge (Basis) YTD Varianz %\",\"en-US\":\"Outstanding Quantity (Base) YTD Variance %\",\"nl-NL\":\"Openstaand aantal (basis) YTD Variance %\"}"
    },
    {
      "name": "TabularEditor_TranslatedDescriptions",
      "value": "{\"de-DE\":\"Abteilungen/Lager/Aufträge & Kontakte/Umlagerungsaufträge/Zeilen\",\"en-US\":\"Departments/Inventory and Warehouse/Order Processing/General/Transfer Orders/Outstanding Quantity (Base) YTD Variance %\",\"nl-NL\":\"Afdelingen/Voorraad en magazijn/Orderverwerking/Algemeen/Transferorders/Openstaand aantal (basis) YTD Variance %\"}"
    },
    {
      "name": "TabularEditor_TranslatedDisplayFolders",
      "value": "{\"de-DE\":\"Σ YTD Varianz\",\"en-US\":\"Σ YTD Variance\",\"nl-NL\":\"Σ YTD Variance\"}"
    }
  ]
}