{
  "name": "TransferOrderQuantityToReceive_TO",
  "expression": "SUM ( 'factTransferOrder'[TransferOrderQuantityToReceive] )",
  "formatString": "#,##0.00",
  "annotations": [
    {
      "name": "TabularEditor_TranslatedNames",
      "value": "{\"de-DE\":\"Umlagerungsaufträge Menge akt. Lieferung\",\"en-US\":\"Quantity To Receive\",\"nl-NL\":\"Te ontvangen aantal\"}"
    },
    {
      "name": "TabularEditor_TranslatedDescriptions",
      "value": "{\"de-DE\":\"Abteilungen/Lager/Aufträge & Kontakte/Umlagerungsaufträge/Zeilen\",\"en-US\":\"Departments/Inventory and Warehouse/Order Processing/General/Transfer Orders/Quantity To Receive\",\"nl-NL\":\"Afdelingen/Voorraad en magazijn/Orderverwerking/Algemeen/Transferorders/Te ontvangen aantal\"}"
    }
  ]
}