{
  "name": "TransferOrderQuantityToReceiveBase_YTD_Variance_TO",
  "description": " YTD Variance",
  "expression": "[TransferOrderQuantityToReceiveBase_YTD_TO] - [TransferOrderQuantityToReceiveBase_LYTD_TO]",
  "formatString": "#,##0.00",
  "displayFolder": "Σ YTD Variance",
  "annotations": [
    {
      "name": "TabularEditor_TranslatedNames",
      "value": "{\"de-DE\":\"Umlagerungsaufträge Menge akt. Lieferung (Basis) YTD Varianz\",\"en-US\":\"Quantity To Receive (Base) YTD Variance\",\"nl-NL\":\"Te ontvangen aantal (basis) YTD Variance\"}"
    },
    {
      "name": "TabularEditor_TranslatedDescriptions",
      "value": "{\"de-DE\":\"Abteilungen/Lager/Aufträge & Kontakte/Umlagerungsaufträge/Zeilen\",\"en-US\":\"Departments/Inventory and Warehouse/Order Processing/General/Transfer Orders/Quantity To Receive (Base) YTD Variance\",\"nl-NL\":\"Afdelingen/Voorraad en magazijn/Orderverwerking/Algemeen/Transferorders/Te ontvangen aantal (basis) YTD Variance\"}"
    },
    {
      "name": "TabularEditor_TranslatedDisplayFolders",
      "value": "{\"de-DE\":\"Σ YTD Varianz\",\"en-US\":\"Σ YTD Variance\",\"nl-NL\":\"Σ YTD Variance\"}"
    }
  ]
}