{
  "name": "factGeneralLedgerBudget",
  "columns": [
    {
      "name": "CompanyID",
      "dataType": "int64",
      "description": "Unique identifier of the company",
      "isHidden": true,
      "sourceColumn": "CompanyID",
      "sourceProviderType": "Integer",
      "annotations": [
        {
          "name": "TabularEditor_TranslatedNames",
          "value": "{\"de-DE\":\"CompanyID\",\"en-US\":\"CompanyID\",\"nl-NL\":\"Companyid\"}"
        },
        {
          "name": "TabularEditor_TranslatedDescriptions",
          "value": "{\"de-DE\":\"Kennung für Company\",\"en-US\":\"Unique identifier of the company\",\"nl-NL\":\"Unieke sleutel voor bedrijf\"}"
        }
      ]
    },
    {
      "name": "BudgetModelID",
      "dataType": "int64",
      "description": "Unique key field to dimension key",
      "isHidden": true,
      "sourceColumn": "BudgetModelID",
      "sourceProviderType": "Integer",
      "annotations": [
        {
          "name": "TabularEditor_TranslatedNames",
          "value": "{\"de-DE\":\"BudgetmodelID\",\"en-US\":\"BudgetModelID\",\"nl-NL\":\"Budgetmodelid\"}"
        },
        {
          "name": "TabularEditor_TranslatedDescriptions",
          "value": "{\"de-DE\":\"Kennung für BudgetModel\",\"en-US\":\"Unique key field to dimension key\",\"nl-NL\":\"Unieke sleutel naar de unieke sleutel van de dimensie\"}"
        }
      ]
    },
    {
      "name": "BudgetDateID",
      "dataType": "int64",
      "description": "Unique key field to dimension key",
      "isHidden": true,
      "sourceColumn": "BudgetDateID",
      "sourceProviderType": "Integer",
      "annotations": [
        {
          "name": "TabularEditor_TranslatedNames",
          "value": "{\"de-DE\":\"BudgetDatumID\",\"en-US\":\"BudgetDateID\",\"nl-NL\":\"Budgetdateid\"}"
        },
        {
          "name": "TabularEditor_TranslatedDescriptions",
          "value": "{\"de-DE\":\"Kennung für BudgetDatum\",\"en-US\":\"Unique key field to dimension key\",\"nl-NL\":\"Unieke sleutel naar de unieke sleutel van de dimensie\"}"
        }
      ]
    },
    {
      "name": "Amount_LCY",
      "dataType": "decimal",
      "description": "Finance > Basic Data > General > Budgets > Budget Matrix > Budgeted Amount",
      "isHidden": true,
      "sourceColumn": "Amount_LCY",
      "sourceProviderType": "Numeric",
      "displayFolder": "Σ Local Currency",
      "annotations": [
        {
          "name": "TabularEditor_TranslatedNames",
          "value": "{\"de-DE\":\"Betrag lv\",\"en-US\":\"Amount LCY\",\"nl-NL\":\"Bedrag lv\"}"
        },
        {
          "name": "TabularEditor_TranslatedDescriptions",
          "value": "{\"de-DE\":\"Abteilungen/Finanzmanagement/Finanzbuchhaltung/Fibu-Budgets\",\"en-US\":\"Finance > Basic Data > General > Budgets > Budget Matrix > Budgeted Amount\",\"nl-NL\":\"Afdelingen/Financieel/Stamgegevens/Algemeen/Budgetten > Bedrag \"}"
        },
        {
          "name": "TabularEditor_TranslatedDisplayFolders",
          "value": "{\"de-DE\":\"Σ Local Währung\",\"en-US\":\"Σ Local Currency\",\"nl-NL\":\"Σ Lokale Valuta\"}"
        }
      ]
    },
    {
      "name": "Amount_RCY",
      "dataType": "decimal",
      "description": "Finance > Basic Data > General > Budgets > Budget Matrix > Budgeted Amount shown in reporting currency",
      "isHidden": true,
      "sourceColumn": "Amount_RCY",
      "sourceProviderType": "Numeric",
      "annotations": [
        {
          "name": "TabularEditor_TranslatedNames",
          "value": "{\"de-DE\":\"Betrag \",\"en-US\":\"Amount\",\"nl-NL\":\"Bedrag \"}"
        },
        {
          "name": "TabularEditor_TranslatedDescriptions",
          "value": "{\"de-DE\":\"Abteilungen/Finanzmanagement/Finanzbuchhaltung/Fibu-Budgets\",\"en-US\":\"Finance > Basic Data > General > Budgets > Budget Matrix > Budgeted Amount shown in reporting currency\",\"nl-NL\":\"Afdelingen/Financieel/Stamgegevens/Algemeen/Budgetten > Bedrag \"}"
        }
      ]
    },
    {
      "name": "IsCreditID",
      "dataType": "int64",
      "description": "Unique key field to dimension key",
      "isHidden": true,
      "sourceColumn": "IsCreditID",
      "annotations": [
        {
          "name": "TabularEditor_TranslatedNames",
          "value": "{\"de-DE\":\"IscreditID\",\"en-US\":\"IsCreditID\",\"nl-NL\":\"Iscreditid\"}"
        },
        {
          "name": "TabularEditor_TranslatedDescriptions",
          "value": "{\"de-DE\":\"Kennung für IsCredit\",\"en-US\":\"Unique key field to dimension key\",\"nl-NL\":\"Unieke sleutel naar de unieke sleutel van de dimensie\"}"
        }
      ]
    },
    {
      "name": "IsBalanceID",
      "dataType": "int64",
      "description": "Unique key field to dimension key",
      "isHidden": true,
      "sourceColumn": "IsBalanceID",
      "annotations": [
        {
          "name": "TabularEditor_TranslatedNames",
          "value": "{\"de-DE\":\"IsbalanceID\",\"en-US\":\"IsBalanceID\",\"nl-NL\":\"Isbalanceid\"}"
        },
        {
          "name": "TabularEditor_TranslatedDescriptions",
          "value": "{\"de-DE\":\"Kennung für IsBalance\",\"en-US\":\"Unique key field to dimension key\",\"nl-NL\":\"Unieke sleutel naar de unieke sleutel van de dimensie\"}"
        }
      ]
    },
    {
      "name": "FinancialDimension1ID",
      "dataType": "int64",
      "isHidden": true,
      "sourceColumn": "FinancialDimension1ID",
      "annotations": [
        {
          "name": "TabularEditor_TranslatedNames",
          "value": "{\"de-DE\":\"Financialdimension1ID\"}"
        },
        {
          "name": "TabularEditor_TranslatedDescriptions",
          "value": "{\"de-DE\":\"Kennung für Financialdimension1\"}"
        }
      ]
    },
    {
      "name": "FinancialDimension2ID",
      "dataType": "int64",
      "isHidden": true,
      "sourceColumn": "FinancialDimension2ID",
      "annotations": [
        {
          "name": "TabularEditor_TranslatedNames",
          "value": "{\"de-DE\":\"Financialdimension2ID\"}"
        },
        {
          "name": "TabularEditor_TranslatedDescriptions",
          "value": "{\"de-DE\":\"Kennung für Financialdimension2\"}"
        }
      ]
    },
    {
      "name": "FinancialDimension3ID",
      "dataType": "int64",
      "isHidden": true,
      "sourceColumn": "FinancialDimension3ID",
      "annotations": [
        {
          "name": "TabularEditor_TranslatedNames",
          "value": "{\"de-DE\":\"Financialdimension3ID\"}"
        },
        {
          "name": "TabularEditor_TranslatedDescriptions",
          "value": "{\"de-DE\":\"Kennung für Financialdimension3\"}"
        }
      ]
    },
    {
      "name": "FinancialDimension4ID",
      "dataType": "int64",
      "isHidden": true,
      "sourceColumn": "FinancialDimension4ID",
      "annotations": [
        {
          "name": "TabularEditor_TranslatedNames",
          "value": "{\"de-DE\":\"Financialdimension4ID\"}"
        },
        {
          "name": "TabularEditor_TranslatedDescriptions",
          "value": "{\"de-DE\":\"Kennung für Financialdimension4\"}"
        }
      ]
    },
    {
      "name": "FinancialDimension5ID",
      "dataType": "int64",
      "isHidden": true,
      "sourceColumn": "FinancialDimension5ID",
      "annotations": [
        {
          "name": "TabularEditor_TranslatedNames",
          "value": "{\"de-DE\":\"Financialdimension5ID\"}"
        },
        {
          "name": "TabularEditor_TranslatedDescriptions",
          "value": "{\"de-DE\":\"Kennung für Financialdimension5\"}"
        }
      ]
    },
    {
      "name": "FinancialDimension6ID",
      "dataType": "int64",
      "isHidden": true,
      "sourceColumn": "FinancialDimension6ID",
      "annotations": [
        {
          "name": "TabularEditor_TranslatedNames",
          "value": "{\"de-DE\":\"Financialdimension6ID\"}"
        },
        {
          "name": "TabularEditor_TranslatedDescriptions",
          "value": "{\"de-DE\":\"Kennung für Financialdimension6\"}"
        }
      ]
    },
    {
      "name": "FinancialDimension7ID",
      "dataType": "int64",
      "isHidden": true,
      "sourceColumn": "FinancialDimension7ID",
      "annotations": [
        {
          "name": "TabularEditor_TranslatedNames",
          "value": "{\"de-DE\":\"Financialdimension7ID\"}"
        },
        {
          "name": "TabularEditor_TranslatedDescriptions",
          "value": "{\"de-DE\":\"Kennung für Financialdimension7\"}"
        }
      ]
    },
    {
      "name": "FinancialDimension8ID",
      "dataType": "int64",
      "isHidden": true,
      "sourceColumn": "FinancialDimension8ID",
      "annotations": [
        {
          "name": "TabularEditor_TranslatedNames",
          "value": "{\"de-DE\":\"Financialdimension8ID\"}"
        },
        {
          "name": "TabularEditor_TranslatedDescriptions",
          "value": "{\"de-DE\":\"Kennung für Financialdimension8\"}"
        }
      ]
    },
    {
      "name": "IsBalance",
      "dataType": "int64",
      "isHidden": true,
      "sourceColumn": "IsBalance",
      "annotations": [
        {
          "name": "TabularEditor_TranslatedNames",
          "value": "{\"de-DE\":\"Ist Bilanz\",\"en-US\":\"Is Balance\",\"nl-NL\":\"Is balans\"}"
        },
        {
          "name": "TabularEditor_TranslatedDescriptions",
          "value": "{\"de-DE\":\"Abteilungen > Finanzmanagement > Finanzbuchhaltung > Kontenplan > Posten\",\"en-US\":\"Departments/Finance/Basic Data/General/Chart of Accounts > Ledger Entries  > Balance\",\"nl-NL\":\"Afdelingen/Financieel/Stamgegevens/Algemeen/Rekeningschema > Posten > Balans\"}"
        }
      ]
    },
    {
      "name": "IsCredit",
      "dataType": "int64",
      "isHidden": true,
      "sourceColumn": "IsCredit"
    },
    {
      "name": "GeneralLedgerAccountID",
      "dataType": "int64",
      "isHidden": true,
      "sourceColumn": "GeneralLedgerAccountID"
    },
    {
      "name": "DateID",
      "dataType": "int64",
      "isHidden": true,
      "sourceColumn": "DateID"
    }
  ],
  "partitions": [
    {
      "name": "factAccountsPayableGeneralLedgerBudget",
      "dataView": "full",
      "source": {
        "type": "query",
        "query": "SELECT * FROM tabular.factGeneralLedgerBudget",
        "dataSource": "Birds"
      }
    }
  ],
  "annotations": [
    {
      "name": "_TM_ExtProp_QueryDefinition",
      "value": " SELECT [fact].[GeneralLedgerBudget].* FROM [fact].[GeneralLedgerBudget] "
    },
    {
      "name": "_TM_ExtProp_DbTableName",
      "value": "GeneralLedgerBudget"
    },
    {
      "name": "_TM_ExtProp_DbSchemaName",
      "value": "fact"
    },
    {
      "name": "Postfix",
      "value": "GLB"
    },
    {
      "name": "ContentPacks",
      "value": "Standard"
    },
    {
      "name": "TabularEditor_TranslatedNames",
      "value": "{\"de-DE\":\"Σ FiBu Budget\",\"en-US\":\"Σ General Ledger Budget\",\"nl-NL\":\"Σ Grootboekbudget\"}"
    },
    {
      "name": "TabularEditor_Relationships",
      "value": [
        "[",
        "  {",
        "    \"fromTable\": \"factGeneralLedgerBudget\",",
        "    \"fromColumn\": \"BudgetDateID\",",
        "    \"toTable\": \"BudgetDate\",",
        "    \"toColumn\": \"DateID\"",
        "  },",
        "  {",
        "    \"fromTable\": \"factGeneralLedgerBudget\",",
        "    \"fromColumn\": \"BudgetDateID\",",
        "    \"toTable\": \"Date\",",
        "    \"toColumn\": \"DateID\"",
        "  },",
        "  {",
        "    \"fromTable\": \"factGeneralLedgerBudget\",",
        "    \"fromColumn\": \"BudgetModelID\",",
        "    \"toTable\": \"BudgetModel\",",
        "    \"toColumn\": \"BudgetModelID\"",
        "  },",
        "  {",
        "    \"fromTable\": \"factGeneralLedgerBudget\",",
        "    \"fromColumn\": \"CompanyID\",",
        "    \"toTable\": \"Company\",",
        "    \"toColumn\": \"CompanyID\"",
        "  },",
        "  {",
        "    \"fromTable\": \"factGeneralLedgerBudget\",",
        "    \"fromColumn\": \"DateID\",",
        "    \"toTable\": \"Date\",",
        "    \"toColumn\": \"DateID\",",
        "    \"isActive\": false",
        "  },",
        "  {",
        "    \"fromTable\": \"factGeneralLedgerBudget\",",
        "    \"fromColumn\": \"FinancialDimension1ID\",",
        "    \"toTable\": \"FinancialDimension1\",",
        "    \"toColumn\": \"FinancialDimension1ID\"",
        "  },",
        "  {",
        "    \"fromTable\": \"factGeneralLedgerBudget\",",
        "    \"fromColumn\": \"FinancialDimension2ID\",",
        "    \"toTable\": \"FinancialDimension2\",",
        "    \"toColumn\": \"FinancialDimension2ID\"",
        "  },",
        "  {",
        "    \"fromTable\": \"factGeneralLedgerBudget\",",
        "    \"fromColumn\": \"FinancialDimension3ID\",",
        "    \"toTable\": \"FinancialDimension3\",",
        "    \"toColumn\": \"FinancialDimension3ID\"",
        "  },",
        "  {",
        "    \"fromTable\": \"factGeneralLedgerBudget\",",
        "    \"fromColumn\": \"FinancialDimension4ID\",",
        "    \"toTable\": \"FinancialDimension4\",",
        "    \"toColumn\": \"FinancialDimension4ID\"",
        "  },",
        "  {",
        "    \"fromTable\": \"factGeneralLedgerBudget\",",
        "    \"fromColumn\": \"FinancialDimension5ID\",",
        "    \"toTable\": \"FinancialDimension5\",",
        "    \"toColumn\": \"FinancialDimension5ID\"",
        "  },",
        "  {",
        "    \"fromTable\": \"factGeneralLedgerBudget\",",
        "    \"fromColumn\": \"FinancialDimension6ID\",",
        "    \"toTable\": \"FinancialDimension6\",",
        "    \"toColumn\": \"FinancialDimension6ID\"",
        "  },",
        "  {",
        "    \"fromTable\": \"factGeneralLedgerBudget\",",
        "    \"fromColumn\": \"FinancialDimension7ID\",",
        "    \"toTable\": \"FinancialDimension7\",",
        "    \"toColumn\": \"FinancialDimension7ID\"",
        "  },",
        "  {",
        "    \"fromTable\": \"factGeneralLedgerBudget\",",
        "    \"fromColumn\": \"FinancialDimension8ID\",",
        "    \"toTable\": \"FinancialDimension8\",",
        "    \"toColumn\": \"FinancialDimension8ID\"",
        "  },",
        "  {",
        "    \"fromTable\": \"factGeneralLedgerBudget\",",
        "    \"fromColumn\": \"GeneralLedgerAccountID\",",
        "    \"toTable\": \"GeneralLedgerAccount\",",
        "    \"toColumn\": \"GeneralLedgerAccountID\"",
        "  },",
        "  {",
        "    \"fromTable\": \"factGeneralLedgerBudget\",",
        "    \"fromColumn\": \"IsBalanceID\",",
        "    \"toTable\": \"IsBalance\",",
        "    \"toColumn\": \"YesNoID\"",
        "  },",
        "  {",
        "    \"fromTable\": \"factGeneralLedgerBudget\",",
        "    \"fromColumn\": \"IsCreditID\",",
        "    \"toTable\": \"Iscredit\",",
        "    \"toColumn\": \"YesNoID\"",
        "  }",
        "]"
      ]
    }
  ]
}