{
  "name": "ShippingAgent",
  "columns": [
    {
      "name": "ShippingAgentID",
      "dataType": "int64",
      "description": "Unique key for dimension Shipping Agent",
      "isHidden": true,
      "sourceColumn": "ShippingAgentID",
      "sourceProviderType": "int",
      "annotations": [
        {
          "name": "TabularEditor_TranslatedNames",
          "value": "{\"de-DE\":\"ShippingagentID\",\"en-US\":\"ShippingAgentID\",\"nl-NL\":\"Shippingagentid\"}"
        },
        {
          "name": "TabularEditor_TranslatedDescriptions",
          "value": "{\"de-DE\":\"Kennung für Shippingagent\",\"en-US\":\"Unique key for dimension Shipping Agent\",\"nl-NL\":\"Unieke sleutel voor de dimensie Expediteur\"}"
        }
      ]
    },
    {
      "name": "ShippingAgentCode",
      "dataType": "string",
      "description": "Functional Management > General Data > General > Shipping Agents > Code",
      "isHidden": true,
      "sourceColumn": "ShippingAgentCode",
      "sourceProviderType": "nvarchar",
      "annotations": [
        {
          "name": "TabularEditor_TranslatedNames",
          "value": "{\"de-DE\":\"Zusteller Code\",\"en-US\":\"Shipping Agent Code\",\"nl-NL\":\"Expediteurcode\"}"
        },
        {
          "name": "TabularEditor_TranslatedDescriptions",
          "value": "{\"de-DE\":\"Abteilungen/Verkauf & Marketing/Auftragsabwicklung/Zusteller\",\"en-US\":\"Functional Management > General Data > General > Shipping Agents > Code\",\"nl-NL\":\"Afdelingen/Functioneel beheer/Algemeen/Algemeen > Expediteurs\"}"
        }
      ]
    },
    {
      "name": "ShippingAgentName",
      "dataType": "string",
      "description": "Functional Management > General Data > General > Shipping Agents > Name",
      "isHidden": true,
      "sourceColumn": "ShippingAgentName",
      "sourceProviderType": "nvarchar",
      "annotations": [
        {
          "name": "TabularEditor_TranslatedNames",
          "value": "{\"de-DE\":\"Zusteller Name\",\"en-US\":\"Shipping Agent Name\",\"nl-NL\":\"Expediteurnaam\"}"
        },
        {
          "name": "TabularEditor_TranslatedDescriptions",
          "value": "{\"de-DE\":\"Abteilungen/Verkauf & Marketing/Auftragsabwicklung/Zusteller\",\"en-US\":\"Functional Management > General Data > General > Shipping Agents > Name\",\"nl-NL\":\"Afdelingen/Functioneel beheer/Algemeen/Algemeen > Expediteurs\"}"
        }
      ]
    },
    {
      "name": "ShippingAgentCodeName",
      "dataType": "string",
      "description": "Functional Management > General Data > General > Shipping Agents > Code and Name",
      "sourceColumn": "ShippingAgentCodeName",
      "sourceProviderType": "nvarchar",
      "annotations": [
        {
          "name": "TabularEditor_TranslatedNames",
          "value": "{\"de-DE\":\"Zusteller Code Beschreibung\",\"en-US\":\"Shipping Agent\",\"nl-NL\":\"Expediteur\"}"
        },
        {
          "name": "TabularEditor_TranslatedDescriptions",
          "value": "{\"de-DE\":\"Abteilungen/Verkauf & Marketing/Auftragsabwicklung/Zusteller\",\"en-US\":\"Functional Management > General Data > General > Shipping Agents > Code and Name\",\"nl-NL\":\"Afdelingen/Functioneel beheer/Algemeen/Algemeen > Expediteurs\"}"
        }
      ]
    }
  ],
  "partitions": [
    {
      "name": "ShippingAgent",
      "source": {
        "type": "query",
        "query": "SELECT * FROM tabular.ShippingAgent",
        "dataSource": "Birds"
      },
      "annotations": [
        {
          "name": "TabularEditor_TableSchema",
          "value": "{\"Name\":\"ShippingAgent\",\"Schema\":\"dim\",\"Database\":\"Birds\",\"IncludedColumns\":[\"ShippingAgentID\",\"StageID\",\"CompanyID\",\"DataConnectionID\",\"ExecutionTimestamp\",\"ComponentExecutionID\",\"ShippingAgentCode\",\"ShippingAgentName\",\"ShippingAgentCodeName\"],\"SelectAll\":true}"
        }
      ]
    }
  ],
  "annotations": [
    {
      "name": "TabularEditor_TranslatedNames",
      "value": "{\"de-DE\":\"Zusteller\",\"en-US\":\"Shipping Agent\",\"nl-NL\":\"Expediteur\"}"
    },
    {
      "name": "TabularEditor_Relationships",
      "value": "[]"
    }
  ]
}