{
  "name": "ItemVariant",
  "columns": [
    {
      "name": "ItemVariantID",
      "dataType": "int64",
      "description": "Unique identifier for dimension Item Variant",
      "isHidden": true,
      "sourceColumn": "ItemVariantID",
      "sourceProviderType": "int",
      "annotations": [
        {
          "name": "TabularEditor_TranslatedNames",
          "value": "{\"de-DE\":\"ItemVariantID\",\"en-US\":\"ItemVariantID\",\"nl-NL\":\"Itemvariantid\"}"
        },
        {
          "name": "TabularEditor_TranslatedDescriptions",
          "value": "{\"de-DE\":\"Kennung für ItemVariant\",\"en-US\":\"Unique identifier for dimension Item Variant\",\"nl-NL\":\"Unieke sleutel voor dimensie Artikelvariant\"}"
        }
      ]
    },
    {
      "name": "ItemVariantCode",
      "dataType": "string",
      "description": "Item Management > General Data > Items > Variants > Code",
      "sourceColumn": "ItemVariantCode",
      "sourceProviderType": "nvarchar",
      "annotations": [
        {
          "name": "TabularEditor_TranslatedNames",
          "value": "{\"de-DE\":\"Artikelvariant Code\",\"en-US\":\"Item Variant Code\",\"nl-NL\":\"Artikelvariantcode\"}"
        },
        {
          "name": "TabularEditor_TranslatedDescriptions",
          "value": "{\"de-DE\":\"Startseite/Artikel?Varianten\",\"en-US\":\"Item Management > General Data > Items > Variants > Code\",\"nl-NL\":\"Artikelbeheer > Stamgegevens > Artikelen > Varianten > Code\"}"
        }
      ]
    },
    {
      "name": "ItemVariantDescription",
      "dataType": "string",
      "description": "Item Management > General Data > Items > Variants > Description",
      "isHidden": true,
      "sourceColumn": "ItemVariantDescription",
      "sourceProviderType": "nvarchar",
      "annotations": [
        {
          "name": "TabularEditor_TranslatedNames",
          "value": "{\"de-DE\":\"Artikelvariant Beschreibung\",\"en-US\":\"Item Variant Description\",\"nl-NL\":\"Artikelvariant\"}"
        },
        {
          "name": "TabularEditor_TranslatedDescriptions",
          "value": "{\"de-DE\":\"Startseite/Artikel?Varianten\",\"en-US\":\"Item Management > General Data > Items > Variants > Description\",\"nl-NL\":\"Artikelbeheer > Stamgegevens > Artikelen > Varianten > Omschrijving \"}"
        }
      ]
    },
    {
      "name": "ItemVariantCodeDescription",
      "dataType": "string",
      "description": "Item Management > General Data > Items > Variants > Code and Description",
      "sourceColumn": "ItemVariantCodeDescription",
      "sourceProviderType": "nvarchar",
      "annotations": [
        {
          "name": "TabularEditor_TranslatedNames",
          "value": "{\"de-DE\":\"Artikelvariant Code Beschreibung\",\"en-US\":\"Item Variant\",\"nl-NL\":\"Artikelvariant\"}"
        },
        {
          "name": "TabularEditor_TranslatedDescriptions",
          "value": "{\"de-DE\":\"Startseite/Artikel?Varianten\",\"en-US\":\"Item Management > General Data > Items > Variants > Code and Description\",\"nl-NL\":\"Artikelbeheer > Stamgegevens > Artikelen > Varianten > Code en Omschrijving\"}"
        }
      ]
    },
    {
      "name": "ItemVariantDescription2",
      "dataType": "string",
      "description": "Item Management > General Data > Items > Variants > Description2",
      "isHidden": true,
      "sourceColumn": "ItemVariantDescription2",
      "sourceProviderType": "nvarchar",
      "annotations": [
        {
          "name": "TabularEditor_TranslatedNames",
          "value": "{\"de-DE\":\"Artikelvariant Beschreibung2\",\"en-US\":\"Description 2\",\"nl-NL\":\"Omschrijving 2\"}"
        },
        {
          "name": "TabularEditor_TranslatedDescriptions",
          "value": "{\"de-DE\":\"Startseite/Artikel?Varianten\",\"en-US\":\"Item Management > General Data > Items > Variants > Description2\",\"nl-NL\":\"Artikelbeheer > Stamgegevens > Artikelen > Varianten > Omschrijving 2 \"}"
        }
      ]
    },
    {
      "name": "ItemVariantCodeDescription2",
      "dataType": "string",
      "description": "Item Management > General Data > Items > Variants > Code and Description2",
      "isHidden": true,
      "sourceColumn": "ItemVariantCodeDescription2",
      "sourceProviderType": "nvarchar",
      "annotations": [
        {
          "name": "TabularEditor_TranslatedNames",
          "value": "{\"de-DE\":\"Artikelvariant Code Beschreibung2\",\"en-US\":\"Item Variant Description 2\",\"nl-NL\":\"Artikelvariant2\"}"
        },
        {
          "name": "TabularEditor_TranslatedDescriptions",
          "value": "{\"de-DE\":\"Startseite/Artikel?Varianten\",\"en-US\":\"Item Management > General Data > Items > Variants > Code and Description2\",\"nl-NL\":\"Artikelbeheer > Stamgegevens > Artikelen > Varianten > Omschrijving 2 \"}"
        }
      ]
    },
    {
      "name": "ItemCode",
      "dataType": "string",
      "isHidden": true,
      "sourceColumn": "ItemCode",
      "annotations": [
        {
          "name": "TabularEditor_TranslatedNames",
          "value": "{\"de-DE\":\"Artikelvariant Artikelcode\",\"en-US\":\"Item Variant Item No\",\"nl-NL\":\"Artikelnr\"}"
        },
        {
          "name": "TabularEditor_TranslatedDescriptions",
          "value": "{\"de-DE\":\"Startseite/Artikel/Varianten\",\"en-US\":\"Item Management > General Data > Items > Variants > Item No\",\"nl-NL\":\"Artikelbeheer > Stamgegevens > Artikelen > Varianten > Artikel Nr\"}"
        }
      ]
    }
  ],
  "partitions": [
    {
      "name": "ItemVariant",
      "source": {
        "type": "query",
        "query": "SELECT * FROM tabular.ItemVariant",
        "dataSource": "Birds"
      },
      "annotations": [
        {
          "name": "TabularEditor_TableSchema",
          "value": "{\"Name\":\"ItemVariant\",\"Schema\":\"dim\",\"Database\":\"birds_nav_standard_2017\",\"IncludedColumns\":[\"ItemVariantID\",\"StageID\",\"CompanyID\",\"DataConnectionID\",\"ExecutionTimestamp\",\"ComponentExecutionID\",\"ItemVariantNo\",\"ItemVariantCode\",\"ItemVariantDescription\",\"ItemVariantCodeDescription\",\"ItemVariantDescription2\",\"ItemVariantCodeDescription2\"],\"SelectAll\":true}"
        }
      ]
    }
  ],
  "annotations": [
    {
      "name": "TabularEditor_TranslatedNames",
      "value": "{\"de-DE\":\"Artikelvariant\",\"en-US\":\"Item Variant\",\"nl-NL\":\"Artikelvariant\"}"
    },
    {
      "name": "TabularEditor_Relationships",
      "value": "[]"
    }
  ]
}