{
  "name": "DiscountAmount_YTD_Variance%_PVE",
  "description": "Departments/Item Management/General Data/Items > Items > Entries > Value Entries > item ledger entry type = purchase > Discount Amount",
  "expression": "DIVIDE ( [DiscountAmount_YTD_Variance_PVE], [DiscountAmount_LYTD_PVE] )",
  "formatString": "#,##0.0 %",
  "displayFolder": "Σ LYTD Variance",
  "annotations": [
    {
      "name": "TabularEditor_TranslatedNames",
      "value": "{\"de-DE\":\"Rabatt YTD Varianz %\",\"en-US\":\"Discount Amount YTD Variance%\",\"nl-NL\":\"Korting YTD Variance %\"}"
    },
    {
      "name": "TabularEditor_TranslatedDescriptions",
      "value": "{\"de-DE\":\"Startseite/Artikel/Posten/Posten/Wertposten\",\"en-US\":\"Departments/Item Management/General Data/Items > Items > Entries > Value Entries > item ledger entry type = purchase > Discount Amount\",\"nl-NL\":\"Afdelingen/Artikelbeheer/Stamgegevens/Artikelen > Posten > Waardeposten > Totale Korting\"}"
    },
    {
      "name": "TabularEditor_TranslatedDisplayFolders",
      "value": "{\"de-DE\":\"Σ LYTD Varianz\",\"en-US\":\"Σ LYTD Variance\"}"
    }
  ]
}