{
  "name": "GrossAmount_YTD_Variance_PVE",
  "description": "Purchase Amount + Discount Amount",
  "expression": "[GrossAmount_YTD_PVE] - [GrossAmount_LYTD_PVE]",
  "formatString": "#,##0.00",
  "displayFolder": "Σ LYTD Variance",
  "annotations": [
    {
      "name": "TabularEditor_TranslatedNames",
      "value": "{\"de-DE\":\"Brutto Einkaufsbetrag YTD Varianz\",\"en-US\":\"Gross Amount YTD Variance\",\"nl-NL\":\"Bruto inkoopbedrag YTD verschil\"}"
    },
    {
      "name": "TabularEditor_TranslatedDescriptions",
      "value": "{\"de-DE\":\"Startseite/Artikel/Posten/Posten/Wertposten\",\"en-US\":\"Purchase Amount + Discount Amount\",\"nl-NL\":\"Geboekte kosten - Korting\"}"
    },
    {
      "name": "TabularEditor_TranslatedDisplayFolders",
      "value": "{\"de-DE\":\"Σ LYTD Varianz\",\"en-US\":\"Σ LYTD Variance\"}"
    }
  ]
}