{
  "name": "PurchaseAmountExpected_PCY_PVE",
  "description": "Departments/Item Management/General Data/Items > Items > Entries > Value Entries > item ledger entry type = purchase > Cost Amount Actual + Expected",
  "expression": "SUM ( 'factPurchaseValueEntry'[PurchaseAmountExpected_PCY] )",
  "formatString": "#,##0.00",
  "displayFolder": "Σ Posted Currency",
  "annotations": [
    {
      "name": "TabularEditor_TranslatedNames",
      "value": "{\"de-DE\":\"Einkaufsbetrag (erwartet)\",\"en-US\":\"Purchase Amount Expected\",\"nl-NL\":\"Verwacht inkoopbedrag\"}"
    },
    {
      "name": "TabularEditor_TranslatedDescriptions",
      "value": "{\"de-DE\":\"Startseite/Artikel/Posten/Posten/Wertposten\",\"en-US\":\"Departments/Item Management/General Data/Items > Items > Entries > Value Entries > item ledger entry type = purchase > Cost Amount Actual + Expected\",\"nl-NL\":\"Afdelingen/Artikelbeheer/Stamgegevens/Artikelen > Posten > Waardeposten > Totaal werkelijke kosten + Totaal verwachte kosten\"}"
    },
    {
      "name": "TabularEditor_TranslatedDisplayFolders",
      "value": "{\"de-DE\":\"Σ Gebuchte Währung\",\"en-US\":\"Σ Posted Currency\",\"nl-NL\":\"Σ Geboekte Valuta\"}"
    }
  ]
}