{
  "name": "PurchaseAmountExpected_SPLY_Variance%_PVE",
  "description": "Departments/Item Management/General Data/Items > Items > Entries > Value Entries > item ledger entry type = purchase > Cost Amount Actual + Expected",
  "expression": [
    "DIVIDE (",
    "    [PurchaseAmountExpected_SPLY_Variance_PVE],",
    "    [PurchaseAmountExpected_SPLY_PVE]",
    ")"
  ],
  "formatString": "#,##0.0 %",
  "displayFolder": "Σ SPLY Variance",
  "annotations": [
    {
      "name": "TabularEditor_TranslatedNames",
      "value": "{\"de-DE\":\"Einkaufsbetrag (erwartet) SPLY Varianz %\",\"en-US\":\"Purchase Amount Expected SPLY Variance%\",\"nl-NL\":\"Verwacht inkoopbedrag SPLY verschil %\"}"
    },
    {
      "name": "TabularEditor_TranslatedDescriptions",
      "value": "{\"de-DE\":\"Startseite/Artikel/Posten/Posten/Wertposten\",\"en-US\":\"Departments/Item Management/General Data/Items > Items > Entries > Value Entries > item ledger entry type = purchase > Cost Amount Actual + Expected\",\"nl-NL\":\"Afdelingen/Artikelbeheer/Stamgegevens/Artikelen > Posten > Waardeposten > Totaal werkelijke kosten + Totaal verwachte kosten\"}"
    },
    {
      "name": "TabularEditor_TranslatedDisplayFolders",
      "value": "{\"de-DE\":\"Σ SPLY Varianz\",\"en-US\":\"Σ SPLY Variance\"}"
    }
  ]
}