{
  "name": "QuantityBalance_IIL",
  "description": "Departments/Item Management/General Data/Items > Entries > Ledger Entry > Quantity ",
  "expression": [
    "VAR PTD0 =",
    "    FILTER ( ALL ( 'Date' ), 'Date'[DateID] <= MAX ( 'Date'[DateID] ) )",
    "RETURN",
    "    CALCULATE ( [Quantity_IIL], PTD0 )"
  ],
  "formatString": "#,##0",
  "annotations": [
    {
      "name": "TabularEditor_TranslatedNames",
      "value": "{\"de-DE\":\"Menge Balance\",\"en-US\":\"Quantity Balance\",\"nl-NL\":\"Aantallen balans\"}"
    },
    {
      "name": "TabularEditor_TranslatedDescriptions",
      "value": "{\"de-DE\":\"Abteilungen/Lager/Historie/Historie/Artikelposten/Zeilen\",\"en-US\":\"Departments/Item Management/General Data/Items > Entries > Ledger Entry > Quantity \",\"nl-NL\":\"Afdelingen/Artikelbeheer/Stamgegevens/Artikelen > Posten > Posten > Aantal waar volgnummer = 1,3,5\"}"
    }
  ]
}