{
  "name": "SKUonStock_YTD_IIL",
  "description": "Count of unique items which have an inventory quantity higher than 0 ",
  "expression": [
    "VAR YTD0 =",
    "    FILTER (",
    "        ALL ( 'Date' ),",
    "        'Date'[CYearNo] = MAX ( 'Date'[CYearNo] )",
    "            && 'Date'[DateID] <= MAX ( 'Date'[DateID] )",
    "    )",
    "RETURN",
    "    CALCULATE ( [SKUonStock_IIL], YTD0 )"
  ],
  "displayFolder": "Σ YTD",
  "annotations": [
    {
      "name": "TabularEditor_TranslatedNames",
      "value": "{\"de-DE\":\"Lagerbestand YTD\",\"en-US\":\"#SKU on Stock YTD\",\"nl-NL\":\"Artikelen op voorraad YTD\"}"
    },
    {
      "name": "TabularEditor_TranslatedDescriptions",
      "value": "{\"de-DE\":\"Abteilungen/Lager/Historie/Historie/Artikelposten/Zeilen\",\"en-US\":\"Count of unique items which have an inventory quantity higher than 0 \",\"nl-NL\":\"Telling van uniek aantal artikelen met een voorraadhoeveelheid hoger dan 0 \"}"
    },
    {
      "name": "TabularEditor_TranslatedDisplayFolders",
      "value": "{\"de-DE\":\"Σ YTD\",\"en-US\":\"Σ YTD\",\"nl-NL\":\"Σ YTD\"}"
    }
  ]
}