{
  "name": "SalesOrderOutstandingAmount_LCY_SO",
  "description": "Departments/Sales & Marketing/Order Processing/Sales Orders > Lines > Sales Order Outstanding Amount",
  "expression": "SUM ( 'factSalesOrder'[SalesOrderOutstandingAmount_LCY] )",
  "formatString": "#,##0.00",
  "displayFolder": "Σ Local Currency",
  "annotations": [
    {
      "name": "TabularEditor_TranslatedNames",
      "value": "{\"de-DE\":\"Restauftragsbetrag \",\"en-US\":\"Sales Order Outstanding Amount\",\"nl-NL\":\"Verkooporder openstaand bedrag\"}"
    },
    {
      "name": "TabularEditor_TranslatedDescriptions",
      "value": "{\"de-DE\":\"Abteilungen/Verkauf & Marketing/Auftragsabwicklung/Aufträge/Zeilen\",\"en-US\":\"Departments/Sales & Marketing/Order Processing/Sales Orders > Lines > Sales Order Outstanding Amount > Sales Order Outstanding Amount\",\"nl-NL\":\"Afdelingen/Verkoop/Orderverwerking/Verkooporders > De regels in een verkooporder > Verkooporder openstaand bedrag\"}"
    },
    {
      "name": "TabularEditor_TranslatedDisplayFolders",
      "value": "{\"de-DE\":\"Σ Local Währung\",\"en-US\":\"Σ Local Currency\",\"nl-NL\":\"Σ Lokale Valuta\"}"
    }
  ]
}