{
  "name": "SalesOrderOutstandingAmount_YTD_Variance_SO",
  "description": "Departments/Sales & Marketing/Order Processing/Sales Orders > Lines > Sales Order Outstanding Amount YTD Variance",
  "expression": "[SalesOrderOutstandingAmount_YTD_SO] - [SalesOrderOutstandingAmount_LYTD_SO]",
  "formatString": "#,##0.00",
  "displayFolder": "Σ YTD Variance",
  "annotations": [
    {
      "name": "TabularEditor_TranslatedNames",
      "value": "{\"de-DE\":\"Restauftragsbetrag  YTD Varianz\",\"en-US\":\"Sales Order Outstanding Amount YTD Variance\",\"nl-NL\":\"Verkooporder openstaand bedrag YTD Variance\"}"
    },
    {
      "name": "TabularEditor_TranslatedDescriptions",
      "value": "{\"de-DE\":\"Abteilungen/Verkauf & Marketing/Auftragsabwicklung/Aufträge/Zeilen\",\"en-US\":\"Departments/Sales & Marketing/Order Processing/Sales Orders > Lines > Sales Order Outstanding Amount > Sales Order Outstanding Amount YTD Variance\",\"nl-NL\":\"Afdelingen/Verkoop/Orderverwerking/Verkooporders > De regels in een verkooporder > Verkooporder openstaand bedrag YTD Variance\"}"
    },
    {
      "name": "TabularEditor_TranslatedDisplayFolders",
      "value": "{\"de-DE\":\"Σ YTD Varianz\",\"en-US\":\"Σ YTD Variance\",\"nl-NL\":\"Σ YTD Variance\"}"
    }
  ]
}