{
  "name": "SalesOrderShippedNotInvoicedQuantity_SPLY_Variance%_SO",
  "description": "Departments/Sales & Marketing/Order Processing/Sales Orders > Lines > Sales Order Shipped Not Invoiced Quantity SPLY Variance %",
  "expression": "DIVIDE ( [SalesOrderShippedNotInvoicedQuantity_SO] - [SalesOrderShippedNotInvoicedQuantity_SPLY_SO], [SalesOrderShippedNotInvoicedQuantity_SPLY_SO] )",
  "formatString": "#,##0.0 %",
  "displayFolder": "Σ SPLY Variance",
  "annotations": [
    {
      "name": "TabularEditor_TranslatedNames",
      "value": "{\"de-DE\":\"Auftrage gelieferte, nicht fakturierte Menge SPLY\",\"en-US\":\"Sales Order Shipped Not Invoiced Quantity SPLY Variance %\",\"nl-NL\":\"Verkooporder verzonden niet gefactureerd aantal SPLY Variance %\"}"
    },
    {
      "name": "TabularEditor_TranslatedDescriptions",
      "value": "{\"de-DE\":\"Abteilungen/Verkauf & Marketing/Auftragsabwicklung/Aufträge/Zeilen\",\"en-US\":\"Departments/Sales & Marketing/Order Processing/Sales Orders > Lines > Sales Order Shipped Not Invoiced Quantity > Sales Order Shipped Not Invoiced Quantity SPLY Variance %\",\"nl-NL\":\"Afdelingen/Verkoop/Orderverwerking/Verkooporders > De regels in een verkooporder > Verkooporder verzonden niet gefactureerd aantal SPLY Variance %\"}"
    },
    {
      "name": "TabularEditor_TranslatedDisplayFolders",
      "value": "{\"de-DE\":\"Σ SPLY Varianz\",\"en-US\":\"Σ SPLY Variance\",\"nl-NL\":\"Σ SPLY Variance\"}"
    }
  ]
}