{
  "name": "SalesOrderShippedGrossWeight_YTD_Index_SO",
  "description": "Departments/Sales & Marketing/Order Processing/Sales Orders > Lines > Sales Order Shipped Gross Weight YTD Index",
  "expression": "DIVIDE ( [SalesOrderShippedGrossWeight_YTD_SO], [SalesOrderShippedGrossWeight_LYTD_SO] ) * 100",
  "formatString": "#,##0.0",
  "displayFolder": "Σ YTD Variance",
  "annotations": [
    {
      "name": "TabularEditor_TranslatedNames",
      "value": "{\"de-DE\":\"Bruttogewicht YTD Index\",\"en-US\":\"Sales Order Shipped Gross Weight YTD Index\",\"nl-NL\":\"Verkooporder verzonden bruto gewicht YTD Index\"}"
    },
    {
      "name": "TabularEditor_TranslatedDescriptions",
      "value": "{\"de-DE\":\"Abteilungen/Verkauf & Marketing/Auftragsabwicklung/Aufträge/Zeilen\",\"en-US\":\"Departments/Sales & Marketing/Order Processing/Sales Orders > Lines > Sales Order Shipped Gross Weight > Sales Order Shipped Gross Weight YTD Index\",\"nl-NL\":\"Afdelingen/Verkoop/Orderverwerking/Verkooporders > De regels in een verkooporder > Verkooporder verzonden bruto gewicht YTD Index\"}"
    },
    {
      "name": "TabularEditor_TranslatedDisplayFolders",
      "value": "{\"de-DE\":\"Σ YTD Varianz\",\"en-US\":\"Σ YTD Variance\",\"nl-NL\":\"Σ YTD Variance\"}"
    }
  ]
}