{
  "name": "SalesOrderShippedNotInvoicedAmount_SO",
  "description": "Departments/Sales & Marketing/Order Processing/Sales Orders > Lines > Sales Order Shipped Not Invoiced Amount",
  "expression": "SUM ( 'factSalesOrder'[SalesOrderShippedNotInvoicedAmount_RCY] )",
  "formatString": "#,##0.00",
  "annotations": [
    {
      "name": "TabularEditor_TranslatedNames",
      "value": "{\"de-DE\":\"Nicht fakturierte Lieferung\",\"en-US\":\"Sales Order Shipped Not Invoiced Amount\",\"nl-NL\":\"Verkooporder verzonden niet gefactureerd bedrag\"}"
    },
    {
      "name": "TabularEditor_TranslatedDescriptions",
      "value": "{\"de-DE\":\"Abteilungen/Verkauf & Marketing/Auftragsabwicklung/Aufträge/Zeilen\",\"en-US\":\"Departments/Sales & Marketing/Order Processing/Sales Orders > Lines > Sales Order Shipped Not Invoiced Amount > Sales Order Shipped Not Invoiced Amount\",\"nl-NL\":\"Afdelingen/Verkoop/Orderverwerking/Verkooporders > De regels in een verkooporder > Verkooporder verzonden niet gefactureerd bedrag\"}"
    }
  ]
}