{
  "name": "Company",
  "columns": [
    {
      "name": "CompanyID",
      "dataType": "int64",
      "description": "Unique identifier of the company",
      "isHidden": true,
      "sourceColumn": "CompanyID",
      "sourceProviderType": "Integer",
      "annotations": [
        {
          "name": "TabularEditor_TranslatedNames",
          "value": "{\"de-DE\":\"CompanyID\",\"en-US\":\"CompanyID\",\"nl-NL\":\"Companyid\"}"
        },
        {
          "name": "TabularEditor_TranslatedDescriptions",
          "value": "{\"de-DE\":\"Kennung für Company\",\"en-US\":\"Unique identifier of the company\",\"nl-NL\":\"Unieke sleutel voor bedrijf\"}"
        }
      ]
    },
    {
      "name": "CompanyCode",
      "dataType": "string",
      "isHidden": true,
      "sourceColumn": "CompanyCode"
    },
    {
      "name": "CompanyName",
      "dataType": "string",
      "sourceColumn": "CompanyName",
      "annotations": [
        {
          "name": "TabularEditor_TranslatedNames",
          "value": "{\"de-DE\":\"Mandant\",\"en-US\":\"Company\",\"nl-NL\":\"Bedrijf\"}"
        },
        {
          "name": "TabularEditor_TranslatedDescriptions",
          "value": "{\"de-DE\":\"Abteilungen/Verkauf & Marketing/Verwaltung\",\"en-US\":\"Functional Management > General Data > Company > Companies > Name\",\"nl-NL\":\"Functioneel beheer > Algemeen > Bedrijf > Bedrijven > Naam\"}"
        }
      ]
    }
  ],
  "partitions": [
    {
      "name": "Company",
      "dataView": "full",
      "source": {
        "type": "query",
        "query": "SELECT * FROM tabular.Company",
        "dataSource": "Birds"
      }
    }
  ],
  "annotations": [
    {
      "name": "_TM_ExtProp_QueryDefinition",
      "value": " SELECT [dim].[Company].* FROM [dim].[Company] "
    },
    {
      "name": "_TM_ExtProp_DbTableName",
      "value": "Company"
    },
    {
      "name": "_TM_ExtProp_DbSchemaName",
      "value": "dim"
    },
    {
      "name": "ContentPacks",
      "value": "Standard"
    },
    {
      "name": "TabularEditor_TranslatedNames",
      "value": "{\"de-DE\":\"Mandant\",\"en-US\":\"Company\",\"nl-NL\":\"Bedrijf\"}"
    },
    {
      "name": "TabularEditor_Relationships",
      "value": "[]"
    }
  ]
}