{
  "name": "PrepackQuantity_PILE",
  "description": "Departments/Item Management/General Data/Items > Entries > Ledger Entry > Prepack Quantity",
  "expression": "SUM ( 'factPurchaseItemLedgerEntry'[PrepackQuantity] )",
  "formatString": "#,##0",
  "annotations": [
    {
      "name": "TabularEditor_TranslatedNames",
      "value": "{\"en-US\":\"Prepack Quantity\",\"nl-NL\":\"Prepack hoeveelheid\"}"
    },
    {
      "name": "TabularEditor_TranslatedDescriptions",
      "value": "{\"en-US\":\"Departments/Item Management/General Data/Items > Entries > Ledger Entry > Prepack Quantity\",\"nl-NL\":\"Afdelingen/Artikelbeheer/Stamgegevens/Artikelen > Posten > Posten > Prepack hoeveelheid\"}"
    }
  ]
}