{
  "name": "ReceivedQuantity_PILE",
  "description": "Departments/Item Management/General Data/Items > Entries > Ledger Entry > Received Quantity",
  "expression": "SUM ( 'factPurchaseItemLedgerEntry'[ReceivedQuantity] )",
  "formatString": "#,##0",
  "annotations": [
    {
      "name": "TabularEditor_TranslatedNames",
      "value": "{\"de-DE\":\"Wareneingangsmenge\",\"en-US\":\"Received Quantity\",\"nl-NL\":\"Ontvangen aantal\"}"
    },
    {
      "name": "TabularEditor_TranslatedDescriptions",
      "value": "{\"de-DE\":\"Startseite/Artikel/Aktionen/Posten/Posten\",\"en-US\":\"Departments/Item Management/General Data/Items > Entries > Ledger Entry > Received Quantity\",\"nl-NL\":\"Afdelingen/Artikelbeheer/Stamgegevens/Artikelen > Posten > Posten\"}"
    }
  ]
}