{
  "name": "ReceivedQuantity_RY_PILE",
  "description": "Departments/Item Management/General Data/Items > Entries > Ledger Entry > Received Quantity",
  "expression": [
    "VAR RY0 =",
    "    FILTER (",
    "        ALL ( 'Date' ),",
    "        'Date'[DateID] <= MAX ( 'Date'[DateID] )",
    "            && 'Date'[Date] > MAX ( 'Date'[TDatePY] )",
    "    )",
    "RETURN",
    "    CALCULATE ( [ReceivedQuantity_PILE], RY0 )"
  ],
  "formatString": "#,##0",
  "displayFolder": "Σ RY",
  "annotations": [
    {
      "name": "TabularEditor_TranslatedNames",
      "value": "{\"de-DE\":\"Wareneingangsmenge RY\",\"en-US\":\"Received Quantity RY\",\"nl-NL\":\"Ontvangen aantal RY\"}"
    },
    {
      "name": "TabularEditor_TranslatedDescriptions",
      "value": "{\"de-DE\":\"Startseite/Artikel/Aktionen/Posten/Posten\",\"en-US\":\"Departments/Item Management/General Data/Items > Entries > Ledger Entry > Received Quantity\",\"nl-NL\":\"Afdelingen/Artikelbeheer/Stamgegevens/Artikelen > Posten > Posten\"}"
    },
    {
      "name": "TabularEditor_TranslatedDisplayFolders",
      "value": "{\"de-DE\":\"Σ RY\",\"en-US\":\"Σ RY\",\"nl-NL\":\"Σ RY\"}"
    }
  ]
}