{
  "name": "ReceivedQuantity_LYMTD_PILE",
  "description": "Departments/Item Management/General Data/Items > Entries > Ledger Entry > Received Quantity",
  "expression": [
    "VAR LYMTD =",
    "    FILTER (",
    "        ALL ( 'Date' ),",
    "        'Date'[Date] <= MAX ( 'Date'[TDatePY] )",
    "            && 'Date'[CMonthNo] = MAX ( 'Date'[CMonthNo] )",
    "            && 'Date'[CYearNo]",
    "                = MAX ( 'Date'[CYearNo] ) - 1",
    "    )",
    "RETURN",
    "    CALCULATE ( [ReceivedQuantity_PILE], LYMTD )"
  ],
  "formatString": "#,##0",
  "displayFolder": "Σ LYMTD",
  "annotations": [
    {
      "name": "TabularEditor_TranslatedNames",
      "value": "{\"de-DE\":\"Wareneingangsmenge LYMTD\",\"en-US\":\"Received Quantity LYMTD\",\"nl-NL\":\"Ontvangen aantal LYMTD\"}"
    },
    {
      "name": "TabularEditor_TranslatedDescriptions",
      "value": "{\"de-DE\":\"Startseite/Artikel/Aktionen/Posten/Posten\",\"en-US\":\"Departments/Item Management/General Data/Items > Entries > Ledger Entry > Received Quantity\",\"nl-NL\":\"Afdelingen/Artikelbeheer/Stamgegevens/Artikelen > Posten > Posten\"}"
    },
    {
      "name": "TabularEditor_TranslatedDisplayFolders",
      "value": "{\"de-DE\":\"Σ LYMTD\",\"en-US\":\"Σ LYMTD\",\"nl-NL\":\"Σ LYMTD\"}"
    }
  ]
}