{
  "name": "SemanticModel",
  "compatibilityLevel": 1200,
  "model": {
    "culture": "en-US",
    "annotations": [
      {
        "name": "ClientCompatibilityLevel",
        "value": "400"
      },
      {
        "name": "TabularEditor_SerializeOptions",
        "value": "{\"IgnoreInferredObjects\":true,\"IgnoreInferredProperties\":true,\"IgnoreTimestamps\":true,\"SplitMultilineStrings\":true,\"PrefixFilenames\":false,\"LocalTranslations\":true,\"LocalPerspectives\":false,\"LocalRelationships\":true,\"Levels\":[\"Data Sources\",\"Perspectives\",\"Roles\",\"Tables\",\"Tables/Hierarchies\",\"Tables/Measures\"]}"
      },
      {
        "name": "TabularEditor_Cultures",
        "value": "[\"de-DE\",\"en-US\",\"nl-NL\"]"
      }
    ]
  }
}