{
  "name": "TransportMethod",
  "columns": [
    {
      "name": "TransportMethodID",
      "dataType": "int64",
      "description": "Unique identifier of the Transport Method",
      "isHidden": true,
      "sourceColumn": "TransportMethodID",
      "sourceProviderType": "int",
      "annotations": [
        {
          "name": "TabularEditor_TranslatedNames",
          "value": "{\"de-DE\":\"TransportmethodID\",\"en-US\":\"TransportMethodID\",\"nl-NL\":\"Transportmethodid\"}"
        },
        {
          "name": "TabularEditor_TranslatedDescriptions",
          "value": "{\"de-DE\":\"Kennung für Transportmethod\",\"en-US\":\"Unique identifier of the Transport Method\",\"nl-NL\":\"Unieke sleutel van de transportmethode\"}"
        }
      ]
    },
    {
      "name": "TransportMethodCode",
      "dataType": "string",
      "description": "Transport Methode Code",
      "isHidden": true,
      "sourceColumn": "TransportMethodCode",
      "sourceProviderType": "nvarchar",
      "annotations": [
        {
          "name": "TabularEditor_TranslatedNames",
          "value": "{\"de-DE\":\"Verkehrszweige Code\",\"en-US\":\"Transport Method Code\",\"nl-NL\":\"Transportmethode code\"}"
        },
        {
          "name": "TabularEditor_TranslatedDescriptions",
          "value": "{\"de-DE\":\"Abteilungen/Verwaltung/Anwendung Einrichtung/Finanzmanagement/Intrastat/Verkehrszweige\",\"en-US\":\"Transport Methode Code\",\"nl-NL\":\"Code van transportmethode\"}"
        }
      ]
    },
    {
      "name": "TransportMethodDescription",
      "dataType": "string",
      "description": "Transport Method Description",
      "isHidden": true,
      "sourceColumn": "TransportMethodDescription",
      "sourceProviderType": "nvarchar",
      "annotations": [
        {
          "name": "TabularEditor_TranslatedNames",
          "value": "{\"de-DE\":\"Verkehrszweige Beschreibung\",\"en-US\":\"TransportMethodID\",\"nl-NL\":\"Transportmethodid\"}"
        },
        {
          "name": "TabularEditor_TranslatedDescriptions",
          "value": "{\"de-DE\":\"Abteilungen/Verwaltung/Anwendung Einrichtung/Finanzmanagement/Intrastat/Verkehrszweige\",\"en-US\":\"Transport Method Description\",\"nl-NL\":\"Omschrijving van transportmethode\"}"
        }
      ]
    },
    {
      "name": "TransportMethodCodeDescription",
      "dataType": "string",
      "description": "Transport Methode Code and Description",
      "sourceColumn": "TransportMethodCodeDescription",
      "sourceProviderType": "nvarchar",
      "annotations": [
        {
          "name": "TabularEditor_TranslatedNames",
          "value": "{\"de-DE\":\"Verkehrszweige Code Beschreibung\",\"en-US\":\"Transport Method\",\"nl-NL\":\"Transportmethode\"}"
        },
        {
          "name": "TabularEditor_TranslatedDescriptions",
          "value": "{\"de-DE\":\"Abteilungen/Verwaltung/Anwendung Einrichtung/Finanzmanagement/Intrastat/Verkehrszweige\",\"en-US\":\"Transport Methode Code and Description\",\"nl-NL\":\"Code en omschrijving van transportmethode\"}"
        }
      ]
    }
  ],
  "partitions": [
    {
      "name": "TransportMethod",
      "source": {
        "type": "query",
        "query": "SELECT * FROM tabular.TransportMethod",
        "dataSource": "Birds"
      },
      "annotations": [
        {
          "name": "TabularEditor_TableSchema",
          "value": "{\"Name\":\"TransportMethod\",\"Schema\":\"dim\",\"Database\":\"Birds\",\"IncludedColumns\":[\"TransportMethodID\",\"StageID\",\"CompanyID\",\"DataConnectionID\",\"ExecutionTimestamp\",\"ComponentExecutionID\",\"TransportMethodCode\",\"TransportMethodDescription\",\"TransportMethodCodeDescription\"],\"SelectAll\":true}"
        }
      ]
    }
  ],
  "annotations": [
    {
      "name": "TabularEditor_TranslatedNames",
      "value": "{\"de-DE\":\"Verkehrszweige\",\"en-US\":\"Transport Method\",\"nl-NL\":\"Transportmethode\"}"
    },
    {
      "name": "TabularEditor_Relationships",
      "value": "[]"
    }
  ]
}