{
  "name": "IsOverdue",
  "columns": [
    {
      "type": "calculatedTableColumn",
      "name": "YesNoID",
      "dataType": "int64",
      "isNameInferred": true,
      "isDataTypeInferred": true,
      "description": "Unique key for Yes No",
      "isHidden": true,
      "sourceColumn": "YesNo[YesNoID]",
      "annotations": [
        {
          "name": "TabularEditor_TranslatedNames",
          "value": "{\"de-DE\":\"YesNoID\",\"en-US\":\"YesNoID\",\"nl-NL\":\"Yesnoid\"}"
        },
        {
          "name": "TabularEditor_TranslatedDescriptions",
          "value": "{\"de-DE\":\"Kennung für YesNo\",\"en-US\":\"Unique key for Yes No\",\"nl-NL\":\"Unieke sleutel van Ja Nee\"}"
        }
      ]
    },
    {
      "type": "calculatedTableColumn",
      "name": "YesNoCode",
      "dataType": "int64",
      "isNameInferred": true,
      "isDataTypeInferred": true,
      "description": "Yes or No",
      "isHidden": true,
      "sourceColumn": "YesNo[YesNoCode]",
      "annotations": [
        {
          "name": "TabularEditor_TranslatedNames",
          "value": "{\"de-DE\":\"Ja / Nein\",\"en-US\":\"Yes / No\",\"nl-NL\":\"Ja / nee\"}"
        },
        {
          "name": "TabularEditor_TranslatedDescriptions",
          "value": "{\"de-DE\":\"Ja / Nein\",\"en-US\":\"Yes or No\",\"nl-NL\":\"Ja of Nee\"}"
        }
      ]
    },
    {
      "type": "calculatedTableColumn",
      "name": "YesNoDesc",
      "dataType": "string",
      "isNameInferred": true,
      "isDataTypeInferred": true,
      "description": "Yes or No",
      "sourceColumn": "YesNo[YesNoDesc]",
      "annotations": [
        {
          "name": "TabularEditor_TranslatedNames",
          "value": "{\"de-DE\":\"Ja / Nein\",\"en-US\":\"Yes / No\",\"nl-NL\":\"Ja / nee\"}"
        },
        {
          "name": "TabularEditor_TranslatedDescriptions",
          "value": "{\"de-DE\":\"Ja / Nein\",\"en-US\":\"Yes or No\",\"nl-NL\":\"Ja of Nee\"}"
        }
      ]
    },
    {
      "type": "calculatedTableColumn",
      "name": "YesNoBit",
      "dataType": "boolean",
      "isNameInferred": true,
      "isDataTypeInferred": true,
      "description": "Yes or No",
      "isHidden": true,
      "sourceColumn": "YesNo[YesNoBit]",
      "formatString": "\"TRUE\";\"TRUE\";\"FALSE\"",
      "annotations": [
        {
          "name": "TabularEditor_TranslatedNames",
          "value": "{\"de-DE\":\"Ja / Nein\",\"en-US\":\"Yes / No\",\"nl-NL\":\"Ja / nee\"}"
        },
        {
          "name": "TabularEditor_TranslatedDescriptions",
          "value": "{\"de-DE\":\"Ja / Nein\",\"en-US\":\"Yes or No\",\"nl-NL\":\"Ja of Nee\"}"
        }
      ]
    },
    {
      "type": "calculatedTableColumn",
      "name": "YesNoSortBy",
      "dataType": "int64",
      "isNameInferred": true,
      "isDataTypeInferred": true,
      "description": "Column to sort Yes and No in logic order",
      "isHidden": true,
      "sourceColumn": "YesNo[YesNoSortBy]",
      "annotations": [
        {
          "name": "TabularEditor_TranslatedNames",
          "value": "{\"de-DE\":\"Ja / Nein Sortiere nach\",\"en-US\":\"YesNoSortBy\",\"nl-NL\":\"Janeesorteercode\"}"
        },
        {
          "name": "TabularEditor_TranslatedDescriptions",
          "value": "{\"de-DE\":\"Ja / Nein Sortiere nach\",\"en-US\":\"Column to sort Yes and No in logic order\",\"nl-NL\":\"Kolom om Ja Nee logisch te sorteren\"}"
        }
      ]
    }
  ],
  "partitions": [
    {
      "name": "Calculated Table",
      "source": {
        "type": "calculated",
        "expression": "ALL ( 'YesNo' )"
      }
    }
  ],
  "annotations": [
    {
      "name": "TabularEditor_TranslatedNames",
      "value": "{\"de-DE\":\"Is Fällig Ja / Nein\",\"en-US\":\"Is Overdue Yes / No\",\"nl-NL\":\"Is Vervallen Ja / Nee\"}"
    },
    {
      "name": "TabularEditor_Relationships",
      "value": "[]"
    }
  ]
}