{
  "name": "Color",
  "columns": [
    {
      "name": "ColorID",
      "dataType": "int64",
      "description": "System column for technical purposes",
      "isHidden": true,
      "sourceColumn": "ColorID",
      "sourceProviderType": "Int32",
      "annotations": [
        {
          "name": "TabularEditor_TranslatedNames",
          "value": "{\"en-US\":\"ColorID\",\"nl-NL\":\"ColorID\"}"
        },
        {
          "name": "TabularEditor_TranslatedDescriptions",
          "value": "{\"en-US\":\"System column for technical purposes\",\"nl-NL\":\"Systeemkolom voor technische doeleinden\"}"
        }
      ]
    },
    {
      "name": "ColorCode",
      "dataType": "string",
      "description": "The Color Code",
      "isHidden": true,
      "sourceColumn": "ColorCode",
      "sourceProviderType": "String",
      "annotations": [
        {
          "name": "TabularEditor_TranslatedNames",
          "value": "{\"en-US\":\"Color Code\",\"nl-NL\":\"Kleurcode\"}"
        },
        {
          "name": "TabularEditor_TranslatedDescriptions",
          "value": "{\"en-US\":\"The Color Code\",\"nl-NL\":\"Kleurcode\"}"
        }
      ]
    },
    {
      "name": "ColorDescription",
      "dataType": "string",
      "description": "The Color Description",
      "isHidden": true,
      "sourceColumn": "ColorDescription",
      "sourceProviderType": "String",
      "annotations": [
        {
          "name": "TabularEditor_TranslatedNames",
          "value": "{\"en-US\":\"Color Description\",\"nl-NL\":\"Kleur\"}"
        },
        {
          "name": "TabularEditor_TranslatedDescriptions",
          "value": "{\"en-US\":\"The Color Description\",\"nl-NL\":\"Kleur\"}"
        }
      ]
    },
    {
      "name": "ColorCodeDescription",
      "dataType": "string",
      "description": "The Color Code Description",
      "sourceColumn": "ColorCodeDescription",
      "sourceProviderType": "String",
      "annotations": [
        {
          "name": "TabularEditor_TranslatedNames",
          "value": "{\"en-US\":\"Color Code Description\",\"nl-NL\":\"Kleurcode omschrijving\"}"
        },
        {
          "name": "TabularEditor_TranslatedDescriptions",
          "value": "{\"en-US\":\"The Color Code Description\",\"nl-NL\":\"Kleurcode omschrijving\"}"
        }
      ]
    },
    {
      "name": "ColorSortingCode",
      "dataType": "string",
      "description": "The Color Sorting Code",
      "isHidden": true,
      "sourceColumn": "ColorSortingCode",
      "sourceProviderType": "String",
      "annotations": [
        {
          "name": "TabularEditor_TranslatedNames",
          "value": "{\"en-US\":\"Color Sorting Code\",\"nl-NL\":\"Kleur sorteringscode\"}"
        },
        {
          "name": "TabularEditor_TranslatedDescriptions",
          "value": "{\"en-US\":\"The Color Sorting Code\",\"nl-NL\":\"Kleur sorteringscode\"}"
        }
      ]
    }
  ],
  "partitions": [
    {
      "name": "Color",
      "source": {
        "type": "query",
        "query": "SELECT * FROM tabular.Color",
        "dataSource": "Birds"
      },
      "annotations": [
        {
          "name": "TabularEditor_TableSchema",
          "value": "{\"Name\":\"Color\",\"Schema\":\"dim\",\"Database\":\"BirdsISF\",\"IncludedColumns\":[\"ColorID\",\"StageID\",\"CompanyID\",\"DataConnectionID\",\"ExecutionTimestamp\",\"ComponentExecutionID\",\"ColorCode\",\"ColorDescription\",\"ColorCodeDescription\",\"ColorSortingCode\"],\"SelectAll\":true}"
        }
      ]
    }
  ],
  "annotations": [
    {
      "name": "TabularEditor_TranslatedNames",
      "value": "{\"en-US\":\"Color\",\"nl-NL\":\"Kleur\"}"
    },
    {
      "name": "TabularEditor_Relationships",
      "value": "[]"
    }
  ]
}