{
  "name": "ShippedAmount_Variance_PRS",
  "description": "Purchase > Order Processing > Purchase Orders > Amount received (for orders with order type Return Order)",
  "expression": "[ShippedAmount_YTD_PRS] - [ShippedAmount_LYTD_PRS]",
  "formatString": "#,##0.00",
  "displayFolder": "Σ LYTD Variance",
  "annotations": [
    {
      "name": "TabularEditor_TranslatedNames",
      "value": "{\"de-DE\":\"Reklamation Betrag geliefert Varianz\",\"en-US\":\"Returned Amount Variance\",\"nl-NL\":\"Retour bedrag verschil\"}"
    },
    {
      "name": "TabularEditor_TranslatedDescriptions",
      "value": "{\"de-DE\":\"Abteilungen/Einkauf/Bestellungsabwicklung/Bestellungen\",\"en-US\":\"Purchase > Order Processing > Purchase Orders > Amount received (for orders with order type Return Order)\",\"nl-NL\":\"Inkoop > Orderverwerking > Inkooporders > Ontvangen bedrag \"}"
    },
    {
      "name": "TabularEditor_TranslatedDisplayFolders",
      "value": "{\"de-DE\":\"Σ LYTD Varianz\",\"en-US\":\"Σ LYTD Variance\"}"
    }
  ]
}