{
  "name": "DocumentInventory",
  "columns": [
    {
      "name": "DocumentInventoryID",
      "dataType": "int64",
      "description": "Unique identifier for dimension Document Inventory",
      "isHidden": true,
      "sourceColumn": "DocumentInventoryID",
      "sourceProviderType": "int",
      "annotations": [
        {
          "name": "TabularEditor_TranslatedNames",
          "value": "{\"de-DE\":\"DocumentInventoryID\",\"en-US\":\"DocumentInventoryID\",\"nl-NL\":\"Documentinventoryid\"}"
        },
        {
          "name": "TabularEditor_TranslatedDescriptions",
          "value": "{\"de-DE\":\"Kennung für DocumentInventory\",\"en-US\":\"Unique identifier for dimension Document Inventory\",\"nl-NL\":\"Unieke sleutel voor dimensie Document Voorraad\"}"
        }
      ]
    },
    {
      "name": "DocumentNO",
      "dataType": "string",
      "description": "Departments/Finance/Basic Data/General/Chart of Accounts > Ledger Entries > Value Entry > Document No",
      "sourceColumn": "DocumentNO",
      "sourceProviderType": "nvarchar",
      "annotations": [
        {
          "name": "TabularEditor_TranslatedNames",
          "value": "{\"de-DE\":\"Belegnr.\",\"en-US\":\"Document No\",\"nl-NL\":\"Document nummer\"}"
        },
        {
          "name": "TabularEditor_TranslatedDescriptions",
          "value": "{\"de-DE\":\"Abteilungen/Finanzmanagement/Periodische Aktivitäten/Finanzbuchhaltung/Belegnr.\",\"en-US\":\"Departments/Finance/Basic Data/General/Chart of Accounts > Ledger Entries > Value Entry > Document No\",\"nl-NL\":\"Departments/Finance/Basic Data/General/Chart of Accounts > Ledger Entries > Value Entry > Document No\"}"
        }
      ]
    },
    {
      "name": "DocumentTypeCode",
      "dataType": "int64",
      "description": "Departments/Finance/Basic Data/General/Chart of Accounts > Ledger Entries > Value Entry > Document Type",
      "isHidden": true,
      "sourceColumn": "DocumentTypeCode",
      "annotations": [
        {
          "name": "TabularEditor_TranslatedNames",
          "value": "{\"de-DE\":\"Belegart\",\"en-US\":\"Document Type Code\",\"nl-NL\":\"Documentsoortcode\"}"
        },
        {
          "name": "TabularEditor_TranslatedDescriptions",
          "value": "{\"de-DE\":\"Abteilungen/Finanzmanagement/Periodische Aktivitäten/Finanzbuchhaltung/Belegart\",\"en-US\":\"Departments/Finance/Basic Data/General/Chart of Accounts > Ledger Entries > Value Entry > Document Type\",\"nl-NL\":\"Departments/Finance/Basic Data/General/Chart of Accounts > Ledger Entries > Value Entry > Document Type\"}"
        }
      ]
    },
    {
      "name": "DocumentTypeDescription",
      "dataType": "string",
      "description": "Departments/Finance/Basic Data/General/Chart of Accounts > Ledger Entries > Value Entry > Document Type",
      "sourceColumn": "DocumentTypeDescription",
      "annotations": [
        {
          "name": "TabularEditor_TranslatedNames",
          "value": "{\"de-DE\":\"Belegart\",\"en-US\":\"Document Type\",\"nl-NL\":\"Documentsoort\"}"
        },
        {
          "name": "TabularEditor_TranslatedDescriptions",
          "value": "{\"de-DE\":\"Abteilungen/Finanzmanagement/Periodische Aktivitäten/Finanzbuchhaltung/Belegart\",\"en-US\":\"Departments/Finance/Basic Data/General/Chart of Accounts > Ledger Entries > Value Entry > Document Type\",\"nl-NL\":\"Departments/Finance/Basic Data/General/Chart of Accounts > Ledger Entries > Value Entry > Document Type\"}"
        }
      ]
    },
    {
      "name": "DocumentInventoryKeyType",
      "dataType": "int64",
      "isHidden": true,
      "sourceColumn": "DocumentInventoryKeyType"
    },
    {
      "name": "DocumentInventoryKeyTypeDesc",
      "dataType": "string",
      "isHidden": true,
      "sourceColumn": "DocumentInventoryKeyTypeDesc"
    }
  ],
  "partitions": [
    {
      "name": "DocumentInventory",
      "source": {
        "type": "query",
        "query": "SELECT * FROM tabular.DocumentInventory",
        "dataSource": "Birds"
      },
      "annotations": [
        {
          "name": "TabularEditor_TableSchema",
          "value": "{\"Name\":\"DocumentInventory\",\"Schema\":\"dim\",\"Database\":\"birds_nav_standard_2017\",\"IncludedColumns\":[\"DocumentInventoryID\",\"StageID\",\"CompanyID\",\"DataConnectionID\",\"EntryCode\",\"DocumentNO\",\"EntryType\",\"PostingDate\",\"PostedYear\",\"PostedYearDescription\",\"PostedMonth\",\"PostedMonthDescription\",\"PostedYearMonth\",\"PostedYearMonthDescription\"],\"SelectAll\":true}"
        }
      ]
    }
  ],
  "annotations": [
    {
      "name": "TabularEditor_TranslatedNames",
      "value": "{\"de-DE\":\"Beleg Lager\",\"en-US\":\"Document Inventory\",\"nl-NL\":\"Voorraad Document\"}"
    },
    {
      "name": "TabularEditor_Relationships",
      "value": "[]"
    }
  ]
}