{
  "name": "Amount_GLB",
  "description": "Budget Amount in reporting currency",
  "expression": "SUM ( 'factGeneralLedgerBudget'[Amount_RCY] )",
  "formatString": "#,##0.00",
  "annotations": [
    {
      "name": "TabularEditor_TranslatedNames",
      "value": "{\"de-DE\":\"Betrag rcy\",\"en-US\":\"Amount \",\"nl-NL\":\"Budget bedrag rcy\"}"
    },
    {
      "name": "TabularEditor_TranslatedDescriptions",
      "value": "{\"de-DE\":\"Abteilungen/Finanzmanagement/Finanzbuchhaltung/Fibu-Budgets\",\"en-US\":\"Budget Amount in reporting currency\",\"nl-NL\":\"Afdelingen/Financieel/Stamgegevens/Algemeen/Budgetten > Bedrag \"}"
    }
  ]
}