{
  "name": "AmountStartBalance_LYTD_GLB",
  "description": "Finance > Basic Data > General > Budgets > Budget Matrix > Start Balance",
  "expression": [
    "VAR LYTD =",
    "    FILTER (",
    "        ALL ( 'Date' ),",
    "        'Date'[CYearNo]",
    "            = MAX ( 'Date'[CYearNo] ) - 1",
    "            && 'Date'[Date] <= MAX ( 'Date'[TDatePY] )",
    "    )",
    "RETURN",
    "    CALCULATE ( [AmountStartBalance_GLB], LYTD )"
  ],
  "formatString": "#,##0.00",
  "displayFolder": "Σ LYTD",
  "annotations": [
    {
      "name": "TabularEditor_TranslatedNames",
      "value": "{\"de-DE\":\"Budget Betrag Anfangbalance LYTD\",\"en-US\":\"Amount Start Balance LYTD\",\"nl-NL\":\"Budget bedrag beginbalans LYTD\"}"
    },
    {
      "name": "TabularEditor_TranslatedDescriptions",
      "value": "{\"de-DE\":\"Abteilungen/Finanzmanagement/Finanzbuchhaltung/Fibu-Budgets\",\"en-US\":\"Finance > Basic Data > General > Budgets > Budget Matrix > Start Balance\",\"nl-NL\":\"Afdelingen/Financieel/Stamgegevens/Algemeen/Budgetten > Begin balans\"}"
    },
    {
      "name": "TabularEditor_TranslatedDisplayFolders",
      "value": "{\"de-DE\":\"Σ LYTD\",\"en-US\":\"Σ LYTD\",\"nl-NL\":\"Σ LYTD\"}"
    }
  ]
}