{
  "name": "IssueAmount_IVE",
  "description": "Departments/Item Management/General Data/Items > Entries > Value Entries  > Purchase Amount",
  "expression": "SUM ( 'factInventoryValueEntry'[IssueAmountRCY] )",
  "formatString": "#,##0.00",
  "annotations": [
    {
      "name": "TabularEditor_TranslatedNames",
      "value": "{\"de-DE\":\"Ausgabebetrag\",\"en-US\":\"Issue Amount\",\"nl-NL\":\"Verzonden bedrag\"}"
    },
    {
      "name": "TabularEditor_TranslatedDescriptions",
      "value": "{\"de-DE\":\"Abteilungen/Lager/Historie/Historie/Artikelposten/Zeilen\",\"en-US\":\"Departments/Item Management/General Data/Items > Entries > Value Entries  > Purchase Amount\",\"nl-NL\":\"Afdelingen/Artikelbeheer/Stamgegevens/Artikelen > Posten > Waardeposten >  Voorraad Waarde Geboekt\"}"
    }
  ]
}