{
  "name": "CreditAmount_SPLY_Variance%_FAE",
  "expression": "DIVIDE ( [CreditAmount_FAE] - [CreditAmount_SPLY_FAE], [CreditAmount_SPLY_FAE] )",
  "formatString": "#,##0.0 %",
  "displayFolder": "Σ SPLY Variance",
  "annotations": [
    {
      "name": "TabularEditor_TranslatedNames",
      "value": "{\"de-DE\":\"Habenbetrag SPLY Varianz %\",\"en-US\":\"Credit Amount SPLY Variance %\",\"nl-NL\":\"Bedrag Credit SPLY Variance %\"}"
    },
    {
      "name": "TabularEditor_TranslatedDescriptions",
      "value": "{\"de-DE\":\"Abteilungen/Finanzmanagement/Anlagen/Anlagen\"}"
    },
    {
      "name": "TabularEditor_TranslatedDisplayFolders",
      "value": "{\"de-DE\":\"Σ SPLY Varianz\",\"en-US\":\"Σ SPLY Variance\",\"nl-NL\":\"Σ SPLY Variance\"}"
    }
  ]
}