{
  "name": "Custom1Amount_YTD_Index_FAE",
  "description": "Departments/Finance/Basic Data/Fixed Asset/Fixed Assets > Navigate > Ledger Entries > Custom 1 amount",
  "expression": "DIVIDE ( [Custom1Amount_YTD_FAE], [Custom1Amount_LYTD_FAE] ) * 100",
  "formatString": "#,##0.0",
  "displayFolder": "Σ YTD Variance",
  "annotations": [
    {
      "name": "TabularEditor_TranslatedNames",
      "value": "{\"de-DE\":\"Sonder-AfA YTD Index\",\"en-US\":\"Custom 1 Amount YTD Index\",\"nl-NL\":\"Bedrag Vrij 1 YTD Index\"}"
    },
    {
      "name": "TabularEditor_TranslatedDescriptions",
      "value": "{\"de-DE\":\"Abteilungen/Finanzmanagement/Anlagen/Anlagen\",\"en-US\":\"Departments/Finance/Basic Data/Fixed Asset/Fixed Assets > Navigate > Ledger Entries > Custom 1 amount\",\"nl-NL\":\"Afdelingen/Financieel/Stamgegevens/Vaste Activa/Vaste activa > Navigeren > Posten > Vrij 1 bedrag\"}"
    },
    {
      "name": "TabularEditor_TranslatedDisplayFolders",
      "value": "{\"de-DE\":\"Σ YTD Varianz\",\"en-US\":\"Σ YTD Variance\",\"nl-NL\":\"Σ YTD Variance\"}"
    }
  ]
}