{
  "name": "Custom1Amount_YTD_Variance_FAE",
  "description": "Departments/Finance/Basic Data/Fixed Asset/Fixed Assets > Navigate > Ledger Entries > Custom 1 amount",
  "expression": "[Custom1Amount_YTD_FAE] - [Custom1Amount_LYTD_FAE]",
  "formatString": "#,##0.00",
  "displayFolder": "Σ YTD Variance",
  "annotations": [
    {
      "name": "TabularEditor_TranslatedNames",
      "value": "{\"de-DE\":\"Sonder-AfA YTD Varianz\",\"en-US\":\"Custom 1 Amount YTD Variance\",\"nl-NL\":\"Bedrag Vrij 1 YTD Variance\"}"
    },
    {
      "name": "TabularEditor_TranslatedDescriptions",
      "value": "{\"de-DE\":\"Abteilungen/Finanzmanagement/Anlagen/Anlagen\",\"en-US\":\"Departments/Finance/Basic Data/Fixed Asset/Fixed Assets > Navigate > Ledger Entries > Custom 1 amount\",\"nl-NL\":\"Afdelingen/Financieel/Stamgegevens/Vaste Activa/Vaste activa > Navigeren > Posten > Vrij 1 bedrag\"}"
    },
    {
      "name": "TabularEditor_TranslatedDisplayFolders",
      "value": "{\"de-DE\":\"Σ YTD Varianz\",\"en-US\":\"Σ YTD Variance\",\"nl-NL\":\"Σ YTD Variance\"}"
    }
  ]
}