{
  "name": "GeneralLedgerAccounts",
  "levels": [
    {
      "name": "GeneralLedgerAccountCodeName",
      "ordinal": 5,
      "column": "GeneralLedgerAccountCodeName",
      "annotations": [
        {
          "name": "TabularEditor_TranslatedNames",
          "value": "{\"en-US\":\"General Ledger Account\",\"nl-NL\":\"Grootboekrekening\"}"
        }
      ]
    },
    {
      "name": "LevelCodeName4",
      "ordinal": 4,
      "column": "LevelCodeName4",
      "annotations": [
        {
          "name": "TabularEditor_TranslatedNames",
          "value": "{\"en-US\":\"Level 4\",\"nl-NL\":\"Niveau 4\"}"
        }
      ]
    },
    {
      "name": "LevelCodeName3",
      "ordinal": 3,
      "column": "LevelCodeName3",
      "annotations": [
        {
          "name": "TabularEditor_TranslatedNames",
          "value": "{\"en-US\":\"Level 3\",\"nl-NL\":\"Niveau 3\"}"
        }
      ]
    },
    {
      "name": "LevelCodeName2",
      "ordinal": 2,
      "column": "LevelCodeName2",
      "annotations": [
        {
          "name": "TabularEditor_TranslatedNames",
          "value": "{\"en-US\":\"Level 2\",\"nl-NL\":\"Niveau 2\"}"
        }
      ]
    },
    {
      "name": "LevelCodeName1",
      "ordinal": 1,
      "column": "LevelCodeName1",
      "annotations": [
        {
          "name": "TabularEditor_TranslatedNames",
          "value": "{\"en-US\":\"Level 1\",\"nl-NL\":\"Niveau 1\"}"
        }
      ]
    },
    {
      "name": "LevelCodeName0",
      "ordinal": 0,
      "column": "LevelCodeName0",
      "annotations": [
        {
          "name": "TabularEditor_TranslatedNames",
          "value": "{\"en-US\":\"Level 0\",\"nl-NL\":\"Niveau 0\"}"
        }
      ]
    }
  ],
  "annotations": [
    {
      "name": "TabularEditor_TranslatedNames",
      "value": "{\"en-US\":\"General Ledger Accounts\",\"nl-NL\":\"Grootboekrekeningen\"}"
    }
  ]
}