{
  "name": "Currency",
  "columns": [
    {
      "name": "CurrencyID",
      "dataType": "int64",
      "description": "Unique identifier for currency",
      "isHidden": true,
      "sourceColumn": "CurrencyID",
      "sourceProviderType": "Integer",
      "annotations": [
        {
          "name": "TabularEditor_TranslatedNames",
          "value": "{\"de-DE\":\"CurrencyID\",\"en-US\":\"CurrencyID\",\"nl-NL\":\"Currencyid\"}"
        },
        {
          "name": "TabularEditor_TranslatedDescriptions",
          "value": "{\"de-DE\":\"Kennung für Currency\",\"en-US\":\"Unique identifier for currency\",\"nl-NL\":\"Unieke sleutel voor valuta\"}"
        }
      ]
    },
    {
      "name": "CurrencyCode",
      "dataType": "string",
      "description": "Currency code",
      "isHidden": true,
      "sourceColumn": "CurrencyCode",
      "sourceProviderType": "WChar",
      "annotations": [
        {
          "name": "TabularEditor_TranslatedNames",
          "value": "{\"de-DE\":\"Währungs Code\",\"en-US\":\"Currency Code\",\"nl-NL\":\"Valutacode\"}"
        },
        {
          "name": "TabularEditor_TranslatedDescriptions",
          "value": "{\"de-DE\":\"Abteilungen/Finanzmanagement/Periodische Aktivitäten/Währung/Währungen/Code\",\"en-US\":\"Currency code\",\"nl-NL\":\"Valutacode\"}"
        }
      ]
    },
    {
      "name": "CurrencyDescription",
      "dataType": "string",
      "description": "Currency description",
      "isHidden": true,
      "sourceColumn": "CurrencyDescription",
      "sourceProviderType": "WChar",
      "annotations": [
        {
          "name": "TabularEditor_TranslatedNames",
          "value": "{\"de-DE\":\"Währung Beschreibung\",\"en-US\":\"Currency Description\",\"nl-NL\":\"Valutanaam\"}"
        },
        {
          "name": "TabularEditor_TranslatedDescriptions",
          "value": "{\"de-DE\":\"Abteilungen/Finanzmanagement/Periodische Aktivitäten/Währung/Währungen/Beschreibung\",\"en-US\":\"Currency description\",\"nl-NL\":\"Valutanaam\"}"
        }
      ]
    },
    {
      "name": "CurrencyCodeDescription",
      "dataType": "string",
      "description": "Currency code and description",
      "sourceColumn": "CurrencyCodeDescription",
      "sourceProviderType": "WChar",
      "annotations": [
        {
          "name": "TabularEditor_TranslatedNames",
          "value": "{\"de-DE\":\"Währungcode Beschreibung\",\"en-US\":\"Currency \",\"nl-NL\":\"Valuta\"}"
        },
        {
          "name": "TabularEditor_TranslatedDescriptions",
          "value": "{\"de-DE\":\"Abteilungen/Finanzmanagement/Periodische Aktivitäten/Währung/Währungen/Code\",\"en-US\":\"Currency code and description\",\"nl-NL\":\"Valutacode en omschrijving\"}"
        }
      ]
    }
  ],
  "partitions": [
    {
      "name": "Currency",
      "dataView": "full",
      "source": {
        "type": "query",
        "query": "SELECT * FROM tabular.Currency",
        "dataSource": "Birds"
      }
    }
  ],
  "annotations": [
    {
      "name": "_TM_ExtProp_QueryDefinition",
      "value": " SELECT [dim].[Currency].* FROM [dim].[Currency] "
    },
    {
      "name": "_TM_ExtProp_DbTableName",
      "value": "Currency"
    },
    {
      "name": "_TM_ExtProp_DbSchemaName",
      "value": "dim"
    },
    {
      "name": "ContentPacks",
      "value": "Standard"
    },
    {
      "name": "TabularEditor_TranslatedNames",
      "value": "{\"de-DE\":\"Währung\",\"en-US\":\"Currency\",\"nl-NL\":\"Valuta\"}"
    },
    {
      "name": "TabularEditor_Relationships",
      "value": "[]"
    }
  ]
}