{
  "name": "AmountNetChange%_AR",
  "description": "Departments/Sales/General Data/Customers > Ledger Entries > Navigate > Detailed Cust. Ledg. Entry > Net Change Amount",
  "expression": "DIVIDE ( [Amount_AR], [BalanceStart_AR] )",
  "formatString": "#,##0.0 %",
  "displayFolder": "Σ % Percentage",
  "annotations": [
    {
      "name": "TabularEditor_TranslatedNames",
      "value": "{\"de-DE\":\"% Bewegung\",\"en-US\":\"% Net Change Amount\",\"nl-NL\":\"% Netto mutatie\"}"
    },
    {
      "name": "TabularEditor_TranslatedDescriptions",
      "value": "{\"de-DE\":\"Abteilungen > Verkauf & Marketing > Verkauf > Debitoren > Navigate > Posten\",\"en-US\":\"Departments/Sales/General Data/Customers > Ledger Entries > Navigate > Detailed Cust. Ledg. Entry > Net Change Amount\",\"nl-NL\":\"Afdelingen/Verkoop/Stamgegevens/Klanten > Posten > Navigeren > Gedetailleerde klantenpost > % Netto mutatie\"}"
    },
    {
      "name": "TabularEditor_TranslatedDisplayFolders",
      "value": "{\"de-DE\":\"Σ % Percentage\",\"en-US\":\"Σ % Percentage\",\"nl-NL\":\"Σ % Percentage\"}"
    }
  ]
}