{
  "name": "AvgPaymentTerm_AR",
  "description": "Departments/Sales/General Data/Customers > Ledger Entries > Navigate > Detailed Cust. Ledg. Entry > Average Payment Terms",
  "expression": [
    "VAR MaxDate =",
    "    MAX ( 'Date'[Date] )",
    "VAR MinDate =",
    "    MIN ( 'Date'[Date] )",
    "RETURN",
    "    AVERAGEX (",
    "        ADDCOLUMNS (",
    "            FILTER (",
    "                'CustomerInvoice',",
    "                'CustomerInvoice'[CustomerInvoicePaidDate] > MinDate",
    "                    && 'CustomerInvoice'[CustomerInvoicePostingDate] <= MaxDate",
    "                    && 'CustomerInvoice'[CustomerInvoiceID] <> 0",
    "                    && CONTAINS (",
    "                        CALCULATETABLE ( 'factAccountsReceivable', ALL ( 'Date' ) ),",
    "                        'factAccountsReceivable'[CustomerInvoiceID], 'CustomerInvoice'[CustomerInvoiceID]",
    "                    )",
    "            ),",
    "            \"OpenDays\", IF (",
    "                'CustomerInvoice'[CustomerInvoicePostingDate] <= 'CustomerInvoice'[CustomerInvoiceDueDate],",
    "                DATEDIFF (",
    "                    'CustomerInvoice'[CustomerInvoicePostingDate],",
    "                    'CustomerInvoice'[CustomerInvoiceDueDate],",
    "                    DAY",
    "                )",
    "            )",
    "        ),",
    "        [OpenDays]",
    "    )"
  ],
  "formatString": "#,##0",
  "displayFolder": "Σ Days",
  "annotations": [
    {
      "name": "TabularEditor_TranslatedNames",
      "value": "{\"de-DE\":\"Ø Zahlungsbedingung\",\"en-US\":\"Avg Payment Term\",\"nl-NL\":\"Gem betalingstermijn\"}"
    },
    {
      "name": "TabularEditor_TranslatedDescriptions",
      "value": "{\"de-DE\":\"Abteilungen > Verkauf & Marketing > Verkauf > Debitoren > Navigate > Posten\",\"en-US\":\"Departments/Sales/General Data/Customers > Ledger Entries > Navigate > Detailed Cust. Ledg. Entry > Average Payment Terms\",\"nl-NL\":\"Afdelingen/Verkoop/Stamgegevens/Klanten > Posten > Navigeren > Gedetailleerde klantenpost > Gem betalingstermijn\"}"
    },
    {
      "name": "TabularEditor_TranslatedDisplayFolders",
      "value": "{\"de-DE\":\"Σ Tage\",\"en-US\":\"Σ Days\",\"nl-NL\":\"Σ Dagen\"}"
    }
  ]
}