{
  "name": "Width",
  "columns": [
    {
      "name": "WidthID",
      "dataType": "int64",
      "description": "System column for technical purposes",
      "isHidden": true,
      "sourceColumn": "WidthID",
      "sourceProviderType": "Int32",
      "annotations": [
        {
          "name": "TabularEditor_TranslatedNames",
          "value": "{\"en-US\":\"WidthID\",\"nl-NL\":\"WidthID\"}"
        },
        {
          "name": "TabularEditor_TranslatedDescriptions",
          "value": "{\"en-US\":\"System column for technical purposes\",\"nl-NL\":\"Systeemkolom voor technische doeleinden\"}"
        }
      ]
    },
    {
      "name": "WidthCode",
      "dataType": "string",
      "description": "The Width Code",
      "isHidden": true,
      "sourceColumn": "WidthCode",
      "sourceProviderType": "String",
      "annotations": [
        {
          "name": "TabularEditor_TranslatedNames",
          "value": "{\"en-US\":\"Width Code\",\"nl-NL\":\"Breedte code\"}"
        },
        {
          "name": "TabularEditor_TranslatedDescriptions",
          "value": "{\"en-US\":\"The Width Code\",\"nl-NL\":\"Breedte code\"}"
        }
      ]
    },
    {
      "name": "WidthDescription",
      "dataType": "string",
      "description": "The Width Description",
      "isHidden": true,
      "sourceColumn": "WidthDescription",
      "sourceProviderType": "String",
      "annotations": [
        {
          "name": "TabularEditor_TranslatedNames",
          "value": "{\"en-US\":\"Width\",\"nl-NL\":\"Breedte\"}"
        },
        {
          "name": "TabularEditor_TranslatedDescriptions",
          "value": "{\"en-US\":\"The Width Description\",\"nl-NL\":\"Breedte\"}"
        }
      ]
    },
    {
      "name": "WidthCodeDescription",
      "dataType": "string",
      "description": "The Width Code Description",
      "sourceColumn": "WidthCodeDescription",
      "sourceProviderType": "String",
      "annotations": [
        {
          "name": "TabularEditor_TranslatedNames",
          "value": "{\"en-US\":\"Width Code Description\",\"nl-NL\":\"Breedte code omschrijving\"}"
        },
        {
          "name": "TabularEditor_TranslatedDescriptions",
          "value": "{\"en-US\":\"The Width Code Description\",\"nl-NL\":\"Breedte code omschrijving\"}"
        }
      ]
    },
    {
      "name": "WidthSortingCode",
      "dataType": "string",
      "description": "The Width Sortingcode",
      "isHidden": true,
      "sourceColumn": "WidthSortingCode",
      "sourceProviderType": "String",
      "annotations": [
        {
          "name": "TabularEditor_TranslatedNames",
          "value": "{\"en-US\":\"Width Sorting Code\",\"nl-NL\":\"Breedte sorteringscode\"}"
        },
        {
          "name": "TabularEditor_TranslatedDescriptions",
          "value": "{\"en-US\":\"The Width Sortingcode\",\"nl-NL\":\"Breedte sorteringscode\"}"
        }
      ]
    }
  ],
  "partitions": [
    {
      "name": "Width",
      "source": {
        "type": "query",
        "query": "SELECT * FROM tabular.Width",
        "dataSource": "Birds"
      },
      "annotations": [
        {
          "name": "TabularEditor_TableSchema",
          "value": "{\"Name\":\"Width\",\"Schema\":\"dim\",\"Database\":\"BirdsISF\",\"IncludedColumns\":[\"WidthID\",\"StageID\",\"CompanyID\",\"DataConnectionID\",\"ExecutionTimestamp\",\"ComponentExecutionID\",\"WidthCode\",\"WidthDescription\",\"WidthCodeDescription\",\"WidthSortingCode\"],\"SelectAll\":true}"
        }
      ]
    }
  ],
  "annotations": [
    {
      "name": "TabularEditor_TranslatedNames",
      "value": "{\"en-US\":\"Width\",\"nl-NL\":\"Breedte\"}"
    },
    {
      "name": "TabularEditor_Relationships",
      "value": "[]"
    }
  ]
}