{
  "name": "WarehouseEntryQuantityBase_YTD_Variance_WHE",
  "description": " YTD Variance",
  "expression": "[WarehouseEntryQuantityBase_YTD_WHE] - [WarehouseEntryQuantityBase_LYTD_WHE]",
  "formatString": "#,##0.00",
  "displayFolder": "Σ YTD Variance",
  "annotations": [
    {
      "name": "TabularEditor_TranslatedNames",
      "value": "{\"de-DE\":\"Lagerplatzposten Menge (Basis) YTD Varianz\",\"en-US\":\"Quantity (Base) YTD Variance\",\"nl-NL\":\"Aantal (basis) YTD Variance\"}"
    },
    {
      "name": "TabularEditor_TranslatedDescriptions",
      "value": "{\"de-DE\":\"Abteilungen/Lager/Historie/Historie/Lagerplatzposten\",\"en-US\":\"Departments/Inventory and Warehouse/History YTD Variance\",\"nl-NL\":\"Afdelingen/Voorraad en magazijn/Historie YTD Variance\"}"
    },
    {
      "name": "TabularEditor_TranslatedDisplayFolders",
      "value": "{\"de-DE\":\"Σ YTD Varianz\",\"en-US\":\"Σ YTD Variance\",\"nl-NL\":\"Σ YTD Variance\"}"
    }
  ]
}