{
  "name": "WarehouseEntryQuantity_YTD_Index_WHE",
  "description": " YTD Index",
  "expression": "DIVIDE ( [WarehouseEntryQuantity_YTD_WHE], [WarehouseEntryQuantity_LYTD_WHE] ) * 100",
  "formatString": "#,##0.0",
  "displayFolder": "Σ YTD Variance",
  "annotations": [
    {
      "name": "TabularEditor_TranslatedNames",
      "value": "{\"de-DE\":\"Lagerplatzposten Menge YTD Index\",\"en-US\":\"Quantity YTD Index\",\"nl-NL\":\"Aantal YTD Index\"}"
    },
    {
      "name": "TabularEditor_TranslatedDescriptions",
      "value": "{\"de-DE\":\"Abteilungen/Lager/Historie/Historie/Lagerplatzposten\",\"en-US\":\"Departments/Inventory and Warehouse/History YTD Index\",\"nl-NL\":\"Afdelingen/Voorraad en magazijn/Historie YTD Index\"}"
    },
    {
      "name": "TabularEditor_TranslatedDisplayFolders",
      "value": "{\"de-DE\":\"Σ YTD Varianz\",\"en-US\":\"Σ YTD Variance\",\"nl-NL\":\"Σ YTD Variance\"}"
    }
  ]
}