{
  "name": "WarehouseEntryCubage_SPLY_Variance_WHE",
  "description": " SPLY Variance",
  "expression": "[WarehouseEntryCubage_WHE] - [WarehouseEntryCubage_SPLY_WHE]",
  "formatString": "#,##0.00",
  "displayFolder": "Σ SPLY Variance",
  "annotations": [
    {
      "name": "TabularEditor_TranslatedNames",
      "value": "{\"de-DE\":\"Lagerplatzposten Volumen SPLY Varianz\",\"en-US\":\"Cubage SPLY Variance\",\"nl-NL\":\"Kubieke Inhoud SPLY Variance\"}"
    },
    {
      "name": "TabularEditor_TranslatedDescriptions",
      "value": "{\"de-DE\":\"Abteilungen/Lager/Historie/Historie/Lagerplatzposten\",\"en-US\":\"Departments/Inventory and Warehouse/History SPLY Variance\",\"nl-NL\":\"Afdelingen/Voorraad en magazijn/Historie SPLY Variance\"}"
    },
    {
      "name": "TabularEditor_TranslatedDisplayFolders",
      "value": "{\"de-DE\":\"Σ SPLY Varianz\",\"en-US\":\"Σ SPLY Variance\",\"nl-NL\":\"Σ SPLY Variance\"}"
    }
  ]
}