{
  "name": "WarehouseEntryWeight_WHE",
  "expression": "SUM ( 'factWarehouseEntry'[WarehouseEntryWeight] )",
  "formatString": "#,##0.00",
  "annotations": [
    {
      "name": "TabularEditor_TranslatedNames",
      "value": "{\"de-DE\":\"Lagerplatzposten Gewicht\",\"en-US\":\"Weight\",\"nl-NL\":\"Gewicht\"}"
    },
    {
      "name": "TabularEditor_TranslatedDescriptions",
      "value": "{\"de-DE\":\"Abteilungen/Lager/Historie/Historie/Lagerplatzposten\",\"en-US\":\"Departments/Inventory and Warehouse/History\",\"nl-NL\":\"Afdelingen/Voorraad en magazijn/Historie\"}"
    }
  ]
}