{
  "name": "CashflowSourceType",
  "description": "Departments/Finance/Basic Data/Cash Flow/Chart of Cash Flow Accounts > Cash Flow Account Card > Source Type",
  "columns": [
    {
      "name": "CashflowSourceTypeID",
      "dataType": "int64",
      "isHidden": true,
      "sourceColumn": "CashflowSourceTypeID",
      "sourceProviderType": "int",
      "annotations": [
        {
          "name": "TabularEditor_TranslatedNames",
          "value": "{\"de-DE\":\"CashflowSourceTypeID\",\"en-US\":\"ID\",\"nl-NL\":\"ID\"}"
        },
        {
          "name": "TabularEditor_TranslatedDescriptions",
          "value": "{\"de-DE\":\"Kennung für CashflowsourceType\",\"en-US\":\"Unique identifier for CashflowSourceType\",\"nl-NL\":\"Unieke sleutel voor CashflowSourceType\"}"
        }
      ]
    },
    {
      "name": "CashflowSourceTypeCode",
      "dataType": "int64",
      "description": "Departments/Finance/Basic Data/Cash Flow/Chart of Cash Flow Accounts > Cash Flow Account Card > Source Type",
      "isHidden": true,
      "sourceColumn": "CashflowSourceTypeCode",
      "sourceProviderType": "int",
      "annotations": [
        {
          "name": "TabularEditor_TranslatedNames",
          "value": "{\"de-DE\":\"Herkunftsart\",\"en-US\":\"Source Type\",\"nl-NL\":\"Bronsoort\"}"
        },
        {
          "name": "TabularEditor_TranslatedDescriptions",
          "value": "{\"de-DE\":\"Abteilungen/Finanzmanagement/Cashflow/Cashflowplanungen/Posten/Herkunftsart\",\"en-US\":\"Departments/Finance/Basic Data/Cash Flow/Chart of Cash Flow Accounts > Cash Flow Account Card > Source Type\",\"nl-NL\":\"Afdelingen/Financieel/Stamgegevens/Cashflow/Cashflowrekeningschema > Bronsoort\"}"
        }
      ]
    },
    {
      "name": "CashflowSourceTypeDesc",
      "dataType": "string",
      "description": "Departments/Finance/Basic Data/Cash Flow/Chart of Cash Flow Accounts > Cash Flow Account Card > Source Type",
      "sourceColumn": "CashflowSourceTypeDesc",
      "sourceProviderType": "nvarchar",
      "annotations": [
        {
          "name": "TabularEditor_TranslatedNames",
          "value": "{\"de-DE\":\"Herkunftsart\",\"en-US\":\"Source Type\",\"nl-NL\":\"Bronsoort\"}"
        },
        {
          "name": "TabularEditor_TranslatedDescriptions",
          "value": "{\"de-DE\":\"Abteilungen/Finanzmanagement/Cashflow/Cashflowplanungen/Posten/Herkunftsart\",\"en-US\":\"Departments/Finance/Basic Data/Cash Flow/Chart of Cash Flow Accounts > Cash Flow Account Card > Source Type\",\"nl-NL\":\"Afdelingen/Financieel/Stamgegevens/Cashflow/Cashflowrekeningschema > Bronsoort\"}"
        }
      ]
    }
  ],
  "partitions": [
    {
      "name": "CashflowSourceType",
      "source": {
        "type": "query",
        "query": [
          "SELECT",
          "\t*",
          "FROM",
          "\t[tabular].[CashflowSourceType]"
        ],
        "dataSource": "Birds"
      },
      "annotations": [
        {
          "name": "TabularEditor_TableSchema",
          "value": "{\"Name\":\"CashflowSourceType\",\"Schema\":\"tabular\",\"Database\":\"BirdsCashflow\",\"IncludedColumns\":[\"CashflowSourceTypeID\",\"CashflowSourceTypeCode\",\"CashflowSourceTypeDesc\"],\"SelectAll\":true}"
        }
      ]
    }
  ],
  "annotations": [
    {
      "name": "TabularEditor_TranslatedNames",
      "value": "{\"de-DE\":\"Cashflow Herkunftsart\",\"en-US\":\"Cashflow Source Type\",\"nl-NL\":\"Cashflow Bronsoort\"}"
    },
    {
      "name": "TabularEditor_TranslatedDescriptions",
      "value": "{\"en-US\":\"Departments/Finance/Basic Data/Cash Flow/Chart of Cash Flow Accounts > Cash Flow Account Card > Source Type\",\"nl-NL\":\"Afdelingen/Financieel/Stamgegevens/Cashflow/Cashflowrekeningschema > Bronsoort\"}"
    },
    {
      "name": "TabularEditor_Relationships",
      "value": "[]"
    }
  ]
}