{
  "name": "RemainingQuantity_RY_SILE",
  "description": "Remaining Quantity from Item Ledger Entry",
  "expression": [
    "VAR RY0 =",
    "    FILTER (",
    "        ALL ( 'Date' ),",
    "        'Date'[DateID] <= MAX ( 'Date'[DateID] )",
    "            && 'Date'[Date] > MAX ( 'Date'[TDatePY] )",
    "    )",
    "RETURN",
    "    CALCULATE ( [RemainingQuantity_SILE], RY0 )"
  ],
  "formatString": "#,##0",
  "displayFolder": "Σ RY",
  "annotations": [
    {
      "name": "TabularEditor_TranslatedNames",
      "value": "{\"de-DE\":\"Restmenge RY\",\"en-US\":\"Remaining Quantity RY\",\"nl-NL\":\"Resterend aantal RY\"}"
    },
    {
      "name": "TabularEditor_TranslatedDescriptions",
      "value": "{\"de-DE\":\"Abteilungen/Verkauf & Marketing/Auftragsabwicklung/Aufträge/Lieferungen\",\"en-US\":\"Remaining Quantity from Item Ledger Entry\",\"nl-NL\":\"Resterend aantal vanuit de Artikelposten\"}"
    },
    {
      "name": "TabularEditor_TranslatedDisplayFolders",
      "value": "{\"de-DE\":\"Σ RY\",\"en-US\":\"Σ RY\",\"nl-NL\":\"Σ RY\"}"
    }
  ]
}