{
  "name": "ShippedQuantity_SILE",
  "description": "Quantity Shipped. NAV: Sales > Order Processing > Sales Order Shipping > Lines > Quantity Shipped",
  "expression": "SUM ( 'factSalesItemLedgerEntry'[ShippedQuantity] )",
  "formatString": "#,##0",
  "annotations": [
    {
      "name": "TabularEditor_TranslatedNames",
      "value": "{\"de-DE\":\"Menge geliefert\",\"en-US\":\"Quantity Shipped\",\"nl-NL\":\"Verzonden aantal\"}"
    },
    {
      "name": "TabularEditor_TranslatedDescriptions",
      "value": "{\"de-DE\":\"Abteilungen/Verkauf & Marketing/Auftragsabwicklung/Aufträge/Lieferungen\",\"en-US\":\"Quantity Shipped. NAV: Sales > Order Processing > Sales Order Shipping > Lines > Quantity Shipped\",\"nl-NL\":\"Verzonden aantal. NAV: Verkoop > Orderverwerking > Leveringen > Regels > Verzonden Aantal\"}"
    }
  ]
}