{
  "name": "AveragePurchasePrice_PO",
  "description": "Departments/Projects/Control > Project Control > Purchase > Purchase Order > Average Price",
  "expression": "DIVIDE ( [PurchaseOrderAmount_PO], [ReceivedQuantity_PILE] )",
  "formatString": "#,##0.00",
  "annotations": [
    {
      "name": "TabularEditor_TranslatedNames",
      "value": "{\"de-DE\":\"Ø EinkaufPreis\",\"en-US\":\"Average Purchase Price\",\"nl-NL\":\"Gemiddelde inkoopprijs\"}"
    },
    {
      "name": "TabularEditor_TranslatedDescriptions",
      "value": "{\"de-DE\":\"Durchschnittlich EinkaufPreis\",\"en-US\":\"Departments/Projects/Control > Project Control > Purchase > Purchase Order > Average Price\",\"nl-NL\":\"Afdelingen/Projecten/Bewaking > Projectbewaking > Inkoop > Gemiddelde kostprijs\"}"
    }
  ]
}