{
  "name": "PurchaseOrderReceivedNotInvoicedQuantity_SPLY_PO",
  "description": "Departments/Projects/Control > Project Control > Purchase > Quantity for items not received SPLY",
  "expression": [
    "VAR SPLY0 =",
    "    FILTER (",
    "        ALL ( 'Date' ),",
    "        'Date'[Date] <= MAX ( 'Date'[TDatePY] )",
    "            && 'Date'[Date] >= MIN ( 'Date'[TDatePY] )",
    "    )",
    "RETURN",
    "    CALCULATE ( [PurchaseOrderReceivedNotInvoicedQuantity_PO], SPLY0 )"
  ],
  "formatString": "#,##0",
  "displayFolder": "Σ SPLY",
  "annotations": [
    {
      "name": "TabularEditor_TranslatedNames",
      "value": "{\"de-DE\":\"Lief. nicht fakt. Menge SPLY\",\"en-US\":\"Purchase Order Received Not Invoiced Quantity SPLY\",\"nl-NL\":\"Inkooporder ontvangen niet gefactureerd aantallen SPLY\"}"
    },
    {
      "name": "TabularEditor_TranslatedDescriptions",
      "value": "{\"de-DE\":\"Abteilungen/Einkauf/Bestellungsabwicklung/Bestellungen\",\"en-US\":\"Departments/Projects/Control > Project Control > Purchase > Quantity for items not received SPLY\",\"nl-NL\":\"Afdelingen/Projecten/Bewaking > Projectbewaking > Inkoop > Aantallen nog te ontvangen orders SPLY\"}"
    },
    {
      "name": "TabularEditor_TranslatedDisplayFolders",
      "value": "{\"de-DE\":\"Σ SPLY\",\"en-US\":\"Σ SPLY\",\"nl-NL\":\"Σ SPLY\"}"
    }
  ]
}