{
  "name": "PurchaseOrderInvoicedQuantity_SPLY_Variance%_PO",
  "description": "Departments/Projects/Control > Project Control > Purchase > Purchase Order > Invoiced Quantity SPLY Variance %",
  "expression": [
    "DIVIDE (",
    "    [PurchaseOrderInvoicedQuantity_SPLY_Variance_PO],",
    "    [PurchaseOrderInvoicedAmount_SPLY_PO]",
    ")"
  ],
  "formatString": "#,##0.0 %",
  "displayFolder": "Σ SPLY Variance",
  "annotations": [
    {
      "name": "TabularEditor_TranslatedNames",
      "value": "{\"de-DE\":\"Bereits Berech. Menge SPLY Varianz %\",\"en-US\":\"Purchase Order Invoiced Quantity SPLY Variance %\",\"nl-NL\":\"Inkooporder gefactureerd aantallen SPLY Variance %\"}"
    },
    {
      "name": "TabularEditor_TranslatedDescriptions",
      "value": "{\"de-DE\":\"Abteilungen/Einkauf/Bestellungsabwicklung/Bestellungen\",\"en-US\":\"Departments/Projects/Control > Project Control > Purchase > Purchase Order > Invoiced Quantity SPLY Variance %\",\"nl-NL\":\"Afdelingen/Projecten/Bewaking > Projectbewaking > Inkoop > Aantallen gefactureerd SPLY Variance %\"}"
    },
    {
      "name": "TabularEditor_TranslatedDisplayFolders",
      "value": "{\"de-DE\":\"Σ SPLY Varianz\",\"en-US\":\"Σ SPLY Variance\",\"nl-NL\":\"Σ SPLY Variance\"}"
    }
  ]
}