{
  "name": "PurchaseOrderDiscountAmount_YTD_Variance_PO",
  "description": "Departments/Projects/Control > Project Control > Purchase > Purchase Order > Discount YTD Variance",
  "expression": "[PurchaseOrderDiscountAmount_YTD_PO] - [PurchaseOrderDiscountAmount_LYTD_PO]",
  "formatString": "#,##0.00",
  "displayFolder": "Σ LYTD Variance",
  "annotations": [
    {
      "name": "TabularEditor_TranslatedNames",
      "value": "{\"de-DE\":\"Bestellungen Rabattbetrag YTD Varianz\",\"en-US\":\"Purchase Order Discount Amount YTD Variance\",\"nl-NL\":\"Inkooporder korting bedrag YTD Variance\"}"
    },
    {
      "name": "TabularEditor_TranslatedDescriptions",
      "value": "{\"de-DE\":\"Abteilungen/Einkauf/Bestellungsabwicklung/Bestellungen\",\"en-US\":\"Departments/Projects/Control > Project Control > Purchase > Purchase Order > Discount YTD Variance\",\"nl-NL\":\"Afdelingen/Projecten/Bewaking > Projectbewaking > Inkoop > Korting YTD Variance\"}"
    },
    {
      "name": "TabularEditor_TranslatedDisplayFolders",
      "value": "{\"de-DE\":\"Σ YTD Varianz\",\"en-US\":\"Σ YTD Variance\",\"nl-NL\":\"Σ YTD Variance\"}"
    }
  ]
}