{
  "name": "PurchaseOrderQuantity_PO",
  "description": "Departments/Projects/Control > Project Control > Purchase > Purchase Order > Quantity",
  "expression": "SUM ( 'factPurchaseOrder'[PurchaseOrderQuantity] )",
  "formatString": "#,##0",
  "annotations": [
    {
      "name": "TabularEditor_TranslatedNames",
      "value": "{\"de-DE\":\"Bestellungen Menge\",\"en-US\":\"Purchase Order Quantity\",\"nl-NL\":\"Inkooporder aantallen\"}"
    },
    {
      "name": "TabularEditor_TranslatedDescriptions",
      "value": "{\"de-DE\":\"Abteilungen/Einkauf/Bestellungsabwicklung/Bestellungen\",\"en-US\":\"Departments/Projects/Control > Project Control > Purchase > Purchase Order > Quantity\",\"nl-NL\":\"Afdelingen/Projecten/Bewaking > Projectbewaking > Inkoop > Aantal\"}"
    }
  ]
}