{
  "name": "PurchaseOrderGrossAmount_YTD_Variance%_PO",
  "description": "Departments/Projects/Control > Project Control > Purchase > Purchase Order > The Gross Amount YTD Variance %",
  "expression": [
    "DIVIDE (",
    "    [PurchaseOrderGrossAmount_YTD_Variance_PO],",
    "    [PurchaseOrderGrossAmount_LYTD_PO]",
    ")"
  ],
  "formatString": "#,##0.0 %",
  "displayFolder": "Σ LYTD Variance",
  "annotations": [
    {
      "name": "TabularEditor_TranslatedNames",
      "value": "{\"de-DE\":\"Total ohne MwSt.  YTD Varianz %\",\"en-US\":\"Purchase Order Gross Amount YTD Variance %\",\"nl-NL\":\"Inkoop order bruto bedrag YTD Variance %\"}"
    },
    {
      "name": "TabularEditor_TranslatedDescriptions",
      "value": "{\"de-DE\":\"Abteilungen/Einkauf/Bestellungsabwicklung/Bestellungen\",\"en-US\":\"Departments/Projects/Control > Project Control > Purchase > Purchase Order > The Gross Amount YTD Variance %\",\"nl-NL\":\"Afdelingen/Projecten/Bewaking > Projectbewaking > Inkoop > Bruto bedrag YTD Variance %\"}"
    },
    {
      "name": "TabularEditor_TranslatedDisplayFolders",
      "value": "{\"de-DE\":\"Σ YTD Varianz\",\"en-US\":\"Σ YTD Variance\",\"nl-NL\":\"Σ YTD Variance\"}"
    }
  ]
}