{
  "name": "OpenDaysAgeGroupMaxUpperBoundary",
  "description": "Max value for the boundary in age group",
  "expression": "MAX ( OpenDaysAgeGroup[AgeGroupMax] )",
  "isHidden": true,
  "annotations": [
    {
      "name": "TabularEditor_TranslatedNames",
      "value": "{\"de-DE\":\"Offnen tage Altersgruppe Max obere Grenze\",\"en-US\":\"Open Days Age Group Max Upper Boundary\",\"nl-NL\":\"Open dagen per ouderdomsgroep bovengrens\"}"
    },
    {
      "name": "TabularEditor_TranslatedDescriptions",
      "value": "{\"de-DE\":\"Höchster Wert für die obere Grenze\",\"en-US\":\"Max value for the boundary in age group\",\"nl-NL\":\"Technisch veld om maximale waarde in ouderdomsgroep te bepalen\"}"
    }
  ]
}