{
  "name": "YQMD",
  "levels": [
    {
      "name": "CYearDesc",
      "ordinal": 0,
      "column": "CYearDesc",
      "annotations": [
        {
          "name": "TabularEditor_TranslatedNames",
          "value": "{\"de-DE\":\"Jahr\",\"en-US\":\"Year\",\"nl-NL\":\"Jaar\"}"
        }
      ]
    },
    {
      "name": "CQuarterDesc",
      "ordinal": 1,
      "column": "CQuarterDesc",
      "annotations": [
        {
          "name": "TabularEditor_TranslatedNames",
          "value": "{\"de-DE\":\"Quartal\",\"en-US\":\"Quarter\",\"nl-NL\":\"Kwartaal\"}"
        }
      ]
    },
    {
      "name": "CMonthDesc",
      "ordinal": 2,
      "column": "CMonthDesc",
      "annotations": [
        {
          "name": "TabularEditor_TranslatedNames",
          "value": "{\"de-DE\":\"Monat\",\"en-US\":\"Month\",\"nl-NL\":\"Maand\"}"
        }
      ]
    },
    {
      "name": "Date",
      "ordinal": 3,
      "column": "Date",
      "annotations": [
        {
          "name": "TabularEditor_TranslatedNames",
          "value": "{\"de-DE\":\"Datum\",\"en-US\":\"Date\",\"nl-NL\":\"Datum\"}"
        }
      ]
    }
  ],
  "annotations": [
    {
      "name": "TabularEditor_TranslatedNames",
      "value": "{\"en-US\":\"YQMD\",\"nl-NL\":\"JKMD\"}"
    }
  ]
}