{
  "name": "ShippedGrossWeight_SRS",
  "description": "Returned Gross Weight. Quantity Returned * Gross Weight of the Item",
  "expression": "SUM ( 'factSalesReturnShipment'[ShippedGrossWeight] )",
  "formatString": "#,##0.00",
  "annotations": [
    {
      "name": "TabularEditor_TranslatedNames",
      "value": "{\"de-DE\":\"Reklamation Bruttogewicht\",\"en-US\":\"Returned Gross Weight\",\"nl-NL\":\"Retour bruto gewicht\"}"
    },
    {
      "name": "TabularEditor_TranslatedDescriptions",
      "value": "{\"de-DE\":\"Abteilungen/Verkauf & Marketing/Auftragsabwicklung/Verkaufsreklamationen/Zeilen\",\"en-US\":\"Returned Gross Weight. Quantity Returned * Gross Weight of the Item\",\"nl-NL\":\"Retour Bruto Gewicht. Retour Aantal * Bruto Gewicht van het artikel\"}"
    }
  ]
}