{
  "name": "TransferReceiptQuantity_YTD_TR",
  "description": " YTD",
  "expression": [
    "VAR YTD0 =",
    "    FILTER (",
    "        ALL ( 'Date' ),",
    "        'Date'[CYearNo] = MAX ( 'Date'[CYearNo] )",
    "            && 'Date'[DateID] <= MAX ( 'Date'[DateID] )",
    "    )",
    "RETURN",
    "    CALCULATE ( [TransferReceiptQuantity_TR], YTD0 )"
  ],
  "formatString": "#,##0.00",
  "displayFolder": "Σ YTD",
  "annotations": [
    {
      "name": "TabularEditor_TranslatedNames",
      "value": "{\"de-DE\":\"Umbuchungsbeleg Menge YTD\",\"en-US\":\"Quantity YTD\",\"nl-NL\":\"Aantal YTD\"}"
    },
    {
      "name": "TabularEditor_TranslatedDescriptions",
      "value": "{\"de-DE\":\"Abteilungen/Lager/Historie/Gebuchte Belege/Geb. Umlag.-Eingänge/Zeilen\",\"en-US\":\"Departments/Inventory and Warehouse/History/Posted Transfer Receipts/Quantity YTD\",\"nl-NL\":\"Afdelingen/Voorraad en magazijn/Historie/Geboekte transferontvangsten/Aantal YTD\"}"
    },
    {
      "name": "TabularEditor_TranslatedDisplayFolders",
      "value": "{\"de-DE\":\"Σ YTD\",\"en-US\":\"Σ YTD\",\"nl-NL\":\"Σ YTD\"}"
    }
  ]
}