{
  "name": "Season",
  "columns": [
    {
      "name": "SeasonID",
      "dataType": "int64",
      "description": "System column for technical purposes",
      "isHidden": true,
      "sourceColumn": "SeasonID",
      "sourceProviderType": "Int32",
      "annotations": [
        {
          "name": "TabularEditor_TranslatedNames",
          "value": "{\"en-US\":\"SeasonID\",\"nl-NL\":\"SeasonID\"}"
        },
        {
          "name": "TabularEditor_TranslatedDescriptions",
          "value": "{\"en-US\":\"System column for technical purposes\",\"nl-NL\":\"Systeemkolom voor technische doeleinden\"}"
        }
      ]
    },
    {
      "name": "SeasonCode",
      "dataType": "string",
      "description": "SeasonCode",
      "isHidden": true,
      "sourceColumn": "SeasonCode",
      "sourceProviderType": "String",
      "annotations": [
        {
          "name": "TabularEditor_TranslatedNames",
          "value": "{\"en-US\":\"SeasonCode\",\"nl-NL\":\"Seizoenscode\"}"
        },
        {
          "name": "TabularEditor_TranslatedDescriptions",
          "value": "{\"en-US\":\"SeasonCode\",\"nl-NL\":\"Seizoenscode\"}"
        }
      ]
    },
    {
      "name": "SeasonDescription",
      "dataType": "string",
      "description": "Season Description",
      "isHidden": true,
      "sourceColumn": "SeasonDescription",
      "sourceProviderType": "String",
      "annotations": [
        {
          "name": "TabularEditor_TranslatedNames",
          "value": "{\"en-US\":\"Season Description\",\"nl-NL\":\"Seizoensomschrijving\"}"
        },
        {
          "name": "TabularEditor_TranslatedDescriptions",
          "value": "{\"en-US\":\"Season Description\",\"nl-NL\":\"Seizoensomschrijving\"}"
        }
      ]
    },
    {
      "name": "SeasonCodeDescription",
      "dataType": "string",
      "description": "Season Code Description",
      "sourceColumn": "SeasonCodeDescription",
      "sourceProviderType": "String",
      "annotations": [
        {
          "name": "TabularEditor_TranslatedNames",
          "value": "{\"en-US\":\"Season\",\"nl-NL\":\"Seizoen\"}"
        },
        {
          "name": "TabularEditor_TranslatedDescriptions",
          "value": "{\"en-US\":\"Season Code Description\",\"nl-NL\":\"Seizoen\"}"
        }
      ]
    },
    {
      "name": "SeasonSortingCode",
      "dataType": "string",
      "description": "Season Sorting Code",
      "isHidden": true,
      "sourceColumn": "SeasonSortingCode",
      "sourceProviderType": "String",
      "annotations": [
        {
          "name": "TabularEditor_TranslatedNames",
          "value": "{\"en-US\":\"Season Sorting Code\",\"nl-NL\":\"Seizoen sorteringscode\"}"
        },
        {
          "name": "TabularEditor_TranslatedDescriptions",
          "value": "{\"en-US\":\"Season Sorting Code\",\"nl-NL\":\"Seizoen sorteringscode\"}"
        }
      ]
    }
  ],
  "partitions": [
    {
      "name": "Season",
      "source": {
        "type": "query",
        "query": "SELECT * FROM tabular.Season",
        "dataSource": "Birds"
      },
      "annotations": [
        {
          "name": "TabularEditor_TableSchema",
          "value": "{\"Name\":\"Season\",\"Schema\":\"dim\",\"Database\":\"BirdsISF\",\"IncludedColumns\":[\"SeasonID\",\"StageID\",\"CompanyID\",\"DataConnectionID\",\"ExecutionTimestamp\",\"ComponentExecutionID\",\"SeasonCode\",\"SeasonDescription\",\"SeasonCodeDescription\",\"SeasonSortingCode\"],\"SelectAll\":true}"
        }
      ]
    }
  ],
  "annotations": [
    {
      "name": "TabularEditor_TranslatedNames",
      "value": "{\"en-US\":\"Season\",\"nl-NL\":\"Seizoen\"}"
    },
    {
      "name": "TabularEditor_Relationships",
      "value": "[]"
    }
  ]
}