{
  "name": "AmountCredit_LYTD_GL",
  "description": "Departments/Finance/Basic Data/General/Chart of Accounts > Ledger Entries  > Amount Credit",
  "expression": [
    "VAR LYTD =",
    "    FILTER (",
    "        ALL ( 'Date' ),",
    "        'Date'[CYearNo]",
    "            = MAX ( 'Date'[CYearNo] ) - 1",
    "            && 'Date'[Date] <= MAX ( 'Date'[TDatePY] )",
    "    )",
    "RETURN",
    "    CALCULATE ( [AmountCredit_GL], LYTD )"
  ],
  "formatString": "#,##0.00",
  "displayFolder": "Σ LYTD",
  "annotations": [
    {
      "name": "TabularEditor_TranslatedNames",
      "value": "{\"de-DE\":\"Betrag Haben LYTD\",\"en-US\":\"Amount Credit LYTD\",\"nl-NL\":\"Bedrag credit LYTD\"}"
    },
    {
      "name": "TabularEditor_TranslatedDescriptions",
      "value": "{\"de-DE\":\"Abteilungen/Finanzmanagement/Finanzbuchhaltung/Historie/Sachposten/Zeilen\",\"en-US\":\"Departments/Finance/Basic Data/General/Chart of Accounts > Ledger Entries  > Amount Credit\",\"nl-NL\":\"Afdelingen/Financieel/Stamgegevens/Algemeen/Rekeningschema > Posten > Bedrag credits\"}"
    },
    {
      "name": "TabularEditor_TranslatedDisplayFolders",
      "value": "{\"de-DE\":\"Σ LYTD\",\"en-US\":\"Σ LYTD\",\"nl-NL\":\"Σ LYTD\"}"
    }
  ]
}