{
  "name": "AmountDebit_RY_GL",
  "description": "Departments/Finance/Basic Data/General/Chart of Accounts > Ledger Entries  > Amount Debit",
  "expression": [
    "VAR RY0 =",
    "    FILTER (",
    "        ALL ( 'Date' ),",
    "        'Date'[DateID] <= MAX ( 'Date'[DateID] )",
    "            && 'Date'[Date] > MAX ( 'Date'[TDatePY] )",
    "    )",
    "RETURN",
    "    CALCULATE ( [AmountDebit_GL], RY0 )"
  ],
  "formatString": "#,##0.00",
  "displayFolder": "Σ RY",
  "annotations": [
    {
      "name": "TabularEditor_TranslatedNames",
      "value": "{\"de-DE\":\"Betrag Soll RY\",\"en-US\":\"Amount Debit RY\",\"nl-NL\":\"Bedrag debet RY\"}"
    },
    {
      "name": "TabularEditor_TranslatedDescriptions",
      "value": "{\"de-DE\":\"Abteilungen/Finanzmanagement/Finanzbuchhaltung/Historie/Sachposten/Zeilen\",\"en-US\":\"Departments/Finance/Basic Data/General/Chart of Accounts > Ledger Entries  > Amount Debit\",\"nl-NL\":\"Afdelingen/Financieel/Stamgegevens/Algemeen/Rekeningschema > Posten > Het debit bedrag\"}"
    },
    {
      "name": "TabularEditor_TranslatedDisplayFolders",
      "value": "{\"de-DE\":\"Σ RY\",\"en-US\":\"Σ RY\",\"nl-NL\":\"Σ RY\"}"
    }
  ]
}