{
  "name": "factSalesItemLedgerEntry",
  "columns": [
    {
      "name": "CompanyID",
      "dataType": "int64",
      "description": "Unique identifier of the company",
      "isHidden": true,
      "sourceColumn": "CompanyID",
      "sourceProviderType": "int",
      "annotations": [
        {
          "name": "TabularEditor_TranslatedNames",
          "value": "{\"de-DE\":\"CompanyID\",\"en-US\":\"CompanyID\",\"nl-NL\":\"Companyid\"}"
        },
        {
          "name": "TabularEditor_TranslatedDescriptions",
          "value": "{\"de-DE\":\"Kennung für Company\",\"en-US\":\"Unique identifier of the company\",\"nl-NL\":\"Unieke sleutel voor bedrijf\"}"
        }
      ]
    },
    {
      "name": "FinancialDimension1ID",
      "dataType": "int64",
      "description": "Unique key field to dimension key",
      "isHidden": true,
      "sourceColumn": "FinancialDimension1ID",
      "sourceProviderType": "int",
      "annotations": [
        {
          "name": "TabularEditor_TranslatedNames",
          "value": "{\"de-DE\":\"Financialdimension1ID\",\"en-US\":\"FinancialDimension1ID\",\"nl-NL\":\"Financialdimension1id\"}"
        },
        {
          "name": "TabularEditor_TranslatedDescriptions",
          "value": "{\"de-DE\":\"Kennung für Financialdimension1\",\"en-US\":\"Unique key field to dimension key\",\"nl-NL\":\"Unieke sleutel naar de unieke sleutel van de dimensie\"}"
        }
      ]
    },
    {
      "name": "FinancialDimension2ID",
      "dataType": "int64",
      "description": "Unique key field to dimension key",
      "isHidden": true,
      "sourceColumn": "FinancialDimension2ID",
      "sourceProviderType": "int",
      "annotations": [
        {
          "name": "TabularEditor_TranslatedNames",
          "value": "{\"de-DE\":\"Financialdimension2ID\",\"en-US\":\"FinancialDimension2ID\",\"nl-NL\":\"Financialdimension2id\"}"
        },
        {
          "name": "TabularEditor_TranslatedDescriptions",
          "value": "{\"de-DE\":\"Kennung für Financialdimension2\",\"en-US\":\"Unique key field to dimension key\",\"nl-NL\":\"Unieke sleutel naar de unieke sleutel van de dimensie\"}"
        }
      ]
    },
    {
      "name": "FinancialDimension3ID",
      "dataType": "int64",
      "description": "Unique key field to dimension key",
      "isHidden": true,
      "sourceColumn": "FinancialDimension3ID",
      "sourceProviderType": "int",
      "annotations": [
        {
          "name": "TabularEditor_TranslatedNames",
          "value": "{\"de-DE\":\"Financialdimension3ID\",\"en-US\":\"FinancialDimension3ID\",\"nl-NL\":\"Financialdimension3id\"}"
        },
        {
          "name": "TabularEditor_TranslatedDescriptions",
          "value": "{\"de-DE\":\"Kennung für Financialdimension3\",\"en-US\":\"Unique key field to dimension key\",\"nl-NL\":\"Unieke sleutel naar de unieke sleutel van de dimensie\"}"
        }
      ]
    },
    {
      "name": "FinancialDimension4ID",
      "dataType": "int64",
      "description": "Unique key field to dimension key",
      "isHidden": true,
      "sourceColumn": "FinancialDimension4ID",
      "sourceProviderType": "int",
      "annotations": [
        {
          "name": "TabularEditor_TranslatedNames",
          "value": "{\"de-DE\":\"Financialdimension4ID\",\"en-US\":\"FinancialDimension4ID\",\"nl-NL\":\"Financialdimension4id\"}"
        },
        {
          "name": "TabularEditor_TranslatedDescriptions",
          "value": "{\"de-DE\":\"Kennung für Financialdimension4\",\"en-US\":\"Unique key field to dimension key\",\"nl-NL\":\"Unieke sleutel naar de unieke sleutel van de dimensie\"}"
        }
      ]
    },
    {
      "name": "FinancialDimension5ID",
      "dataType": "int64",
      "description": "Unique key field to dimension key",
      "isHidden": true,
      "sourceColumn": "FinancialDimension5ID",
      "sourceProviderType": "int",
      "annotations": [
        {
          "name": "TabularEditor_TranslatedNames",
          "value": "{\"de-DE\":\"Financialdimension5ID\",\"en-US\":\"FinancialDimension5ID\",\"nl-NL\":\"Financialdimension5id\"}"
        },
        {
          "name": "TabularEditor_TranslatedDescriptions",
          "value": "{\"de-DE\":\"Kennung für Financialdimension5\",\"en-US\":\"Unique key field to dimension key\",\"nl-NL\":\"Unieke sleutel naar de unieke sleutel van de dimensie\"}"
        }
      ]
    },
    {
      "name": "FinancialDimension6ID",
      "dataType": "int64",
      "description": "Unique key field to dimension key",
      "isHidden": true,
      "sourceColumn": "FinancialDimension6ID",
      "sourceProviderType": "int",
      "annotations": [
        {
          "name": "TabularEditor_TranslatedNames",
          "value": "{\"de-DE\":\"Financialdimension6ID\",\"en-US\":\"FinancialDimension6ID\",\"nl-NL\":\"Financialdimension6id\"}"
        },
        {
          "name": "TabularEditor_TranslatedDescriptions",
          "value": "{\"de-DE\":\"Kennung für Financialdimension6\",\"en-US\":\"Unique key field to dimension key\",\"nl-NL\":\"Unieke sleutel naar de unieke sleutel van de dimensie\"}"
        }
      ]
    },
    {
      "name": "FinancialDimension7ID",
      "dataType": "int64",
      "description": "Unique key field to dimension key",
      "isHidden": true,
      "sourceColumn": "FinancialDimension7ID",
      "sourceProviderType": "int",
      "annotations": [
        {
          "name": "TabularEditor_TranslatedNames",
          "value": "{\"de-DE\":\"Financialdimension7ID\",\"en-US\":\"FinancialDimension7ID\",\"nl-NL\":\"Financialdimension7id\"}"
        },
        {
          "name": "TabularEditor_TranslatedDescriptions",
          "value": "{\"de-DE\":\"Kennung für Financialdimension7\",\"en-US\":\"Unique key field to dimension key\",\"nl-NL\":\"Unieke sleutel naar de unieke sleutel van de dimensie\"}"
        }
      ]
    },
    {
      "name": "FinancialDimension8ID",
      "dataType": "int64",
      "description": "Unique key field to dimension key",
      "isHidden": true,
      "sourceColumn": "FinancialDimension8ID",
      "sourceProviderType": "int",
      "annotations": [
        {
          "name": "TabularEditor_TranslatedNames",
          "value": "{\"de-DE\":\"Financialdimension8ID\",\"en-US\":\"FinancialDimension8ID\",\"nl-NL\":\"Financialdimension8id\"}"
        },
        {
          "name": "TabularEditor_TranslatedDescriptions",
          "value": "{\"de-DE\":\"Kennung für Financialdimension8\",\"en-US\":\"Unique key field to dimension key\",\"nl-NL\":\"Unieke sleutel naar de unieke sleutel van de dimensie\"}"
        }
      ]
    },
    {
      "name": "ItemID",
      "dataType": "int64",
      "description": "Unique key field to dimension key",
      "isHidden": true,
      "sourceColumn": "ItemID",
      "sourceProviderType": "int",
      "annotations": [
        {
          "name": "TabularEditor_TranslatedNames",
          "value": "{\"de-DE\":\"ItemID\",\"en-US\":\"ItemID\",\"nl-NL\":\"Itemid\"}"
        },
        {
          "name": "TabularEditor_TranslatedDescriptions",
          "value": "{\"de-DE\":\"Kennung für Item\",\"en-US\":\"Unique key field to dimension key\",\"nl-NL\":\"Unieke sleutel naar de unieke sleutel van de dimensie\"}"
        }
      ]
    },
    {
      "name": "SelltoCustomerID",
      "dataType": "int64",
      "description": "Unique key field to dimension key",
      "isHidden": true,
      "sourceColumn": "SelltoCustomerID",
      "sourceProviderType": "int",
      "annotations": [
        {
          "name": "TabularEditor_TranslatedNames",
          "value": "{\"de-DE\":\"SelltoDebitorenID\",\"en-US\":\"SelltoCustomerID\",\"nl-NL\":\"Selltocustomerid\"}"
        },
        {
          "name": "TabularEditor_TranslatedDescriptions",
          "value": "{\"de-DE\":\"Kennung für SelltoDebitoren\",\"en-US\":\"Unique key field to dimension key\",\"nl-NL\":\"Unieke sleutel naar de unieke sleutel van de dimensie\"}"
        }
      ]
    },
    {
      "name": "BilltoCustomerID",
      "dataType": "int64",
      "description": "Unique key field to dimension key",
      "isHidden": true,
      "sourceColumn": "BilltoCustomerID",
      "sourceProviderType": "int",
      "annotations": [
        {
          "name": "TabularEditor_TranslatedNames",
          "value": "{\"de-DE\":\"BilltoDebitorenID\",\"en-US\":\"BillToCustomerID\",\"nl-NL\":\"Billtocustomerid\"}"
        },
        {
          "name": "TabularEditor_TranslatedDescriptions",
          "value": "{\"de-DE\":\"Kennung für BilltoDebitoren\",\"en-US\":\"Unique key field to dimension key\",\"nl-NL\":\"Unieke sleutel naar de unieke sleutel van de dimensie\"}"
        }
      ]
    },
    {
      "name": "LocationID",
      "dataType": "int64",
      "description": "Unique key field to dimension key",
      "isHidden": true,
      "sourceColumn": "LocationID",
      "sourceProviderType": "int",
      "annotations": [
        {
          "name": "TabularEditor_TranslatedNames",
          "value": "{\"de-DE\":\"LocationID\",\"en-US\":\"LocationID\",\"nl-NL\":\"Locationid\"}"
        },
        {
          "name": "TabularEditor_TranslatedDescriptions",
          "value": "{\"de-DE\":\"Kennung für Location\",\"en-US\":\"Unique key field to dimension key\",\"nl-NL\":\"Unieke sleutel naar de unieke sleutel van de dimensie\"}"
        }
      ]
    },
    {
      "name": "ItemVariantID",
      "dataType": "int64",
      "description": "Unique key field to dimension key",
      "isHidden": true,
      "sourceColumn": "ItemVariantID",
      "sourceProviderType": "int",
      "annotations": [
        {
          "name": "TabularEditor_TranslatedNames",
          "value": "{\"de-DE\":\"ItemvariantID\",\"en-US\":\"ItemVariantID\",\"nl-NL\":\"Itemvariantid\"}"
        },
        {
          "name": "TabularEditor_TranslatedDescriptions",
          "value": "{\"de-DE\":\"Kennung für Itemvariant\",\"en-US\":\"Unique key field to dimension key\",\"nl-NL\":\"Unieke sleutel naar de unieke sleutel van de dimensie\"}"
        }
      ]
    },
    {
      "name": "ReturnReasonID",
      "dataType": "int64",
      "description": "Unique key field to dimension key",
      "isHidden": true,
      "sourceColumn": "ReturnReasonID",
      "sourceProviderType": "int",
      "annotations": [
        {
          "name": "TabularEditor_TranslatedNames",
          "value": "{\"de-DE\":\"ReturnReasonID\",\"en-US\":\"ReturnReasonID\",\"nl-NL\":\"ReturnReasonID\"}"
        },
        {
          "name": "TabularEditor_TranslatedDescriptions",
          "value": "{\"de-DE\":\"Kennung für ReturnReason\",\"en-US\":\"Unique key field to dimension key\",\"nl-NL\":\"Unieke sleutel naar de unieke sleutel van de dimensie\"}"
        }
      ]
    },
    {
      "name": "TransportMethodID",
      "dataType": "int64",
      "description": "Unique key to the dimension Transport Method",
      "isHidden": true,
      "sourceColumn": "TransportMethodID",
      "sourceProviderType": "int",
      "annotations": [
        {
          "name": "TabularEditor_TranslatedNames",
          "value": "{\"de-DE\":\"TransportmethodID\",\"en-US\":\"TransportMethodID\",\"nl-NL\":\"Transportmethodid\"}"
        },
        {
          "name": "TabularEditor_TranslatedDescriptions",
          "value": "{\"de-DE\":\"Kennung für Transportmethod\",\"en-US\":\"Unique key to the dimension Transport Method\",\"nl-NL\":\"Sleutel naar de dimensie transportmethode\"}"
        }
      ]
    },
    {
      "name": "PostingDateID",
      "dataType": "int64",
      "description": "Unique key field to dimension key",
      "isHidden": true,
      "sourceColumn": "PostingDateID",
      "sourceProviderType": "int",
      "annotations": [
        {
          "name": "TabularEditor_TranslatedNames",
          "value": "{\"de-DE\":\"PostingDatumID\",\"en-US\":\"PostingDateID\",\"nl-NL\":\"Postingdateid\"}"
        },
        {
          "name": "TabularEditor_TranslatedDescriptions",
          "value": "{\"de-DE\":\"Kennung für PostingDatum\",\"en-US\":\"Unique key field to dimension key\",\"nl-NL\":\"Unieke sleutel naar de unieke sleutel van de dimensie\"}"
        }
      ]
    },
    {
      "name": "ShippedQuantity",
      "dataType": "decimal",
      "description": "Quantity Shipped. NAV: Sales > Order Processing > Sales Order Shipping > Lines > Quantity Shipped",
      "isHidden": true,
      "sourceColumn": "ShippedQuantity",
      "sourceProviderType": "decimal",
      "annotations": [
        {
          "name": "TabularEditor_TranslatedNames",
          "value": "{\"de-DE\":\"Menge geliefert\",\"en-US\":\"Quantity Shipped\",\"nl-NL\":\"Verzonden aantal\"}"
        },
        {
          "name": "TabularEditor_TranslatedDescriptions",
          "value": "{\"de-DE\":\"Abteilungen/Verkauf & Marketing/Auftragsabwicklung/Aufträge/Lieferungen\",\"en-US\":\"Quantity Shipped. NAV: Sales > Order Processing > Sales Order Shipping > Lines > Quantity Shipped\",\"nl-NL\":\"Verzonden aantal. NAV: Verkoop > Orderverwerking > Leveringen > Regels > Verzonden Aantal\"}"
        }
      ]
    },
    {
      "name": "RemainingQuantity",
      "dataType": "decimal",
      "description": "Remaining Quantity from Item Ledger Entry",
      "isHidden": true,
      "sourceColumn": "RemainingQuantity",
      "sourceProviderType": "decimal",
      "annotations": [
        {
          "name": "TabularEditor_TranslatedNames",
          "value": "{\"de-DE\":\"Restmenge\",\"en-US\":\"Remaining Quantity\",\"nl-NL\":\"Resterend aantal\"}"
        },
        {
          "name": "TabularEditor_TranslatedDescriptions",
          "value": "{\"de-DE\":\"Abteilungen/Verkauf & Marketing/Auftragsabwicklung/Aufträge/Lieferungen\",\"en-US\":\"Remaining Quantity from Item Ledger Entry\",\"nl-NL\":\"Resterend aantal vanuit de Artikelposten\"}"
        }
      ]
    },
    {
      "name": "BrandID",
      "dataType": "int64",
      "description": "System column for technical purposes",
      "isHidden": true,
      "sourceColumn": "BrandID",
      "annotations": [
        {
          "name": "TabularEditor_TranslatedNames",
          "value": "{\"en-US\":\"BrandID\",\"nl-NL\":\"BrandID\"}"
        },
        {
          "name": "TabularEditor_TranslatedDescriptions",
          "value": "{\"en-US\":\"System column for technical purposes\",\"nl-NL\":\"Systeemkolom voor technische doeleinden\"}"
        }
      ]
    },
    {
      "name": "CollectionID",
      "dataType": "int64",
      "description": "System column for technical purposes",
      "isHidden": true,
      "sourceColumn": "CollectionID",
      "annotations": [
        {
          "name": "TabularEditor_TranslatedNames",
          "value": "{\"en-US\":\"CollectionID\",\"nl-NL\":\"CollectionID\"}"
        },
        {
          "name": "TabularEditor_TranslatedDescriptions",
          "value": "{\"en-US\":\"System column for technical purposes\",\"nl-NL\":\"Systeemkolom voor technische doeleinden\"}"
        }
      ]
    },
    {
      "name": "ColorID",
      "dataType": "int64",
      "description": "System column for technical purposes",
      "isHidden": true,
      "sourceColumn": "ColorID",
      "annotations": [
        {
          "name": "TabularEditor_TranslatedNames",
          "value": "{\"en-US\":\"ColorID\",\"nl-NL\":\"ColorID\"}"
        },
        {
          "name": "TabularEditor_TranslatedDescriptions",
          "value": "{\"en-US\":\"System column for technical purposes\",\"nl-NL\":\"Systeemkolom voor technische doeleinden\"}"
        }
      ]
    },
    {
      "name": "SeasonID",
      "dataType": "int64",
      "description": "System column for technical purposes",
      "isHidden": true,
      "sourceColumn": "SeasonID",
      "annotations": [
        {
          "name": "TabularEditor_TranslatedNames",
          "value": "{\"en-US\":\"SeasonID\",\"nl-NL\":\"SeasonID\"}"
        },
        {
          "name": "TabularEditor_TranslatedDescriptions",
          "value": "{\"en-US\":\"System column for technical purposes\",\"nl-NL\":\"Systeemkolom voor technische doeleinden\"}"
        }
      ]
    },
    {
      "name": "StyleID",
      "dataType": "int64",
      "description": "System column for technical purposes",
      "isHidden": true,
      "sourceColumn": "StyleID",
      "annotations": [
        {
          "name": "TabularEditor_TranslatedNames",
          "value": "{\"en-US\":\"StyleID\",\"nl-NL\":\"StyleID\"}"
        },
        {
          "name": "TabularEditor_TranslatedDescriptions",
          "value": "{\"en-US\":\"System column for technical purposes\",\"nl-NL\":\"Systeemkolom voor technische doeleinden\"}"
        }
      ]
    },
    {
      "name": "OrderTypeID",
      "dataType": "int64",
      "description": "System column for technical purposes",
      "isHidden": true,
      "sourceColumn": "OrderTypeID",
      "annotations": [
        {
          "name": "TabularEditor_TranslatedNames",
          "value": "{\"en-US\":\"OrderTypeID\",\"nl-NL\":\"OrderTypeID\"}"
        },
        {
          "name": "TabularEditor_TranslatedDescriptions",
          "value": "{\"en-US\":\"System column for technical purposes\",\"nl-NL\":\"Systeemkolom voor technische doeleinden\"}"
        }
      ]
    },
    {
      "name": "CupID",
      "dataType": "int64",
      "description": "System column for technical purposes",
      "isHidden": true,
      "sourceColumn": "CupID",
      "annotations": [
        {
          "name": "TabularEditor_TranslatedNames",
          "value": "{\"en-US\":\"CupID\",\"nl-NL\":\"CupID\"}"
        },
        {
          "name": "TabularEditor_TranslatedDescriptions",
          "value": "{\"en-US\":\"System column for technical purposes\",\"nl-NL\":\"Systeemkolom voor technische doeleinden\"}"
        }
      ]
    },
    {
      "name": "WidthID",
      "dataType": "int64",
      "description": "System column for technical purposes",
      "isHidden": true,
      "sourceColumn": "WidthID",
      "annotations": [
        {
          "name": "TabularEditor_TranslatedNames",
          "value": "{\"en-US\":\"WidthID\",\"nl-NL\":\"WidthID\"}"
        },
        {
          "name": "TabularEditor_TranslatedDescriptions",
          "value": "{\"en-US\":\"System column for technical purposes\",\"nl-NL\":\"Systeemkolom voor technische doeleinden\"}"
        }
      ]
    },
    {
      "name": "LengthID",
      "dataType": "int64",
      "description": "System column for technical purposes",
      "isHidden": true,
      "sourceColumn": "LengthID",
      "annotations": [
        {
          "name": "TabularEditor_TranslatedNames",
          "value": "{\"en-US\":\"LengthID\",\"nl-NL\":\"LengthID\"}"
        },
        {
          "name": "TabularEditor_TranslatedDescriptions",
          "value": "{\"en-US\":\"System column for technical purposes\",\"nl-NL\":\"Systeemkolom voor technische doeleinden\"}"
        }
      ]
    },
    {
      "name": "OrderOriginID",
      "dataType": "int64",
      "description": "System column for technical purposes",
      "isHidden": true,
      "sourceColumn": "OrderOriginID",
      "annotations": [
        {
          "name": "TabularEditor_TranslatedNames",
          "value": "{\"en-US\":\"OrderOriginID\",\"nl-NL\":\"OrderOriginID\"}"
        },
        {
          "name": "TabularEditor_TranslatedDescriptions",
          "value": "{\"en-US\":\"System column for technical purposes\",\"nl-NL\":\"Systeemkolom voor technische doeleinden\"}"
        }
      ]
    },
    {
      "name": "QualityID",
      "dataType": "int64",
      "description": "System column for technical purposes",
      "isHidden": true,
      "sourceColumn": "QualityID",
      "annotations": [
        {
          "name": "TabularEditor_TranslatedNames",
          "value": "{\"en-US\":\"QualityID\",\"nl-NL\":\"QualityID\"}"
        },
        {
          "name": "TabularEditor_TranslatedDescriptions",
          "value": "{\"en-US\":\"System column for technical purposes\",\"nl-NL\":\"Systeemkolom voor technische doeleinden\"}"
        }
      ]
    },
    {
      "name": "PrepackID",
      "dataType": "int64",
      "description": "System column for technical purposes",
      "isHidden": true,
      "sourceColumn": "PrepackID",
      "annotations": [
        {
          "name": "TabularEditor_TranslatedNames",
          "value": "{\"en-US\":\"PrepackID\",\"nl-NL\":\"PrepackID\"}"
        },
        {
          "name": "TabularEditor_TranslatedDescriptions",
          "value": "{\"en-US\":\"System column for technical purposes\",\"nl-NL\":\"Systeemkolom voor technische doeleinden\"}"
        }
      ]
    },
    {
      "name": "PrepackQuantity",
      "dataType": "decimal",
      "description": "Sales > Order Processing > Sales Order Shipping > Lines > Prepack Quantity",
      "isHidden": true,
      "sourceColumn": "PrepackQuantity",
      "annotations": [
        {
          "name": "TabularEditor_TranslatedNames",
          "value": "{\"en-US\":\"Prepack Shipped Quantity\",\"nl-NL\":\"Prepack Verzonden Hoeveelheid\"}"
        },
        {
          "name": "TabularEditor_TranslatedDescriptions",
          "value": "{\"en-US\":\"Sales > Order Processing > Sales Order Shipping > Lines > Prepack Quantity\",\"nl-NL\":\"Verkoop > Orderverwerking > Leveringen > Regels > Prepack Aantal\"}"
        }
      ]
    },
    {
      "name": "CustomerID",
      "dataType": "int64",
      "isHidden": true,
      "sourceColumn": "CustomerID"
    },
    {
      "name": "DateID",
      "dataType": "int64",
      "isHidden": true,
      "sourceColumn": "DateID"
    },
    {
      "name": "DocumentPostingDateID",
      "dataType": "int64",
      "isHidden": true,
      "sourceColumn": "DocumentPostingDateID"
    },
    {
      "name": "SalesOrderID",
      "dataType": "int64",
      "isHidden": true,
      "sourceColumn": "SalesOrderID"
    }
  ],
  "partitions": [
    {
      "name": "SalesItemLedgerEntry",
      "source": {
        "type": "query",
        "query": "SELECT * FROM tabular.factSalesItemLedgerEntry",
        "dataSource": "Birds"
      },
      "annotations": [
        {
          "name": "TabularEditor_TableSchema",
          "value": "{\"Name\":\"SalesItemLedgerEntry\",\"Schema\":\"fact\",\"Database\":\"Birds\",\"IncludedColumns\":[\"StageID\",\"CompanyID\",\"DataConnectionID\",\"ComponentExecutionID\",\"ExecutionFlag\",\"FinancialDimension1ID\",\"FinancialDimension2ID\",\"FinancialDimension3ID\",\"FinancialDimension4ID\",\"FinancialDimension5ID\",\"FinancialDimension6ID\",\"FinancialDimension7ID\",\"FinancialDimension8ID\",\"ItemID\",\"SelltoCustomerID\",\"BilltoCustomerID\",\"LocationID\",\"ItemVariantID\",\"ReturnReasonID\",\"TransportMethodID\",\"PostingDateID\",\"ShippedQuantity\",\"RemainingQuantity\"],\"SelectAll\":true}"
        }
      ]
    }
  ],
  "annotations": [
    {
      "name": "TabularEditor_TranslatedNames",
      "value": "{\"de-DE\":\"Σ Verkauf Lagerposten\",\"en-US\":\"Σ Sales item Ledger Entry\",\"nl-NL\":\"Σ Verkoop Artikelposten\"}"
    },
    {
      "name": "TabularEditor_Relationships",
      "value": [
        "[",
        "  {",
        "    \"fromTable\": \"factSalesItemLedgerEntry\",",
        "    \"fromColumn\": \"BilltoCustomerID\",",
        "    \"toTable\": \"BillToCustomer\",",
        "    \"toColumn\": \"CustomerID\"",
        "  },",
        "  {",
        "    \"fromTable\": \"factSalesItemLedgerEntry\",",
        "    \"fromColumn\": \"BilltoCustomerID\",",
        "    \"toTable\": \"Customer\",",
        "    \"toColumn\": \"CustomerID\"",
        "  },",
        "  {",
        "    \"fromTable\": \"factSalesItemLedgerEntry\",",
        "    \"fromColumn\": \"BrandID\",",
        "    \"toTable\": \"Brand\",",
        "    \"toColumn\": \"BrandID\"",
        "  },",
        "  {",
        "    \"fromTable\": \"factSalesItemLedgerEntry\",",
        "    \"fromColumn\": \"CollectionID\",",
        "    \"toTable\": \"Collection\",",
        "    \"toColumn\": \"CollectionID\"",
        "  },",
        "  {",
        "    \"fromTable\": \"factSalesItemLedgerEntry\",",
        "    \"fromColumn\": \"ColorID\",",
        "    \"toTable\": \"Color\",",
        "    \"toColumn\": \"ColorID\"",
        "  },",
        "  {",
        "    \"fromTable\": \"factSalesItemLedgerEntry\",",
        "    \"fromColumn\": \"CompanyID\",",
        "    \"toTable\": \"Company\",",
        "    \"toColumn\": \"CompanyID\"",
        "  },",
        "  {",
        "    \"fromTable\": \"factSalesItemLedgerEntry\",",
        "    \"fromColumn\": \"CupID\",",
        "    \"toTable\": \"Cup\",",
        "    \"toColumn\": \"CupID\"",
        "  },",
        "  {",
        "    \"fromTable\": \"factSalesItemLedgerEntry\",",
        "    \"fromColumn\": \"CustomerID\",",
        "    \"toTable\": \"Customer\",",
        "    \"toColumn\": \"CustomerID\",",
        "    \"isActive\": false",
        "  },",
        "  {",
        "    \"fromTable\": \"factSalesItemLedgerEntry\",",
        "    \"fromColumn\": \"DateID\",",
        "    \"toTable\": \"Date\",",
        "    \"toColumn\": \"DateID\",",
        "    \"isActive\": false",
        "  },",
        "  {",
        "    \"fromTable\": \"factSalesItemLedgerEntry\",",
        "    \"fromColumn\": \"DocumentPostingDateID\",",
        "    \"toTable\": \"Date\",",
        "    \"toColumn\": \"DateID\",",
        "    \"isActive\": false",
        "  },",
        "  {",
        "    \"fromTable\": \"factSalesItemLedgerEntry\",",
        "    \"fromColumn\": \"DocumentPostingDateID\",",
        "    \"toTable\": \"PostingDate\",",
        "    \"toColumn\": \"DateID\",",
        "    \"isActive\": false",
        "  },",
        "  {",
        "    \"fromTable\": \"factSalesItemLedgerEntry\",",
        "    \"fromColumn\": \"FinancialDimension1ID\",",
        "    \"toTable\": \"FinancialDimension1\",",
        "    \"toColumn\": \"FinancialDimension1ID\"",
        "  },",
        "  {",
        "    \"fromTable\": \"factSalesItemLedgerEntry\",",
        "    \"fromColumn\": \"FinancialDimension2ID\",",
        "    \"toTable\": \"FinancialDimension2\",",
        "    \"toColumn\": \"FinancialDimension2ID\"",
        "  },",
        "  {",
        "    \"fromTable\": \"factSalesItemLedgerEntry\",",
        "    \"fromColumn\": \"FinancialDimension3ID\",",
        "    \"toTable\": \"FinancialDimension3\",",
        "    \"toColumn\": \"FinancialDimension3ID\"",
        "  },",
        "  {",
        "    \"fromTable\": \"factSalesItemLedgerEntry\",",
        "    \"fromColumn\": \"FinancialDimension4ID\",",
        "    \"toTable\": \"FinancialDimension4\",",
        "    \"toColumn\": \"FinancialDimension4ID\"",
        "  },",
        "  {",
        "    \"fromTable\": \"factSalesItemLedgerEntry\",",
        "    \"fromColumn\": \"FinancialDimension5ID\",",
        "    \"toTable\": \"FinancialDimension5\",",
        "    \"toColumn\": \"FinancialDimension5ID\"",
        "  },",
        "  {",
        "    \"fromTable\": \"factSalesItemLedgerEntry\",",
        "    \"fromColumn\": \"FinancialDimension6ID\",",
        "    \"toTable\": \"FinancialDimension6\",",
        "    \"toColumn\": \"FinancialDimension6ID\"",
        "  },",
        "  {",
        "    \"fromTable\": \"factSalesItemLedgerEntry\",",
        "    \"fromColumn\": \"FinancialDimension7ID\",",
        "    \"toTable\": \"FinancialDimension7\",",
        "    \"toColumn\": \"FinancialDimension7ID\"",
        "  },",
        "  {",
        "    \"fromTable\": \"factSalesItemLedgerEntry\",",
        "    \"fromColumn\": \"FinancialDimension8ID\",",
        "    \"toTable\": \"FinancialDimension8\",",
        "    \"toColumn\": \"FinancialDimension8ID\"",
        "  },",
        "  {",
        "    \"fromTable\": \"factSalesItemLedgerEntry\",",
        "    \"fromColumn\": \"ItemID\",",
        "    \"toTable\": \"Item\",",
        "    \"toColumn\": \"ItemID\"",
        "  },",
        "  {",
        "    \"fromTable\": \"factSalesItemLedgerEntry\",",
        "    \"fromColumn\": \"ItemVariantID\",",
        "    \"toTable\": \"ItemVariant\",",
        "    \"toColumn\": \"ItemVariantID\"",
        "  },",
        "  {",
        "    \"fromTable\": \"factSalesItemLedgerEntry\",",
        "    \"fromColumn\": \"LengthID\",",
        "    \"toTable\": \"Length\",",
        "    \"toColumn\": \"LengthID\"",
        "  },",
        "  {",
        "    \"fromTable\": \"factSalesItemLedgerEntry\",",
        "    \"fromColumn\": \"LocationID\",",
        "    \"toTable\": \"Location\",",
        "    \"toColumn\": \"LocationID\"",
        "  },",
        "  {",
        "    \"fromTable\": \"factSalesItemLedgerEntry\",",
        "    \"fromColumn\": \"OrderOriginID\",",
        "    \"toTable\": \"OrderOrigin\",",
        "    \"toColumn\": \"OrderOriginID\"",
        "  },",
        "  {",
        "    \"fromTable\": \"factSalesItemLedgerEntry\",",
        "    \"fromColumn\": \"OrderTypeID\",",
        "    \"toTable\": \"OrderType\",",
        "    \"toColumn\": \"OrderTypeID\"",
        "  },",
        "  {",
        "    \"fromTable\": \"factSalesItemLedgerEntry\",",
        "    \"fromColumn\": \"PostingDateID\",",
        "    \"toTable\": \"Date\",",
        "    \"toColumn\": \"DateID\"",
        "  },",
        "  {",
        "    \"fromTable\": \"factSalesItemLedgerEntry\",",
        "    \"fromColumn\": \"PostingDateID\",",
        "    \"toTable\": \"PostingDate\",",
        "    \"toColumn\": \"DateID\"",
        "  },",
        "  {",
        "    \"fromTable\": \"factSalesItemLedgerEntry\",",
        "    \"fromColumn\": \"PrepackID\",",
        "    \"toTable\": \"Prepack\",",
        "    \"toColumn\": \"PrepackID\"",
        "  },",
        "  {",
        "    \"fromTable\": \"factSalesItemLedgerEntry\",",
        "    \"fromColumn\": \"QualityID\",",
        "    \"toTable\": \"Quality\",",
        "    \"toColumn\": \"QualityID\"",
        "  },",
        "  {",
        "    \"fromTable\": \"factSalesItemLedgerEntry\",",
        "    \"fromColumn\": \"ReturnReasonID\",",
        "    \"toTable\": \"Reason\",",
        "    \"toColumn\": \"ReasonID\"",
        "  },",
        "  {",
        "    \"fromTable\": \"factSalesItemLedgerEntry\",",
        "    \"fromColumn\": \"ReturnReasonID\",",
        "    \"toTable\": \"ReturnReason\",",
        "    \"toColumn\": \"ReturnReasonID\"",
        "  },",
        "  {",
        "    \"fromTable\": \"factSalesItemLedgerEntry\",",
        "    \"fromColumn\": \"SalesOrderID\",",
        "    \"toTable\": \"SalesOrder\",",
        "    \"toColumn\": \"SalesOrderID\"",
        "  },",
        "  {",
        "    \"fromTable\": \"factSalesItemLedgerEntry\",",
        "    \"fromColumn\": \"SeasonID\",",
        "    \"toTable\": \"Season\",",
        "    \"toColumn\": \"SeasonID\"",
        "  },",
        "  {",
        "    \"fromTable\": \"factSalesItemLedgerEntry\",",
        "    \"fromColumn\": \"SelltoCustomerID\",",
        "    \"toTable\": \"Customer\",",
        "    \"toColumn\": \"CustomerID\",",
        "    \"isActive\": false",
        "  },",
        "  {",
        "    \"fromTable\": \"factSalesItemLedgerEntry\",",
        "    \"fromColumn\": \"SelltoCustomerID\",",
        "    \"toTable\": \"SellToCustomer\",",
        "    \"toColumn\": \"CustomerID\"",
        "  },",
        "  {",
        "    \"fromTable\": \"factSalesItemLedgerEntry\",",
        "    \"fromColumn\": \"StyleID\",",
        "    \"toTable\": \"Style\",",
        "    \"toColumn\": \"StyleID\"",
        "  },",
        "  {",
        "    \"fromTable\": \"factSalesItemLedgerEntry\",",
        "    \"fromColumn\": \"TransportMethodID\",",
        "    \"toTable\": \"TransportMethod\",",
        "    \"toColumn\": \"TransportMethodID\"",
        "  },",
        "  {",
        "    \"fromTable\": \"factSalesItemLedgerEntry\",",
        "    \"fromColumn\": \"WidthID\",",
        "    \"toTable\": \"Width\",",
        "    \"toColumn\": \"WidthID\"",
        "  }",
        "]"
      ]
    }
  ]
}