{
  "name": "WarehouseCubage_YTD_Variance_WH",
  "description": " YTD Variance",
  "expression": "[WarehouseCubage_YTD_WH] - [WarehouseCubage_LYTD_WH]",
  "formatString": "#,##0.00",
  "displayFolder": "Σ YTD Variance",
  "annotations": [
    {
      "name": "TabularEditor_TranslatedNames",
      "value": "{\"de-DE\":\"Rauminhalt YTD Varianz\",\"en-US\":\"Cubage YTD Variance\",\"nl-NL\":\"Kubieke inhoud YTD Variance\"}"
    },
    {
      "name": "TabularEditor_TranslatedDescriptions",
      "value": "{\"de-DE\":\"Abteilungen > Lager > Lager > Inventurauftrag\",\"en-US\":\"Departments/Inventory and Warehouse/History YTD Variance\",\"nl-NL\":\"Afdelingen/Voorraad en magazijn/Historie YTD Variance\"}"
    },
    {
      "name": "TabularEditor_TranslatedDisplayFolders",
      "value": "{\"de-DE\":\"Σ YTD Varianz\",\"en-US\":\"Σ YTD Variance\",\"nl-NL\":\"Σ YTD Variance\"}"
    }
  ]
}