{
  "name": "WarehouseQuantityBase_MTD_WH",
  "description": " MTD",
  "expression": [
    "VAR MTD0 =",
    "    FILTER (",
    "        ALL ( 'Date' ),",
    "        'Date'[DateID] <= MAX ( 'Date'[DateID] )",
    "            && 'Date'[CYearMonthNo] = MAX ( 'Date'[CYearMonthNo] )",
    "    )",
    "RETURN",
    "    CALCULATE ( [WarehouseQuantityBase_WH], MTD0 )"
  ],
  "formatString": "#,##0.00",
  "displayFolder": "Σ MTD",
  "annotations": [
    {
      "name": "TabularEditor_TranslatedNames",
      "value": "{\"de-DE\":\"Lager Menge (Basis) MTD\",\"en-US\":\"Quantity (Base) MTD\",\"nl-NL\":\"Aantal (basis) MTD\"}"
    },
    {
      "name": "TabularEditor_TranslatedDescriptions",
      "value": "{\"de-DE\":\"Abteilungen/Lager/Archivieren/Historie/Lagerplatzposten\",\"en-US\":\"Departments/Inventory and Warehouse/History MTD\",\"nl-NL\":\"Afdelingen/Voorraad en magazijn/Historie MTD\"}"
    },
    {
      "name": "TabularEditor_TranslatedDisplayFolders",
      "value": "{\"de-DE\":\"Σ MTD\",\"en-US\":\"Σ MTD\",\"nl-NL\":\"Σ MTD\"}"
    }
  ]
}