{
  "name": "SellToCustomer",
  "columns": [
    {
      "type": "calculatedTableColumn",
      "name": "CustomerID",
      "dataType": "int64",
      "isNameInferred": true,
      "isDataTypeInferred": true,
      "description": "Unique identifier for customer",
      "isHidden": true,
      "sourceColumn": "Customer[CustomerID]",
      "annotations": [
        {
          "name": "TabularEditor_TranslatedNames",
          "value": "{\"de-DE\":\"CustomerID\",\"en-US\":\"CustomerID\",\"nl-NL\":\"Customerid\"}"
        },
        {
          "name": "TabularEditor_TranslatedDescriptions",
          "value": "{\"de-DE\":\"Kennung für Customer\",\"en-US\":\"Unique identifier for customer\",\"nl-NL\":\"Unieke sleutel voor klant\"}"
        }
      ]
    },
    {
      "type": "calculatedTableColumn",
      "name": "CustomerCode",
      "dataType": "string",
      "isNameInferred": true,
      "isDataTypeInferred": true,
      "description": "Sales > General Data > Customers > General > No.",
      "isHidden": true,
      "sourceColumn": "Customer[CustomerCode]",
      "annotations": [
        {
          "name": "TabularEditor_TranslatedNames",
          "value": "{\"de-DE\":\"Debitor Code\",\"en-US\":\"Customer No.\",\"nl-NL\":\"Klantcode\"}"
        },
        {
          "name": "TabularEditor_TranslatedDescriptions",
          "value": "{\"de-DE\":\"Startseite/Debitoren/Allgemein\",\"en-US\":\"Sales > General Data > Customers > General > No.\",\"nl-NL\":\"Verkopen > Stamgegevens > Klanten > Algemeen > Nr.\"}"
        }
      ]
    },
    {
      "type": "calculatedTableColumn",
      "name": "CustomerName",
      "dataType": "string",
      "isNameInferred": true,
      "isDataTypeInferred": true,
      "description": "Sales > General Data > Customers > General > Name",
      "isHidden": true,
      "sourceColumn": "Customer[CustomerName]",
      "annotations": [
        {
          "name": "TabularEditor_TranslatedNames",
          "value": "{\"de-DE\":\"Name\",\"en-US\":\"Customer Name\",\"nl-NL\":\"Klantnaam\"}"
        },
        {
          "name": "TabularEditor_TranslatedDescriptions",
          "value": "{\"de-DE\":\"Startseite/Debitoren/Allgemein\",\"en-US\":\"Sales > General Data > Customers > General > Name\",\"nl-NL\":\"Verkopen > Stamgegevens > Klanten > Algemeen > Naam\"}"
        }
      ]
    },
    {
      "type": "calculatedTableColumn",
      "name": "CustomerCodeName",
      "dataType": "string",
      "isNameInferred": true,
      "isDataTypeInferred": true,
      "description": "Sales > General Data > Customers > General > No. and Name",
      "sourceColumn": "Customer[CustomerCodeName]",
      "annotations": [
        {
          "name": "TabularEditor_TranslatedNames",
          "value": "{\"de-DE\":\"Debitor\",\"en-US\":\"Customer\",\"nl-NL\":\"Klant\"}"
        },
        {
          "name": "TabularEditor_TranslatedDescriptions",
          "value": "{\"de-DE\":\"Startseite/Debitoren/Allgemein\",\"en-US\":\"Sales > General Data > Customers > General > No. and Name\",\"nl-NL\":\"Verkopen > Stamgegevens > Klanten > Algemeen > Nr. en Naam\"}"
        }
      ]
    },
    {
      "type": "calculatedTableColumn",
      "name": "CustomerCountryCode",
      "dataType": "string",
      "isNameInferred": true,
      "isDataTypeInferred": true,
      "description": "Sales > General Data > Customers > Adress & Contact > Country/Region Code",
      "isHidden": true,
      "sourceColumn": "Customer[CustomerCountryCode]",
      "dataCategory": "Country",
      "annotations": [
        {
          "name": "TabularEditor_TranslatedNames",
          "value": "{\"de-DE\":\"Länder Code\",\"en-US\":\"Country Code\",\"nl-NL\":\"Landcode\"}"
        },
        {
          "name": "TabularEditor_TranslatedDescriptions",
          "value": "{\"de-DE\":\"Startseite/Debitoren/Adresse und Kontakt\",\"en-US\":\"Sales > General Data > Customers > Adress & Contact > Country/Region Code\",\"nl-NL\":\"Verkopen > Stamgegevens > Klanten > Adres en contactgegevens > Land-/Regiocode\"}"
        }
      ]
    },
    {
      "type": "calculatedTableColumn",
      "name": "CustomerCountryDescription",
      "dataType": "string",
      "isNameInferred": true,
      "isDataTypeInferred": true,
      "description": "Sales > General Data > Customers > Adress & Contact > Country/Region Code",
      "isHidden": true,
      "sourceColumn": "Customer[CustomerCountryDescription]",
      "dataCategory": "Country",
      "annotations": [
        {
          "name": "TabularEditor_TranslatedNames",
          "value": "{\"de-DE\":\"Ländername\",\"en-US\":\"Country Name\",\"nl-NL\":\"Landnaam\"}"
        },
        {
          "name": "TabularEditor_TranslatedDescriptions",
          "value": "{\"de-DE\":\"Startseite/Debitoren/Adresse und Kontakt\",\"en-US\":\"Sales > General Data > Customers > Adress & Contact > Country/Region Code\",\"nl-NL\":\"Verkopen > Stamgegevens > Klanten > Adres en contactgegevens > Land-/Regiocode\"}"
        }
      ]
    },
    {
      "type": "calculatedTableColumn",
      "name": "CustomerCountryCodeDescription",
      "dataType": "string",
      "isNameInferred": true,
      "isDataTypeInferred": true,
      "description": "Sales > General Data > Customers > Adress & Contact > Country/Region Code",
      "sourceColumn": "Customer[CustomerCountryCodeDescription]",
      "dataCategory": "Country",
      "annotations": [
        {
          "name": "TabularEditor_TranslatedNames",
          "value": "{\"de-DE\":\"Länder/Regions Code\",\"en-US\":\"Country\",\"nl-NL\":\"Land\"}"
        },
        {
          "name": "TabularEditor_TranslatedDescriptions",
          "value": "{\"de-DE\":\"Startseite/Debitoren/Adresse und Kontakt\",\"en-US\":\"Sales > General Data > Customers > Adress & Contact > Country/Region Code\",\"nl-NL\":\"Verkopen > Stamgegevens > Klanten > Adres en contactgegevens > Land-/Regiocode\"}"
        }
      ]
    },
    {
      "type": "calculatedTableColumn",
      "name": "CustomerPostCode",
      "dataType": "string",
      "isNameInferred": true,
      "isDataTypeInferred": true,
      "description": "Sales > General Data > Customers > Adress & Contact > Post Code",
      "sourceColumn": "Customer[CustomerPostCode]",
      "dataCategory": "PostalCode",
      "annotations": [
        {
          "name": "TabularEditor_TranslatedNames",
          "value": "{\"de-DE\":\"Postleitzahl Code\",\"en-US\":\"Post Code\",\"nl-NL\":\"Postcode\"}"
        },
        {
          "name": "TabularEditor_TranslatedDescriptions",
          "value": "{\"de-DE\":\"Startseite/Debitoren/Adresse und Kontakt\",\"en-US\":\"Sales > General Data > Customers > Adress & Contact > City\",\"nl-NL\":\"Verkopen > Stamgegevens > Klanten > Adres en contactgegevens > Plaats\"}"
        }
      ]
    },
    {
      "type": "calculatedTableColumn",
      "name": "CustomerTerritoryCode",
      "dataType": "string",
      "isNameInferred": true,
      "isDataTypeInferred": true,
      "description": "Sales > General Data > Customers > Adress & Contact > Territory Code",
      "isHidden": true,
      "sourceColumn": "Customer[CustomerTerritoryCode]",
      "annotations": [
        {
          "name": "TabularEditor_TranslatedNames",
          "value": "{\"de-DE\":\"Gebiets Code\",\"en-US\":\"Territory Code\",\"nl-NL\":\"Regiocode\"}"
        },
        {
          "name": "TabularEditor_TranslatedDescriptions",
          "value": "{\"de-DE\":\"Startseite/Debitoren/Adresse und Kontakt\",\"en-US\":\"Sales > General Data > Customers > Adress & Contact > Territory Code\",\"nl-NL\":\"Verkopen > Stamgegevens > Klanten > Adres en contactgegevens > Regio\"}"
        }
      ]
    },
    {
      "type": "calculatedTableColumn",
      "name": "CustomerTerritoryDescription",
      "dataType": "string",
      "isNameInferred": true,
      "isDataTypeInferred": true,
      "description": "Sales > General Data > Customers > Adress & Contact > Territory Code",
      "isHidden": true,
      "sourceColumn": "Customer[CustomerTerritoryDescription]",
      "annotations": [
        {
          "name": "TabularEditor_TranslatedNames",
          "value": "{\"de-DE\":\"Gebiets Code\",\"en-US\":\"Territory name\",\"nl-NL\":\"Regionaam\"}"
        },
        {
          "name": "TabularEditor_TranslatedDescriptions",
          "value": "{\"de-DE\":\"Startseite/Debitoren/Adresse und Kontakt\",\"en-US\":\"Sales > General Data > Customers > Adress & Contact > Territory Code\",\"nl-NL\":\"Verkopen > Stamgegevens > Klanten > Adres en contactgegevens > Regio\"}"
        }
      ]
    },
    {
      "type": "calculatedTableColumn",
      "name": "CustomerTerritoryCodeDescription",
      "dataType": "string",
      "isNameInferred": true,
      "isDataTypeInferred": true,
      "description": "Sales > General Data > Customers > Adress & Contact > Territory Code",
      "sourceColumn": "Customer[CustomerTerritoryCodeDescription]",
      "annotations": [
        {
          "name": "TabularEditor_TranslatedNames",
          "value": "{\"de-DE\":\"Gebiets Code\",\"en-US\":\"Territory\",\"nl-NL\":\"Regio\"}"
        },
        {
          "name": "TabularEditor_TranslatedDescriptions",
          "value": "{\"de-DE\":\"Startseite/Debitoren/Adresse und Kontakt\",\"en-US\":\"Sales > General Data > Customers > Adress & Contact > Territory Code\",\"nl-NL\":\"Verkopen > Stamgegevens > Klanten > Adres en contactgegevens > Regio\"}"
        }
      ]
    },
    {
      "type": "calculatedTableColumn",
      "name": "CustomerCity",
      "dataType": "string",
      "isNameInferred": true,
      "isDataTypeInferred": true,
      "description": "Sales > General Data > Customers > Adress & Contact > City",
      "sourceColumn": "Customer[CustomerCity]",
      "dataCategory": "City",
      "annotations": [
        {
          "name": "TabularEditor_TranslatedNames",
          "value": "{\"de-DE\":\"Ort\",\"en-US\":\"City\",\"nl-NL\":\"Plaats\"}"
        },
        {
          "name": "TabularEditor_TranslatedDescriptions",
          "value": "{\"de-DE\":\"Startseite/Debitoren/Adresse und Kontakt\",\"en-US\":\"Sales > General Data > Customers > Adress & Contact > City\",\"nl-NL\":\"Verkopen > Stamgegevens > Klanten > Adres en contactgegevens > Plaats\"}"
        }
      ]
    },
    {
      "type": "calculatedTableColumn",
      "name": "CustomerPriceGroupCode",
      "dataType": "string",
      "isNameInferred": true,
      "isDataTypeInferred": true,
      "description": "Sales > General Data > Customers > Invoicing > Customer Price Group",
      "isHidden": true,
      "sourceColumn": "Customer[CustomerPriceGroupCode]",
      "annotations": [
        {
          "name": "TabularEditor_TranslatedNames",
          "value": "{\"de-DE\":\"Debitorenpreisgruppe Code\",\"en-US\":\"Customer Price Group Code\",\"nl-NL\":\"Klantenprijsgroepcode\"}"
        },
        {
          "name": "TabularEditor_TranslatedDescriptions",
          "value": "{\"de-DE\":\"Startseite/Debitoren/Fakturierung\",\"en-US\":\"Sales > General Data > Customers > Invoicing > Customer Price Group\",\"nl-NL\":\"Verkopen > Stamgegevens > Klanten > Facturering > Klantenprijsgroep\"}"
        }
      ]
    },
    {
      "type": "calculatedTableColumn",
      "name": "CustomerPriceGroupDescription",
      "dataType": "string",
      "isNameInferred": true,
      "isDataTypeInferred": true,
      "description": "Sales > General Data > Customers > Invoicing > Customer Price Group",
      "isHidden": true,
      "sourceColumn": "Customer[CustomerPriceGroupDescription]",
      "annotations": [
        {
          "name": "TabularEditor_TranslatedNames",
          "value": "{\"de-DE\":\"Debitorenpreisgruppe Beschreibung\",\"en-US\":\"Customer Price Group Desc\",\"nl-NL\":\"Klantenprijsgroepomschrijving\"}"
        },
        {
          "name": "TabularEditor_TranslatedDescriptions",
          "value": "{\"de-DE\":\"Startseite/Debitoren/Fakturierung\",\"en-US\":\"Sales > General Data > Customers > Invoicing > Customer Price Group\",\"nl-NL\":\"Verkopen > Stamgegevens > Klanten > Facturering > Klantenprijsgroep\"}"
        }
      ]
    },
    {
      "type": "calculatedTableColumn",
      "name": "CustomerPriceGroupCodeDescription",
      "dataType": "string",
      "isNameInferred": true,
      "isDataTypeInferred": true,
      "description": "Sales > General Data > Customers > Invoicing > Customer Price Group",
      "sourceColumn": "Customer[CustomerPriceGroupCodeDescription]",
      "annotations": [
        {
          "name": "TabularEditor_TranslatedNames",
          "value": "{\"de-DE\":\"Debitorenpreisgruppe\",\"en-US\":\"Customer Price Group\",\"nl-NL\":\"Klantenprijsgroep\"}"
        },
        {
          "name": "TabularEditor_TranslatedDescriptions",
          "value": "{\"de-DE\":\"Startseite/Debitoren/Fakturierung\",\"en-US\":\"Sales > General Data > Customers > Invoicing > Customer Price Group\",\"nl-NL\":\"Verkopen > Stamgegevens > Klanten > Facturering > Klantenprijsgroep\"}"
        }
      ]
    },
    {
      "type": "calculatedTableColumn",
      "name": "CustomerDiscountGroupCode",
      "dataType": "string",
      "isNameInferred": true,
      "isDataTypeInferred": true,
      "description": "Sales > General Data > Customers > Invoicing > Customer Disc Group",
      "isHidden": true,
      "sourceColumn": "Customer[CustomerDiscountGroupCode]",
      "annotations": [
        {
          "name": "TabularEditor_TranslatedNames",
          "value": "{\"de-DE\":\"Debitorenrabattgruppe Code\",\"en-US\":\"Customer Discount Group Code\",\"nl-NL\":\"Klantenkortingsgroepcode\"}"
        },
        {
          "name": "TabularEditor_TranslatedDescriptions",
          "value": "{\"de-DE\":\"Startseite/Debitoren/Fakturierung\",\"en-US\":\"Sales > General Data > Customers > Invoicing > Customer Disc Group\",\"nl-NL\":\"Verkopen > Stamgegevens > Klanten > Facturering > Klantenkortingsgroep\"}"
        }
      ]
    },
    {
      "type": "calculatedTableColumn",
      "name": "CustomerDiscountGroupDescription",
      "dataType": "string",
      "isNameInferred": true,
      "isDataTypeInferred": true,
      "description": "Sales > General Data > Customers > Invoicing > Customer Disc Group",
      "isHidden": true,
      "sourceColumn": "Customer[CustomerDiscountGroupDescription]",
      "annotations": [
        {
          "name": "TabularEditor_TranslatedNames",
          "value": "{\"de-DE\":\"Debitorenrabattgruppe Beschreibung\",\"en-US\":\"Customer Discount Group Desc\",\"nl-NL\":\"Klantenkortingsgroepomschrijving\"}"
        },
        {
          "name": "TabularEditor_TranslatedDescriptions",
          "value": "{\"de-DE\":\"Startseite/Debitoren/Fakturierung\",\"en-US\":\"Sales > General Data > Customers > Invoicing > Customer Disc Group\",\"nl-NL\":\"Verkopen > Stamgegevens > Klanten > Facturering > Klantenkortingsgroep\"}"
        }
      ]
    },
    {
      "type": "calculatedTableColumn",
      "name": "CustomerDiscountGroupCodeDescription",
      "dataType": "string",
      "isNameInferred": true,
      "isDataTypeInferred": true,
      "description": "Sales > General Data > Customers > Invoicing > Customer Disc Group",
      "sourceColumn": "Customer[CustomerDiscountGroupCodeDescription]",
      "annotations": [
        {
          "name": "TabularEditor_TranslatedNames",
          "value": "{\"de-DE\":\"Debitorenrabattgruppe\",\"en-US\":\"Customer Discount Group\",\"nl-NL\":\"Klantenkortingsgroep\"}"
        },
        {
          "name": "TabularEditor_TranslatedDescriptions",
          "value": "{\"de-DE\":\"Startseite/Debitoren/Fakturierung\",\"en-US\":\"Sales > General Data > Customers > Invoicing > Customer Disc Group\",\"nl-NL\":\"Verkopen > Stamgegevens > Klanten > Facturering > Klantenkortingsgroep\"}"
        }
      ]
    },
    {
      "type": "calculatedTableColumn",
      "name": "CustomerPostingGroupCode",
      "dataType": "string",
      "isNameInferred": true,
      "isDataTypeInferred": true,
      "description": "Sales > General Data > Customers > Invoicing > Customer Posting Group",
      "isHidden": true,
      "sourceColumn": "Customer[CustomerPostingGroupCode]",
      "annotations": [
        {
          "name": "TabularEditor_TranslatedNames",
          "value": "{\"de-DE\":\"Debitorenbuchungsgruppe Code\",\"en-US\":\"Customer Posting Group Code\",\"nl-NL\":\"Klantboekingsgroepcode\"}"
        },
        {
          "name": "TabularEditor_TranslatedDescriptions",
          "value": "{\"de-DE\":\"Startseite/Debitoren/Fakturierung\",\"en-US\":\"Sales > General Data > Customers > Invoicing > Customer Posting Group\",\"nl-NL\":\"Verkopen > Stamgegevens > Klanten > Facturering > Klantboekingsgroep\"}"
        }
      ]
    },
    {
      "type": "calculatedTableColumn",
      "name": "CustomerPostingGroupDescription",
      "dataType": "string",
      "isNameInferred": true,
      "isDataTypeInferred": true,
      "description": "Sales > General Data > Customers > Invoicing > Customer Posting Group",
      "isHidden": true,
      "sourceColumn": "Customer[CustomerPostingGroupDescription]",
      "annotations": [
        {
          "name": "TabularEditor_TranslatedNames",
          "value": "{\"de-DE\":\"Debitorenbuchungsgruppe Beschreibung\",\"en-US\":\"Customer Posting Group Desc\",\"nl-NL\":\"Klantboekingsgroep omschrijving\"}"
        },
        {
          "name": "TabularEditor_TranslatedDescriptions",
          "value": "{\"de-DE\":\"Startseite/Debitoren/Fakturierung\",\"en-US\":\"Sales > General Data > Customers > Invoicing > Customer Posting Group\",\"nl-NL\":\"Verkopen > Stamgegevens > Klanten > Facturering > Klantboekingsgroep\"}"
        }
      ]
    },
    {
      "type": "calculatedTableColumn",
      "name": "CustomerPostingGroupCodeDescription",
      "dataType": "string",
      "isNameInferred": true,
      "isDataTypeInferred": true,
      "description": "Sales > General Data > Customers > Invoicing > Customer Posting Group",
      "sourceColumn": "Customer[CustomerPostingGroupCodeDescription]",
      "annotations": [
        {
          "name": "TabularEditor_TranslatedNames",
          "value": "{\"de-DE\":\"Debitorenbuchungsgruppe\",\"en-US\":\"Customer Posting Group\",\"nl-NL\":\"Klantboekingsgroep\"}"
        },
        {
          "name": "TabularEditor_TranslatedDescriptions",
          "value": "{\"de-DE\":\"Startseite/Debitoren/Fakturierung\",\"en-US\":\"Sales > General Data > Customers > Invoicing > Customer Posting Group\",\"nl-NL\":\"Verkopen > Stamgegevens > Klanten > Facturering > Klantboekingsgroep\"}"
        }
      ]
    },
    {
      "type": "calculatedTableColumn",
      "name": "GeneralBusinessPostingGroupCode",
      "dataType": "string",
      "isNameInferred": true,
      "isDataTypeInferred": true,
      "description": "Sales > General Data > Customers > Invoicing > Gen. Bus. Posting Group",
      "isHidden": true,
      "sourceColumn": "Customer[GeneralBusinessPostingGroupCode]",
      "annotations": [
        {
          "name": "TabularEditor_TranslatedNames",
          "value": "{\"de-DE\":\"Geschäftsbuchungsgruppe Code\",\"en-US\":\"Gen. Bus. Posting Group Code\",\"nl-NL\":\"Bedrijfsboekingsgroepcode\"}"
        },
        {
          "name": "TabularEditor_TranslatedDescriptions",
          "value": "{\"de-DE\":\"Startseite/Debitoren/Fakturierung\",\"en-US\":\"Sales > General Data > Customers > Invoicing > Gen. Bus. Posting Group\",\"nl-NL\":\"Verkopen > Stamgegevens > Klanten > Facturering > Bedrijfsboekingsgroep\"}"
        }
      ]
    },
    {
      "type": "calculatedTableColumn",
      "name": "GeneralBusinessPostingGroupDescription",
      "dataType": "string",
      "isNameInferred": true,
      "isDataTypeInferred": true,
      "description": "Sales > General Data > Customers > Invoicing > Gen. Bus. Posting Group",
      "isHidden": true,
      "sourceColumn": "Customer[GeneralBusinessPostingGroupDescription]",
      "annotations": [
        {
          "name": "TabularEditor_TranslatedNames",
          "value": "{\"de-DE\":\"Geschäftsbuchungsgruppe Beschreibung\",\"en-US\":\"Gen. Bus. Posting Group Desc\",\"nl-NL\":\"Bedrijfsboekingsgroepomschrijving\"}"
        },
        {
          "name": "TabularEditor_TranslatedDescriptions",
          "value": "{\"de-DE\":\"Startseite/Debitoren/Fakturierung\",\"en-US\":\"Sales > General Data > Customers > Invoicing > Gen. Bus. Posting Group\",\"nl-NL\":\"Verkopen > Stamgegevens > Klanten > Facturering > Bedrijfsboekingsgroep\"}"
        }
      ]
    },
    {
      "type": "calculatedTableColumn",
      "name": "GeneralBusinessPostingGroupCodeDescription",
      "dataType": "string",
      "isNameInferred": true,
      "isDataTypeInferred": true,
      "description": "Sales > General Data > Customers > Invoicing > Gen. Bus. Posting Group",
      "sourceColumn": "Customer[GeneralBusinessPostingGroupCodeDescription]",
      "annotations": [
        {
          "name": "TabularEditor_TranslatedNames",
          "value": "{\"de-DE\":\"Geschäftsbuchungsgruppe\",\"en-US\":\"Gen. Bus. Posting Group\",\"nl-NL\":\"Bedrijfsboekingsgroep\"}"
        },
        {
          "name": "TabularEditor_TranslatedDescriptions",
          "value": "{\"de-DE\":\"Startseite/Debitoren/Fakturierung\",\"en-US\":\"Sales > General Data > Customers > Invoicing > Gen. Bus. Posting Group\",\"nl-NL\":\"Verkopen > Stamgegevens > Klanten > Facturering > Bedrijfsboekingsgroep\"}"
        }
      ]
    },
    {
      "type": "calculatedTableColumn",
      "name": "SalesPersonPurchaserCode",
      "dataType": "string",
      "isNameInferred": true,
      "isDataTypeInferred": true,
      "description": "Sales > General Data > Customers > General >Sales Representative Code",
      "isHidden": true,
      "sourceColumn": "Customer[SalesPersonPurchaserCode]",
      "annotations": [
        {
          "name": "TabularEditor_TranslatedNames",
          "value": "{\"de-DE\":\"Verkäufer Code\",\"en-US\":\"Sales Representative Code\",\"nl-NL\":\"Vertegenwoordigercode\"}"
        },
        {
          "name": "TabularEditor_TranslatedDescriptions",
          "value": "{\"de-DE\":\"Startseite/Debitoren/Fakturierung\",\"en-US\":\"Sales > General Data > Customers > General >Sales Representative Code\",\"nl-NL\":\"Verkopen > Stamgegevens > Klanten > Vertegenwoordiger\"}"
        }
      ]
    },
    {
      "type": "calculatedTableColumn",
      "name": "SalesPersonPurchaserName",
      "dataType": "string",
      "isNameInferred": true,
      "isDataTypeInferred": true,
      "description": "Sales > General Data > Customers > General >Sales Representative Code",
      "isHidden": true,
      "sourceColumn": "Customer[SalesPersonPurchaserName]",
      "annotations": [
        {
          "name": "TabularEditor_TranslatedNames",
          "value": "{\"de-DE\":\"Name\",\"en-US\":\"Sales Representative Name\",\"nl-NL\":\"Vertegenwoordigernaam\"}"
        },
        {
          "name": "TabularEditor_TranslatedDescriptions",
          "value": "{\"de-DE\":\"Startseite/Debitoren/Fakturierung\",\"en-US\":\"Sales > General Data > Customers > General >Sales Representative Code\",\"nl-NL\":\"Verkopen > Stamgegevens > Klanten > Vertegenwoordiger Naam\"}"
        }
      ]
    },
    {
      "type": "calculatedTableColumn",
      "name": "SalesPersonPurchaserCodeName",
      "dataType": "string",
      "isNameInferred": true,
      "isDataTypeInferred": true,
      "description": "Sales > General Data > Customers > General >Sales Representative Code",
      "sourceColumn": "Customer[SalesPersonPurchaserCodeName]",
      "annotations": [
        {
          "name": "TabularEditor_TranslatedNames",
          "value": "{\"de-DE\":\"Verkäufer Code\",\"en-US\":\"Sales Representative\",\"nl-NL\":\"Vertegenwoordiger\"}"
        },
        {
          "name": "TabularEditor_TranslatedDescriptions",
          "value": "{\"de-DE\":\"Startseite/Debitoren/Zahlungen\",\"en-US\":\"Sales > General Data > Customers > General >Sales Representative Code\",\"nl-NL\":\"Verkopen > Stamgegevens > Klanten > Vertegenwoordiger\"}"
        }
      ]
    },
    {
      "type": "calculatedTableColumn",
      "name": "PaymentTermsCode",
      "dataType": "string",
      "isNameInferred": true,
      "isDataTypeInferred": true,
      "description": "Sales > Basic Data > Customers > Payment > Payment Terms Code",
      "isHidden": true,
      "sourceColumn": "Customer[PaymentTermsCode]",
      "annotations": [
        {
          "name": "TabularEditor_TranslatedNames",
          "value": "{\"de-DE\":\"Zahlung Bedingungs Code\",\"en-US\":\"Payment Terms Code\",\"nl-NL\":\"Betalingsconditie code\"}"
        },
        {
          "name": "TabularEditor_TranslatedDescriptions",
          "value": "{\"de-DE\":\"Startseite/Debitoren/Zahlungen\",\"en-US\":\"Sales > Basic Data > Customers > Payment > Payment Terms Code\",\"nl-NL\":\"Verkoop > Stamgegevens > Klanten > Betaling > Betalingscondities\"}"
        }
      ]
    },
    {
      "type": "calculatedTableColumn",
      "name": "PaymentTermsDescription",
      "dataType": "string",
      "isNameInferred": true,
      "isDataTypeInferred": true,
      "description": "Sales > Basic Data > Customers > Payment > Payment Terms Code",
      "isHidden": true,
      "sourceColumn": "Customer[PaymentTermsDescription]",
      "annotations": [
        {
          "name": "TabularEditor_TranslatedNames",
          "value": "{\"de-DE\":\"Zahlung Bedingungs Beschreibung\",\"en-US\":\"Payment Terms Desc\",\"nl-NL\":\"Betalingsconditie omschrijving\"}"
        },
        {
          "name": "TabularEditor_TranslatedDescriptions",
          "value": "{\"de-DE\":\"Startseite/Debitoren/Zahlungen\",\"en-US\":\"Sales > Basic Data > Customers > Payment > Payment Terms Code\",\"nl-NL\":\"Verkoop > Stamgegevens > Klanten > Betaling > Betalingscondities\"}"
        }
      ]
    },
    {
      "type": "calculatedTableColumn",
      "name": "PaymentTermsCodeDescription",
      "dataType": "string",
      "isNameInferred": true,
      "isDataTypeInferred": true,
      "description": "Sales > Basic Data > Customers > Payment > Payment Terms Code",
      "sourceColumn": "Customer[PaymentTermsCodeDescription]",
      "annotations": [
        {
          "name": "TabularEditor_TranslatedNames",
          "value": "{\"de-DE\":\"Zahlung Bedingungs Beschreibung\",\"en-US\":\"Payment Terms\",\"nl-NL\":\"Betalingsconditie\"}"
        },
        {
          "name": "TabularEditor_TranslatedDescriptions",
          "value": "{\"de-DE\":\"Startseite/Debitoren/Zahlungen\",\"en-US\":\"Sales > Basic Data > Customers > Payment > Payment Terms Code\",\"nl-NL\":\"Verkoop > Stamgegevens > Klanten > Betaling > Betalingscondities\"}"
        }
      ]
    },
    {
      "type": "calculatedTableColumn",
      "name": "CustomerStatus",
      "dataType": "string",
      "isNameInferred": true,
      "isDataTypeInferred": true,
      "description": "The Customer Status",
      "sourceColumn": "Customer[CustomerStatus]",
      "annotations": [
        {
          "name": "TabularEditor_TranslatedNames",
          "value": "{\"en-US\":\"Customer status\",\"nl-NL\":\"Klantstatus\"}"
        },
        {
          "name": "TabularEditor_TranslatedDescriptions",
          "value": "{\"en-US\":\"The Customer Status\",\"nl-NL\":\"Klantstatus\"}"
        }
      ]
    },
    {
      "type": "calculatedTableColumn",
      "name": "CustomerType",
      "dataType": "string",
      "isNameInferred": true,
      "isDataTypeInferred": true,
      "description": "The CustomerType",
      "sourceColumn": "Customer[CustomerType]",
      "annotations": [
        {
          "name": "TabularEditor_TranslatedNames",
          "value": "{\"en-US\":\"Customer Type\",\"nl-NL\":\"Klanttype\"}"
        },
        {
          "name": "TabularEditor_TranslatedDescriptions",
          "value": "{\"en-US\":\"The CustomerType\",\"nl-NL\":\"Klanttype\"}"
        }
      ]
    }
  ],
  "partitions": [
    {
      "name": "Calculated Table",
      "source": {
        "type": "calculated",
        "expression": "ALL ( 'Customer' )"
      }
    }
  ],
  "annotations": [
    {
      "name": "TabularEditor_TranslatedNames",
      "value": "{\"de-DE\":\"Verkäufen an Debitoren\",\"en-US\":\"Sell To Customer\",\"nl-NL\":\"Verkocht Aan Klant\"}"
    },
    {
      "name": "TabularEditor_Relationships",
      "value": "[]"
    }
  ]
}