{
  "name": "SalesBudgetSalesAmount_Variance%_LCY_SB",
  "description": "_Variance_ percentage between actual sales and budgetted sales in local currency",
  "expression": "DIVIDE ( [SalesBudgetSalesAmount_Variance_LCY_SB], [SalesBudgetAmount_LCY_SB] )",
  "displayFolder": "Σ Local Currency",
  "annotations": [
    {
      "name": "TabularEditor_TranslatedNames",
      "value": "{\"de-DE\":\"Budgetierte Verkaufsbetrag Varianz %\",\"en-US\":\"Budget vs Sales Amount Variance %\",\"nl-NL\":\"Budget tov verkopen verschil %\"}"
    },
    {
      "name": "TabularEditor_TranslatedDescriptions",
      "value": "{\"de-DE\":\"Abteilungen/Verkauf & Marketing/Berichte und Analysen/Verkaufsbudgets/Budget Bearbeiten\",\"en-US\":\"_Variance_ percentage between actual sales and budgetted sales in local currency\",\"nl-NL\":\"Procentueel verschil tussen werkelijke verkopen en gebudgeteerde verkopen in lokale valuta\"}"
    },
    {
      "name": "TabularEditor_TranslatedDisplayFolders",
      "value": "{\"de-DE\":\"Σ Local Währung\",\"en-US\":\"Σ Local Currency\",\"nl-NL\":\"Σ Lokale Valuta\"}"
    }
  ]
}