{
  "name": "SalesBudgetSalesAmount_Index_SB",
  "description": "Budgeted sales amount. NAV: Sales > Analysis & Reporting > Sales Budgets > Edit Budget > Budgeted Sales Amount",
  "expression": "DIVIDE ( [SalesAmount_SVE], [SalesBudgetAmount_SB] ) * 100",
  "formatString": "#,##0.00",
  "annotations": [
    {
      "name": "TabularEditor_TranslatedNames",
      "value": "{\"en-US\":\"Budget vs Sales Amount Index\",\"nl-NL\":\"Budget tov verkopen index\"}"
    },
    {
      "name": "TabularEditor_TranslatedDescriptions",
      "value": "{\"en-US\":\"Budgeted sales amount. NAV: Sales > Analysis & Reporting > Sales Budgets > Edit Budget > Budgeted Sales Amount\",\"nl-NL\":\"Totale omzet opgenomen in het budget. NAV: Verkoop > Analyse en Rapportage > Verkoopbudgetten > Overzicht verkoopbudget > Totale omzet (budget)\"}"
    }
  ]
}