{
  "name": "AmountCredit_LCY_AP",
  "description": "Departments/Purchase/Basic Data/Vendors > Ledger Entries > Navigate > Detailed Vendor Ledger Entries > Amount",
  "expression": "SUM ( 'factAccountsPayable'[AmountCredit_LCY] )",
  "formatString": "#,##0.00",
  "displayFolder": "Σ Local Currency",
  "annotations": [
    {
      "name": "TabularEditor_TranslatedNames",
      "value": "{\"de-DE\":\"Betrag Haben lv\",\"en-US\":\"Amount Credit LCY\",\"nl-NL\":\"Bedrag credit lv\"}"
    },
    {
      "name": "TabularEditor_TranslatedDescriptions",
      "value": "{\"de-DE\":\"Gebuchte Belege/Debitorenposten/Zeilen\",\"en-US\":\"Departments/Purchase/Basic Data/Vendors > Ledger Entries > Navigate > Detailed Vendor Ledger Entries > Amount\",\"nl-NL\":\"Afdelingen/Inkoop/Stamgegevens/Leveranciers > Posten > Navigeren > Gedetail. Leverancierspost > Bedrag\"}"
    },
    {
      "name": "TabularEditor_TranslatedDisplayFolders",
      "value": "{\"de-DE\":\"Σ Local Währung\",\"en-US\":\"Σ Local Currency\",\"nl-NL\":\"Σ Lokale Valuta\"}"
    }
  ]
}