{
  "name": "AmountNetChange%_AP",
  "description": "Departments/Purchase/Basic Data/Vendors > Ledger Entries > Navigate > Detailed Vendor Ledger Entries > Amount",
  "expression": "DIVIDE ( [Amount_AP], [BalanceStart_AP] )",
  "formatString": "#,##0.0 %",
  "displayFolder": "Σ % Percentage",
  "annotations": [
    {
      "name": "TabularEditor_TranslatedNames",
      "value": "{\"de-DE\":\"% Bewegung\",\"en-US\":\"% Net Change Amount\",\"nl-NL\":\"% Netto mutatie\"}"
    },
    {
      "name": "TabularEditor_TranslatedDescriptions",
      "value": "{\"de-DE\":\"Abteilungen > Einkauf > Planung > Kreditoren > Navigate > Posten\",\"en-US\":\"Departments/Purchase/Basic Data/Vendors > Ledger Entries > Navigate > Detailed Vendor Ledger Entries > Amount\",\"nl-NL\":\"Afdelingen/Inkoop/Stamgegevens/Leveranciers > Posten > Navigeren > Gedetail. Leverancierspost > Bedrag\"}"
    },
    {
      "name": "TabularEditor_TranslatedDisplayFolders",
      "value": "{\"de-DE\":\"Σ % Percentage\",\"en-US\":\"Σ % Percentage\",\"nl-NL\":\"Σ % Percentage\"}"
    }
  ]
}