{
  "name": "AvgBalance_AP",
  "description": "Average Balance",
  "expression": "AVERAGEX ( 'Date', [Balance_AP] )",
  "formatString": "#,##0.00",
  "annotations": [
    {
      "name": "TabularEditor_TranslatedNames",
      "value": "{\"de-DE\":\"Ø Kreditorenbilanz\",\"en-US\":\"Avg AP Balance\",\"nl-NL\":\"Gem crediteurensaldo\"}"
    },
    {
      "name": "TabularEditor_TranslatedDescriptions",
      "value": "{\"de-DE\":\"Balanz Im Durchschnit\",\"en-US\":\"Average Balance\",\"nl-NL\":\"Gemiddelde balans\"}"
    }
  ]
}