{
  "name": "AvgOpenDays_AP",
  "description": "Average Open Days",
  "expression": [
    "VAR MaxDate =",
    "    MAX ( 'Date'[Date] )",
    "VAR MinDate =",
    "    MIN ( 'Date'[Date] )",
    "RETURN",
    "    AVERAGEX (",
    "        ADDCOLUMNS (",
    "            FILTER (",
    "                'VendorInvoice',",
    "                'VendorInvoice'[VendorInvoicePaidDate] > MinDate",
    "                    && 'VendorInvoice'[VendorInvoicePostingDate] <= MaxDate",
    "                    && 'VendorInvoice'[VendorInvoiceID] <> 0",
    "                    && CONTAINS (",
    "                        CALCULATETABLE ( 'factAccountsPayable', ALL ( 'Date' ) ),",
    "                        'factAccountsPayable'[VendorInvoiceID], 'VendorInvoice'[VendorInvoiceID]",
    "                    )",
    "            ),",
    "            \"OpenDays\", DATEDIFF (",
    "                'VendorInvoice'[VendorInvoicePostingDate],",
    "                MIN ( 'VendorInvoice'[VendorInvoicePaidDate], MaxDate ),",
    "                DAY",
    "            )",
    "        ),",
    "        [OpenDays]",
    "    )"
  ],
  "formatString": "#,##0",
  "displayFolder": "Σ Days",
  "annotations": [
    {
      "name": "TabularEditor_TranslatedNames",
      "value": "{\"de-DE\":\"Ø Offnen Tage\",\"en-US\":\"Avg Open Days\",\"nl-NL\":\"Gem dagen openstaand\"}"
    },
    {
      "name": "TabularEditor_TranslatedDescriptions",
      "value": "{\"de-DE\":\"Offnen Tage Im Durchschnit\",\"en-US\":\"Average Open Days\",\"nl-NL\":\"Gemiddeld dagen openstaand\"}"
    },
    {
      "name": "TabularEditor_TranslatedDisplayFolders",
      "value": "{\"de-DE\":\"Σ Tage\",\"en-US\":\"Σ Days\",\"nl-NL\":\"Σ Dagen\"}"
    }
  ]
}