{
  "name": "NumberOfEntries_AP",
  "description": "Departments/Purchase/Basic Data/Vendors > Ledger Entries > Navigate > Detailed Vendor Ledger Entries > Count of the entries",
  "expression": "COUNTROWS ( 'factAccountsPayable' )",
  "formatString": "#,##0",
  "displayFolder": "Σ # Invoices",
  "annotations": [
    {
      "name": "TabularEditor_TranslatedNames",
      "value": "{\"de-DE\":\"# Gebuchten Belege\",\"en-US\":\"# Transactions\",\"nl-NL\":\"# Transacties\"}"
    },
    {
      "name": "TabularEditor_TranslatedDescriptions",
      "value": "{\"de-DE\":\"Abteilungen > Einkauf > Planung > Kreditoren > Navigate > Posten\",\"en-US\":\"Departments/Purchase/Basic Data/Vendors > Ledger Entries > Navigate > Detailed Vendor Ledger Entries > Count of the entries\",\"nl-NL\":\"Afdelingen/Inkoop/Stamgegevens/Leveranciers > Posten > Navigeren > Gedetail. Leverancierspost > Aantal posten\"}"
    },
    {
      "name": "TabularEditor_TranslatedDisplayFolders",
      "value": "{\"de-DE\":\"Σ # Sachkonto\",\"en-US\":\"Σ # Invoices\",\"nl-NL\":\"Σ # Facturen\"}"
    }
  ]
}