{
  "name": "OverdueAmount_AP",
  "description": "Departments/Purchase/Basic Data/Vendors > Ledger Entries > Navigate > Detailed Vendor Ledger Entries > Amount overdue",
  "expression": [
    "VAR MaxDate =",
    "    MAX ( 'Date'[Date] )",
    "VAR MinDate =",
    "    MIN ( 'Date'[Date] )",
    "VAR AfterDue =",
    "    FILTER ( ALL ( 'Date' ), 'Date'[Date] < MaxDate )",
    "VAR AfterPosted =",
    "    FILTER (",
    "        'VendorInvoice',",
    "        'VendorInvoice'[VendorInvoicePaidDate] > MaxDate",
    "            && 'VendorInvoice'[VendorInvoiceDueDate] < MaxDate",
    "            && 'VendorInvoice'[VendorInvoiceID] <> 0",
    "    )",
    "RETURN",
    "    VAR OverdueInvoiceAmount =",
    "        CALCULATE ( [Amount_AP], AfterDue, AfterPosted )",
    "    RETURN",
    "        IF ( OverdueInvoiceAmount <> 0, OverdueInvoiceAmount )"
  ],
  "formatString": "#,##0.00",
  "annotations": [
    {
      "name": "TabularEditor_TranslatedNames",
      "value": "{\"de-DE\":\"Überfälliger Betrag\",\"en-US\":\"Invoice Amount Overdue\",\"nl-NL\":\"Achterstallig factuurbedrag\"}"
    },
    {
      "name": "TabularEditor_TranslatedDescriptions",
      "value": "{\"de-DE\":\"Abteilungen > Einkauf > Planung > Kreditoren > Navigate > Posten\",\"en-US\":\"Departments/Purchase/Basic Data/Vendors > Ledger Entries > Navigate > Detailed Vendor Ledger Entries > Amount overdue\",\"nl-NL\":\"Afdelingen/Inkoop/Stamgegevens/Leveranciers > Posten > Navigeren > Gedetail. Leverancierspost > Bedrag na vervaldatum\"}"
    }
  ]
}