{
  "name": "OverdueInvoiceAmount%_AP",
  "description": "Departments/Purchase/Basic Data/Vendors > Ledger Entries > Navigate > Detailed Vendor Ledger Entries > Amount overdue",
  "expression": "DIVIDE ( [OverdueAmount_AP], [Balance_AP] )",
  "formatString": "#,##0.0 %",
  "displayFolder": "Σ % Percentage",
  "annotations": [
    {
      "name": "TabularEditor_TranslatedNames",
      "value": "{\"de-DE\":\"% Überfälliger\",\"en-US\":\"% Invoice Amount Overdue\",\"nl-NL\":\"% Achterstallig factuurbedrag \"}"
    },
    {
      "name": "TabularEditor_TranslatedDescriptions",
      "value": "{\"de-DE\":\"Abteilungen > Einkauf > Planung > Kreditoren > Navigate > Posten\",\"en-US\":\"Departments/Purchase/Basic Data/Vendors > Ledger Entries > Navigate > Detailed Vendor Ledger Entries > Amount overdue\",\"nl-NL\":\"Afdelingen/Inkoop/Stamgegevens/Leveranciers > Posten > Navigeren > Gedetail. Leverancierspost > Bedrag na vervaldatum\"}"
    },
    {
      "name": "TabularEditor_TranslatedDisplayFolders",
      "value": "{\"de-DE\":\"Σ % Percentage\",\"en-US\":\"Σ % Percentage\",\"nl-NL\":\"Σ % Percentage\"}"
    }
  ]
}